course;n;overall_rating;general_info_clear;fits_knowledge_level;learned_from_videolectures;resource_quality;discussions_useful;quizzes_useful;assignment_useful
Think Biobased (Learn);38;7,8;4,2;4,1;NA;4,1;3,4;4,2;11% - 47% - 42%
Think Biobased (Instructure);29;8,0;4,3;4,1;4,3;4,2;3,8;4,0;3% - 55% - 41%
Biobased Green Chemistry (Instructure); 6;8,0;4,2;4,2;3,7;4,5;3,7;4,5;0% - 33% - 67%
Biobased Business Development (Learn);20;7,5;4,2;3,9;4,0;4,3;3,7;3,9;15% - 40% - 40%
Biobased Business Development (Instructure);27;7,6;4,1;3,9;3,9;4,0;3,7;3,8;4% - 67% - 30%
Biobased Building (Learn);31;7,8;4,2;3,9;4,1;4,1;3,4;3,9;6% - 52% - 42%
Biobased Building (Instructure);25;8,2;4,0;4,2;4,2;3,9;3,5;4,1;4% - 68% - 28%
Biobased Energy (Instructure); 9;7,6;4,2;3,8;3,8;3,9;3,2;3,8;0% - 89% - 0%
