Student,ID,SIS User ID,SIS Login ID,Root Account,Section,Individual Assignment (11437981),Wood - Quiz (11437976),Bamboo - Quiz (11437980),Straw / Reed - Quiz (11437973),Hemp / Flax - Quiz (11437977),Biocomposite - Quiz (11437974),Mycelium - Quiz (11437978),Hempcrete - Quiz (11437979),Introduction - Quiz (11437975),Assignments Current Points,Assignments Final Points,Assignments Current Score,Assignments Unposted Current Score,Assignments Final Score,Assignments Unposted Final Score,Current Points,Final Points,Current Score,Unposted Current Score,Final Score,Unposted Final Score
    Points Possible,,,,,,"52,00","7,00","7,00","8,00","7,00","7,00","8,00","7,00","7,00",(alleen-lezen),(alleen-lezen),(alleen-lezen),(alleen-lezen),(alleen-lezen),(alleen-lezen),(alleen-lezen),(alleen-lezen),(alleen-lezen),(alleen-lezen),(alleen-lezen),(alleen-lezen)
"(test), Mart Verwijmeren",24602224,,m.verwijmeren2@avans.nl,canvas.instructure.com,Biobased Building,,,,,,,,,,"0,00","0,00",,,"0,00","0,00","0,00","0,00",,,"0,00","0,00"
2432782370336864,24653861,,2432782370336864,canvas.instructure.com,Biobased Building,,,,,,,,,,"0,00","0,00",,,"0,00","0,00","0,00","0,00",,,"0,00","0,00"
A,24638754,,cornejogerson@gmail.com,canvas.instructure.com,Biobased Building,,"7,00",,,,,,,"7,00","14,00","14,00","100,00","100,00","12,73","12,73","14,00","14,00","100,00","100,00","12,73","12,73"
"Alonso, Sandra",24700295,,sandra.alonso@tutanota.com,canvas.instructure.com,Biobased Building,,,,,,,,,"6,00","6,00","6,00","85,71","85,71","5,45","5,45","6,00","6,00","85,71","85,71","5,45","5,45"
Anna,26106342,,annamushu19@gmail.com,canvas.instructure.com,Biobased Building,,,,,,,,,,"0,00","0,00",,,"0,00","0,00","0,00","0,00",,,"0,00","0,00"
"atmaca, fadime",25360318,,atma0006@hz.nl,canvas.instructure.com,Biobased Building,,,,,,,,,,"0,00","0,00",,,"0,00","0,00","0,00","0,00",,,"0,00","0,00"
"belhadad, halima",24668815,,belhadadhalima@outlook.fr,canvas.instructure.com,Biobased Building,,,,,,,,,,"0,00","0,00",,,"0,00","0,00","0,00","0,00",,,"0,00","0,00"
"Besuijen, Pieter",24775278,,besu0005@hz.nl,canvas.instructure.com,Biobased Building,"52,00","7,00","6,00","7,00","7,00","6,00","7,00","7,00","6,00","105,00","105,00","95,45","95,45","95,45","95,45","105,00","105,00","95,45","95,45","95,45","95,45"
"Bhinde, Priya",24275662,,gisgr8.gg@gmail.com,canvas.instructure.com,Biobased Building,"52,00","7,00","7,00","8,00","7,00","7,00","8,00","7,00","7,00","110,00","110,00","100,00","100,00","100,00","100,00","110,00","110,00","100,00","100,00","100,00","100,00"
"Borisova, Steliyana",25028497,,bori0003@hz.nl,canvas.instructure.com,Biobased Building,,,,,,,,,,"0,00","0,00",,,"0,00","0,00","0,00","0,00",,,"0,00","0,00"
"Bos, Stephanie",24975387,,sabos1@avans.nl,canvas.instructure.com,Biobased Building,"52,00","7,00","7,00","7,00","7,00","7,00","7,00","7,00","7,00","108,00","108,00","98,18","98,18","98,18","98,18","108,00","108,00","98,18","98,18","98,18","98,18"
"Bos, Stephanie",24586176,,sa.bos1@avans.nl,canvas.instructure.com,Biobased Building,,"7,00","7,00",,"7,00","7,00",,"7,00","7,00","42,00","42,00","100,00","100,00","38,18","38,18","42,00","42,00","100,00","100,00","38,18","38,18"
"Boschman, Mark",24874042,,mb@roosros.nl,canvas.instructure.com,Biobased Building,,,,,,,,,,"0,00","0,00",,,"0,00","0,00","0,00","0,00",,,"0,00","0,00"
"Bree, Guus van",24587714,,guusvanbree@hotmail.com,canvas.instructure.com,Biobased Building,,,,,,,,,,"0,00","0,00",,,"0,00","0,00","0,00","0,00",,,"0,00","0,00"
"Broekhoven, Querijn van",24579206,,qtvanbroekhoven@gmail.com,canvas.instructure.com,Biobased Building,"52,00","7,00","7,00","8,00","7,00","7,00","8,00","7,00","7,00","110,00","110,00","100,00","100,00","100,00","100,00","110,00","110,00","100,00","100,00","100,00","100,00"
"Bruggeman, Devy",25687303,,brug0014@hz.nl,canvas.instructure.com,Biobased Building,,"7,00","7,00","8,00","7,00","7,00","8,00","7,00","7,00","58,00","58,00","100,00","100,00","52,73","52,73","58,00","58,00","100,00","100,00","52,73","52,73"
"Burg, Kris van der",24929945,,krisvanderburg@kpnmail.nl,canvas.instructure.com,Biobased Building,,,,,,,,,,"0,00","0,00",,,"0,00","0,00","0,00","0,00",,,"0,00","0,00"
"Burger, Eva",25572910,,burg0050@hz.nl,canvas.instructure.com,Biobased Building,,,,,,,,,,"0,00","0,00",,,"0,00","0,00","0,00","0,00",,,"0,00","0,00"
"Burger, Eva",25788936,,evaburger40@gmail.com,canvas.instructure.com,Biobased Building,,"7,00","7,00","8,00","7,00","7,00","8,00","7,00","7,00","58,00","58,00","100,00","100,00","52,73","52,73","58,00","58,00","100,00","100,00","52,73","52,73"
"Cerf, K.I.",26193709,,kieran.cerf@gmail.com,canvas.instructure.com,Biobased Building,,,,,,,,,,"0,00","0,00",,,"0,00","0,00","0,00","0,00",,,"0,00","0,00"
"Chun, Ng Ping",24599986,,skytreetokyo@yandex.com,canvas.instructure.com,Biobased Building,,,,,,,,,,"0,00","0,00",,,"0,00","0,00","0,00","0,00",,,"0,00","0,00"
"Clardij, Pluk",24663304,,pclardij@avans.nl,canvas.instructure.com,Biobased Building,,,,,,,,,,"0,00","0,00",,,"0,00","0,00","0,00","0,00",,,"0,00","0,00"
"Compeer, Alexander",24586022,,ae.compeer@avans.nl,canvas.instructure.com,Biobased Building,,"4,00",,,,,,,,"4,00","4,00","57,14","57,14","3,64","3,64","4,00","4,00","57,14","57,14","3,64","3,64"
"Cornejo, Gerson",24726078,,cornejoreyes96@gmail.com,canvas.instructure.com,Biobased Building,"0,00","7,00","7,00","8,00","7,00","7,00","8,00","7,00","7,00","58,00","58,00","52,73","52,73","52,73","52,73","58,00","58,00","52,73","52,73","52,73","52,73"
"Costa, Jairo da",24798150,,jairo.costa.junior@gmail.com,canvas.instructure.com,Biobased Building,,,,,,,,,,"0,00","0,00",,,"0,00","0,00","0,00","0,00",,,"0,00","0,00"
"Crucq, Joyce",24733143,,cruc0010@hz.nl,canvas.instructure.com,Biobased Building,"52,00","7,00","7,00","8,00","7,00","7,00","8,00","7,00","7,00","110,00","110,00","100,00","100,00","100,00","100,00","110,00","110,00","100,00","100,00","100,00","100,00"
"diaz, Hugo",25797000,,Hgoalfredo@hotmail.com,canvas.instructure.com,Biobased Building,,,,,,,,,,"0,00","0,00",,,"0,00","0,00","0,00","0,00",,,"0,00","0,00"
"Dijk, Brenda van",24502782,,brenda_snoetje@hotmail.com,canvas.instructure.com,Biobased Building,,,,,,,,,,"0,00","0,00",,,"0,00","0,00","0,00","0,00",,,"0,00","0,00"
donnefort,26206630,,clemdonnefort@hotmail.fr,canvas.instructure.com,Biobased Building,,,,,,,,,,"0,00","0,00",,,"0,00","0,00","0,00","0,00",,,"0,00","0,00"
"Dorsselaer, Mike van",25102874,,mikevd1998@gmail.com,canvas.instructure.com,Biobased Building,,,,,,,,,,"0,00","0,00",,,"0,00","0,00","0,00","0,00",,,"0,00","0,00"
"Eenennaam, Jessica van",25219643,,jessicavanee@outlook.com,canvas.instructure.com,Biobased Building,,,,,,,,,,"0,00","0,00",,,"0,00","0,00","0,00","0,00",,,"0,00","0,00"
"Evers, Jelle",25387050,,Ever0031@hz.nl,canvas.instructure.com,Biobased Building,"52,00","7,00","6,00","7,00","7,00","7,00","6,00","6,00","6,00","104,00","104,00","94,55","94,55","94,55","94,55","104,00","104,00","94,55","94,55","94,55","94,55"
"Francke, Quinto",25392026,,fran0145@hz.nl,canvas.instructure.com,Biobased Building,"0,00","6,00","7,00","7,00","6,00","7,00","7,00","6,00","6,00","52,00","52,00","47,27","47,27","47,27","47,27","52,00","52,00","47,27","47,27","47,27","47,27"
"Franssen, Eefje",24763301,,eefje.franssen@hotmail.com,canvas.instructure.com,Biobased Building,"52,00","6,00","6,00","6,00","7,00","6,00","6,00","7,00","6,00","102,00","102,00","92,73","92,73","92,73","92,73","102,00","102,00","92,73","92,73","92,73","92,73"
"Franssen, Eefje",24657537,,fran0144@hz.nl,canvas.instructure.com,Biobased Building,,,,,,,,,,"0,00","0,00",,,"0,00","0,00","0,00","0,00",,,"0,00","0,00"
Ger,26065620,,bioinovacioncornejo@gmail.com,canvas.instructure.com,Biobased Building,,,,,,,,,,"0,00","0,00",,,"0,00","0,00","0,00","0,00",,,"0,00","0,00"
"Giezen, Antoine",25107665,,antoine.giezen@rws.nl,canvas.instructure.com,Biobased Building,,,,,,,,,"6,00","6,00","6,00","85,71","85,71","5,45","5,45","6,00","6,00","85,71","85,71","5,45","5,45"
"Gils, Joelle van",25101751,,gils0020@hz.nl,canvas.instructure.com,Biobased Building,,,,,,,,,,"0,00","0,00",,,"0,00","0,00","0,00","0,00",,,"0,00","0,00"
"Gils, Joëlle van",25454533,,joellee1997vg@hotmail.com,canvas.instructure.com,Biobased Building,,"7,00","7,00","8,00","7,00","7,00","8,00","7,00","7,00","58,00","58,00","100,00","100,00","52,73","52,73","58,00","58,00","100,00","100,00","52,73","52,73"
"Gios, Lieve",24876730,,lieve.gios@thomasmore.be,canvas.instructure.com,Biobased Building,,,,,,,,,,"0,00","0,00",,,"0,00","0,00","0,00","0,00",,,"0,00","0,00"
"govaarts, jasmijn",24964681,,gova0010@hz.nl,canvas.instructure.com,Biobased Building,"52,00","7,00","7,00","8,00","7,00","7,00","8,00","7,00","7,00","110,00","110,00","100,00","100,00","100,00","100,00","110,00","110,00","100,00","100,00","100,00","100,00"
"Guan, Jia-Ying",25176939,,jiaying.guan@gmail.com,canvas.instructure.com,Biobased Building,,,,,,,,,,"0,00","0,00",,,"0,00","0,00","0,00","0,00",,,"0,00","0,00"
"Haag, Annechien",25964186,,annechienhaag@gmail.com,canvas.instructure.com,Biobased Building,,,,,,,,,,"0,00","0,00",,,"0,00","0,00","0,00","0,00",,,"0,00","0,00"
"Haverkamp, Nina",24775074,,ninahaverkamp@hotmail.nl,canvas.instructure.com,Biobased Building,,,,,,,,,,"0,00","0,00",,,"0,00","0,00","0,00","0,00",,,"0,00","0,00"
"Hijenga, Sam",26274492,,Samhijenga@gmail.com,canvas.instructure.com,Biobased Building,,,,,,,,,,"0,00","0,00",,,"0,00","0,00","0,00","0,00",,,"0,00","0,00"
"Jeronimus, Nick",24997727,,nickjeronimus@gmail.com,canvas.instructure.com,Biobased Building,,"6,00","6,00","7,00","6,00","6,00","8,00","6,00","7,00","52,00","52,00","89,66","89,66","47,27","47,27","52,00","52,00","89,66","89,66","47,27","47,27"
"Kanters, Jan-Willem",24876515,,jan-willem@cirkellab.nl,canvas.instructure.com,Biobased Building,,,,,,,,,,"0,00","0,00",,,"0,00","0,00","0,00","0,00",,,"0,00","0,00"
"Keresztes, Isabella",24504029,,iac.keresztes@student.avans.nl,canvas.instructure.com,Biobased Building,,,,,,,,,,"0,00","0,00",,,"0,00","0,00","0,00","0,00",,,"0,00","0,00"
"Kiss, Andrea",26172585,,kiss0002@hz.nl,canvas.instructure.com,Biobased Building,,"7,00","7,00",,,,,,,"14,00","14,00","100,00","100,00","12,73","12,73","14,00","14,00","100,00","100,00","12,73","12,73"
"koorndijk, quincy",25397624,,koor0005@hz.nl,canvas.instructure.com,Biobased Building,,"6,00","7,00","8,00","7,00","7,00","7,00","6,00",,"48,00","48,00","94,12","94,12","43,64","43,64","48,00","48,00","94,12","94,12","43,64","43,64"
"Kruijf, Daan de",24876044,,daan@lerenvoormorgen.org,canvas.instructure.com,Biobased Building,,,,,,,,,,"0,00","0,00",,,"0,00","0,00","0,00","0,00",,,"0,00","0,00"
"Lam, Ruben",25397637,,lam0009@hz.nl,canvas.instructure.com,Biobased Building,,"7,00","7,00","8,00","7,00","7,00","8,00","7,00",,"51,00","51,00","100,00","100,00","46,36","46,36","51,00","51,00","100,00","100,00","46,36","46,36"
"Leon, Diederick Mendes de",25025143,,diederick_mdl@hotmail.com,canvas.instructure.com,Biobased Building,,,,,,,,,,"0,00","0,00",,,"0,00","0,00","0,00","0,00",,,"0,00","0,00"
listir,24707425,,listir@protonmail.com,canvas.instructure.com,Biobased Building,,,,,,,"8,00","4,00",,"12,00","12,00","80,00","80,00","10,91","10,91","12,00","12,00","80,00","80,00","10,91","10,91"
"Lobbezoo, Mitch",25397640,,lobb0013@hz.nl,canvas.instructure.com,Biobased Building,,"7,00","7,00","8,00","7,00","7,00","8,00","7,00","7,00","58,00","58,00","100,00","100,00","52,73","52,73","58,00","58,00","100,00","100,00","52,73","52,73"
"Lopes, Thales Lima",24938505,,thales.lima_@outlook.com,canvas.instructure.com,Biobased Building,"0,00","7,00","7,00","7,00","7,00","7,00","8,00","6,00","6,00","55,00","55,00","50,00","50,00","50,00","50,00","55,00","55,00","50,00","50,00","50,00","50,00"
"Lopes, Thales Lima",24825950,,thalesllopes@hotmail.com,canvas.instructure.com,Biobased Building,,"7,00",,,,,,,"5,00","12,00","12,00","85,71","85,71","10,91","10,91","12,00","12,00","85,71","85,71","10,91","10,91"
"Mehrpouya, Mehrshad",25391855,,mehrshad.mehrpouya@gmail.com,canvas.instructure.com,Biobased Building,,,,,,,,,,"0,00","0,00",,,"0,00","0,00","0,00","0,00",,,"0,00","0,00"
"Mertens, Stijn",25908230,,stijnmertens2001@hotmail.com,canvas.instructure.com,Biobased Building,,"7,00","7,00",,,,,,,"14,00","14,00","100,00","100,00","12,73","12,73","14,00","14,00","100,00","100,00","12,73","12,73"
"Michielsen, Glenn",24586394,,mich0021@hz.nl,canvas.instructure.com,Biobased Building,"52,00","7,00","7,00","8,00","7,00","7,00","8,00","7,00","7,00","110,00","110,00","100,00","100,00","100,00","100,00","110,00","110,00","100,00","100,00","100,00","100,00"
"Minderhoud, Lizzy",24657479,,mind0048@hz.nl,canvas.instructure.com,Biobased Building,"52,00","7,00","7,00","8,00","7,00","7,00","8,00","7,00","7,00","110,00","110,00","100,00","100,00","100,00","100,00","110,00","110,00","100,00","100,00","100,00","100,00"
"Moghal, Shabir",24893335,,Sam_mk@hotmail.com,canvas.instructure.com,Biobased Building,"52,00","7,00","7,00","8,00","7,00","7,00","8,00","7,00","7,00","110,00","110,00","100,00","100,00","100,00","100,00","110,00","110,00","100,00","100,00","100,00","100,00"
"Nielen, Michael van",26121529,,mhm.vannielen@avans.nl,canvas.instructure.com,Biobased Building,,,,,,,,,,"0,00","0,00",,,"0,00","0,00","0,00","0,00",,,"0,00","0,00"
"Oosten, Nathan van",24946574,,oost0089@hz.nl,canvas.instructure.com,Biobased Building,,"7,00","7,00","8,00","7,00","6,00","8,00","6,00","6,00","55,00","55,00","94,83","94,83","50,00","50,00","55,00","55,00","94,83","94,83","50,00","50,00"
"Poncet, Alexandra",25095928,,alex.poncet@gmail.com,canvas.instructure.com,Biobased Building,,,"5,00",,,,,,,"5,00","5,00","71,43","71,43","4,55","4,55","5,00","5,00","71,43","71,43","4,55","4,55"
"Pronk, Annemiek",24967925,,j.w.pronk@uu.nl,canvas.instructure.com,Biobased Building,,,,,,,,,,"0,00","0,00",,,"0,00","0,00","0,00","0,00",,,"0,00","0,00"
"Quevedo, Danilo",26283920,,danilo.quevedo@gmail.com,canvas.instructure.com,Biobased Building,,,,,,,,,,"0,00","0,00",,,"0,00","0,00","0,00","0,00",,,"0,00","0,00"
"Radovic, Jagos",24589690,,jagos.radovic@ucalgary.ca,canvas.instructure.com,Biobased Building,,,,,,,,,,"0,00","0,00",,,"0,00","0,00","0,00","0,00",,,"0,00","0,00"
"reits, ben",24810561,,benniereits@hotmail.com,canvas.instructure.com,Biobased Building,,,,,,,,,,"0,00","0,00",,,"0,00","0,00","0,00","0,00",,,"0,00","0,00"
"remigius, marije",24678877,,marijeremigius@hotmail.com,canvas.instructure.com,Biobased Building,,,,,,,"8,00",,,"8,00","8,00","100,00","100,00","7,27","7,27","8,00","8,00","100,00","100,00","7,27","7,27"
"Rijke, Niels de",25085191,,nielsrijkede@gmail.com,canvas.instructure.com,Biobased Building,,,,,,,,,,"0,00","0,00",,,"0,00","0,00","0,00","0,00",,,"0,00","0,00"
"Rijvers, Mats",26068842,,rijv0001@hz.nl,canvas.instructure.com,Biobased Building,,"7,00","7,00","8,00","7,00","7,00","8,00","7,00","7,00","58,00","58,00","100,00","100,00","52,73","52,73","58,00","58,00","100,00","100,00","52,73","52,73"
"Ryckman, Emily Fern",26066972,,Emilyfernryckman@gmail.com,canvas.instructure.com,Biobased Building,,,,,,,,,,"0,00","0,00",,,"0,00","0,00","0,00","0,00",,,"0,00","0,00"
"Sadi, Rashidul",24602063,,rashidul.sadi@gmail.com,canvas.instructure.com,Biobased Building,,,,,,,,,,"0,00","0,00",,,"0,00","0,00","0,00","0,00",,,"0,00","0,00"
"Scheele, Lisa",25275142,,l.scheele@student.avans.nl,canvas.instructure.com,Biobased Building,,,,,,,,,"1,00","1,00","1,00","14,29","14,29","0,91","0,91","1,00","1,00","14,29","14,29","0,91","0,91"
"Schnieder, Niklas",26006916,,contact@niklas-schnieder.com,canvas.instructure.com,Biobased Building,,,,,,,,,,"0,00","0,00",,,"0,00","0,00","0,00","0,00",,,"0,00","0,00"
"Schoonbaert, Tineke",24939190,,tineke.schoonbaert@student.howest.be,canvas.instructure.com,Biobased Building,,,,,,,,,,"0,00","0,00",,,"0,00","0,00","0,00","0,00",,,"0,00","0,00"
"Schuit, Nina",25970288,,ninaschuit33@gmail.com,canvas.instructure.com,Biobased Building,,,,,,,,,,"0,00","0,00",,,"0,00","0,00","0,00","0,00",,,"0,00","0,00"
"Seeters, Roel van",24908333,,Rvseeters@hotmail.com,canvas.instructure.com,Biobased Building,,,,,,,,,,"0,00","0,00",,,"0,00","0,00","0,00","0,00",,,"0,00","0,00"
"Segers, Isa",24730891,,Imsegers@avans.nl,canvas.instructure.com,Biobased Building,,,"6,00",,,,,,,"6,00","6,00","85,71","85,71","5,45","5,45","6,00","6,00","85,71","85,71","5,45","5,45"
"Simons, Ralph",24682992,,ralphsimons@gmail.com,canvas.instructure.com,Biobased Building,,,,,,,,,,"0,00","0,00",,,"0,00","0,00","0,00","0,00",,,"0,00","0,00"
"Sonke, Tristan",25393168,,sonk0003@hz.nl,canvas.instructure.com,Biobased Building,"0,00","6,00","7,00","7,00","6,00","6,00","7,00","7,00","7,00","53,00","53,00","48,18","48,18","48,18","48,18","53,00","53,00","48,18","48,18","48,18","48,18"
"Spijker, Hans",25894020,,spijk63@gmail.com,canvas.instructure.com,Biobased Building,,"6,00","7,00","7,00","6,00",,,,"6,00","32,00","32,00","88,89","88,89","29,09","29,09","32,00","32,00","88,89","88,89","29,09","29,09"
"Thomaes, Robbert",25069655,,thom0014@hz.nl,canvas.instructure.com,Biobased Building,"0,00","6,00","7,00","8,00","7,00","7,00","7,00","7,00","7,00","56,00","56,00","50,91","50,91","50,91","50,91","56,00","56,00","50,91","50,91","50,91","50,91"
"valladares, stanley mauricio aguilar",24658408,,amauri.2519@gmail.com,canvas.instructure.com,Biobased Building,,,,,,,,,,"0,00","0,00",,,"0,00","0,00","0,00","0,00",,,"0,00","0,00"
"Vantricht, Iris",24699888,,vant0007@hz.nl,canvas.instructure.com,Biobased Building,"0,00","7,00","7,00","8,00","7,00","7,00","8,00","7,00","7,00","58,00","58,00","52,73","52,73","52,73","52,73","58,00","58,00","52,73","52,73","52,73","52,73"
"Veenema, Catharinus",25052821,,c.a.veenema@st.hanze.nl,canvas.instructure.com,Biobased Building,,,,,,,,,,"0,00","0,00",,,"0,00","0,00","0,00","0,00",,,"0,00","0,00"
"Vochten, Tine",25844208,,tine.vochten@grensregio.eu,canvas.instructure.com,Biobased Building,,,,,,,,,,"0,00","0,00",,,"0,00","0,00","0,00","0,00",,,"0,00","0,00"
"Vonk, Stefan",25047052,,sp.vonk@student.avqans.nl,canvas.instructure.com,Biobased Building,,,,,,,,"6,00","6,00","12,00","12,00","85,71","85,71","10,91","10,91","12,00","12,00","85,71","85,71","10,91","10,91"
"Vonk, Stefan",25052952,,sp.vonk@student.avans.nl,canvas.instructure.com,Biobased Building,"52,00","6,00","6,00","7,00","7,00","7,00","8,00","7,00","6,00","106,00","106,00","96,36","96,36","96,36","96,36","106,00","106,00","96,36","96,36","96,36","96,36"
"Vries, Martijn de",24586947,,m.devries5@student.avans.nl,canvas.instructure.com,Biobased Building,,,,,,,,,,"0,00","0,00",,,"0,00","0,00","0,00","0,00",,,"0,00","0,00"
"walpot, gerwin",24719629,,walp0001@hz.nl,canvas.instructure.com,Biobased Building,,"6,00","7,00","8,00","6,00","7,00","7,00","7,00","6,00","54,00","54,00","93,10","93,10","49,09","49,09","54,00","54,00","93,10","93,10","49,09","49,09"
"Wermeskerken, Mia van",25123153,,fmr.vanwermeskerken@student.avans.nl,canvas.instructure.com,Biobased Building,"52,00","7,00","7,00","8,00","7,00","7,00","8,00","7,00","7,00","110,00","110,00","100,00","100,00","100,00","100,00","110,00","110,00","100,00","100,00","100,00","100,00"
"Student, Test",24243793,,e655456d96eb41368cf309fed0fe4c4231c189ad,canvas.instructure.com,Biobased Building,,,,,,,,,,"0,00","0,00",,,"0,00","0,00","0,00","0,00",,,"0,00","0,00"
