Student,ID,SIS User ID,SIS Login ID,Root Account,Section,Individual assignment (11789147),Sustainability  - Quiz  (11789141),Nutrients - Quiz (11789145),Algae - Quiz (11789143),Natural compounds  - Quiz (11789146),Introduction - Quiz (11789142),Biorefinery - Quiz (11789137),Energy - Quiz (11789139),Biopolymers - Quiz  (11789136),Assignments Current Points,Assignments Final Points,Assignments Current Score,Assignments Unposted Current Score,Assignments Final Score,Assignments Unposted Final Score,Canvas Surveys Current Points,Canvas Surveys Final Points,Canvas Surveys Current Score,Canvas Surveys Unposted Current Score,Canvas Surveys Final Score,Canvas Surveys Unposted Final Score,Current Points,Final Points,Current Score,Unposted Current Score,Final Score,Unposted Final Score
    Points Possible,,,,,,"52,00","10,00","10,00","10,00","10,00","6,00","10,00","10,00","10,00",(alleen-lezen),(alleen-lezen),(alleen-lezen),(alleen-lezen),(alleen-lezen),(alleen-lezen),(alleen-lezen),(alleen-lezen),(alleen-lezen),(alleen-lezen),(alleen-lezen),(alleen-lezen),(alleen-lezen),(alleen-lezen),(alleen-lezen),(alleen-lezen),(alleen-lezen),(alleen-lezen)
2432782370336864,24653861,,2432782370336864,canvas.instructure.com,Biobased Green Chemistry,,,,,,,,,,"0,00","0,00",,,"0,00","0,00","0,00","0,00",,,,,"0,00","0,00",,,"0,00","0,00"
110041197371699095986,24579226,,110041197371699095986,canvas.instructure.com,Biobased Green Chemistry,,,,,,,,,,"0,00","0,00",,,"0,00","0,00","0,00","0,00",,,,,"0,00","0,00",,,"0,00","0,00"
116281948181362097883,26865254,,116281948181362097883,canvas.instructure.com,Biobased Green Chemistry,,,,,,,,,,"0,00","0,00",,,"0,00","0,00","0,00","0,00",,,,,"0,00","0,00",,,"0,00","0,00"
A,24638754,,cornejogerson@gmail.com,canvas.instructure.com,Biobased Green Chemistry,,,,,,,,,,"0,00","0,00",,,"0,00","0,00","0,00","0,00",,,,,"0,00","0,00",,,"0,00","0,00"
"A.S, Dr. sharan",26747520,,shraranaj17@gmail.com,canvas.instructure.com,Biobased Green Chemistry,,,,,,,,,,"0,00","0,00",,,"0,00","0,00","0,00","0,00",,,,,"0,00","0,00",,,"0,00","0,00"
"Abreu, Laura Patrícia do Rosário",24900405,,lauraptricia@hotmail.com,canvas.instructure.com,Biobased Green Chemistry,,,,,,,,,,"0,00","0,00",,,"0,00","0,00","0,00","0,00",,,,,"0,00","0,00",,,"0,00","0,00"
Anna,26106342,,annamushu19@gmail.com,canvas.instructure.com,Biobased Green Chemistry,,,,,,,,,,"0,00","0,00",,,"0,00","0,00","0,00","0,00",,,,,"0,00","0,00",,,"0,00","0,00"
"Arnoldussen, Martijn",24690594,,mdj.arnoldussen@avans.nl,canvas.instructure.com,Biobased Green Chemistry,,,,,,,,,,"0,00","0,00",,,"0,00","0,00","0,00","0,00",,,,,"0,00","0,00",,,"0,00","0,00"
"Bhinde, Priya",24275662,,gisgr8.gg@gmail.com,canvas.instructure.com,Biobased Green Chemistry,,,,,,,,,,"0,00","0,00",,,"0,00","0,00","0,00","0,00",,,,,"0,00","0,00",,,"0,00","0,00"
"Bhinde, Sneha",25039104,,learn.forever247@gmail.com,canvas.instructure.com,Biobased Green Chemistry,,,,,,,,,,"0,00","0,00",,,"0,00","0,00","0,00","0,00",,,,,"0,00","0,00",,,"0,00","0,00"
"Blanco, Daniel",25374631,,d.blanco@science.ru.nl,canvas.instructure.com,Biobased Green Chemistry,,,,,,"6,00",,,,"6,00","6,00","100,00","100,00","4,69","4,69","0,00","0,00",,,,,"6,00","6,00","100,00","100,00","4,69","4,69"
"Borisova, Bogomila",25995022,,bogiivailova@gmail.com,canvas.instructure.com,Biobased Green Chemistry,"0,00","9,00","9,00","8,00","8,00","6,00","9,00","9,00","8,00","66,00","66,00","51,56","51,56","51,56","51,56","0,00","0,00",,,,,"66,00","66,00","51,56","51,56","51,56","51,56"
"Borisova, Steliyana",25028497,,bori0003@hz.nl,canvas.instructure.com,Biobased Green Chemistry,,"9,00","9,00","8,00","10,00","5,00","8,00","9,00","8,00","66,00","66,00","86,84","86,84","51,56","51,56","0,00","0,00",,,,,"66,00","66,00","86,84","86,84","51,56","51,56"
"Brito,  Cristina ",24651720,,cristina.britolopez@wur.nl,canvas.instructure.com,Biobased Green Chemistry,,,,,,,,,,"0,00","0,00",,,"0,00","0,00","0,00","0,00",,,,,"0,00","0,00",,,"0,00","0,00"
"Buyle, Vera",24918053,,vera.buyle@online.nl,canvas.instructure.com,Biobased Green Chemistry,,,,,,,,,,"0,00","0,00",,,"0,00","0,00","0,00","0,00",,,,,"0,00","0,00",,,"0,00","0,00"
"Calvo, Ana Arias",25157845,,ana.arias.calvo@rai.usc.es,canvas.instructure.com,Biobased Green Chemistry,,,,,,"6,00","8,00",,,"14,00","14,00","87,50","87,50","10,94","10,94","0,00","0,00",,,,,"14,00","14,00","87,50","87,50","10,94","10,94"
"Catry, Mieke",24880198,,Mieke.Catry@hogent.be,canvas.instructure.com,Biobased Green Chemistry,,,,,,,,,,"0,00","0,00",,,"0,00","0,00","0,00","0,00",,,,,"0,00","0,00",,,"0,00","0,00"
"Chatzakis, Isa",24503258,,i.chatzakis@student.avans.nl,canvas.instructure.com,Biobased Green Chemistry,,,,,,,,,,"0,00","0,00",,,"0,00","0,00","0,00","0,00",,,,,"0,00","0,00",,,"0,00","0,00"
"Chawa, Abdurhman",26466946,,chawa.abd@gmail.com,canvas.instructure.com,Biobased Green Chemistry,,,,,,,,,,"0,00","0,00",,,"0,00","0,00","0,00","0,00",,,,,"0,00","0,00",,,"0,00","0,00"
"Christina, Alphert",25386005,,christina.a@hsleiden.nl,canvas.instructure.com,Biobased Green Chemistry,,,,,,,,,,"0,00","0,00",,,"0,00","0,00","0,00","0,00",,,,,"0,00","0,00",,,"0,00","0,00"
"Clara, Maria",24708043,,claramorlova@yahoo.com,canvas.instructure.com,Biobased Green Chemistry,,,,,,,,,,"0,00","0,00",,,"0,00","0,00","0,00","0,00",,,,,"0,00","0,00",,,"0,00","0,00"
"Compeer, Alexander",24586022,,ae.compeer@avans.nl,canvas.instructure.com,Biobased Green Chemistry,,,,,,,,,,"0,00","0,00",,,"0,00","0,00","0,00","0,00",,,,,"0,00","0,00",,,"0,00","0,00"
"Cornejo, Gerson",24726078,,cornejoreyes96@gmail.com,canvas.instructure.com,Biobased Green Chemistry,,,,,,"6,00","8,00",,,"14,00","14,00","87,50","87,50","10,94","10,94","0,00","0,00",,,,,"14,00","14,00","87,50","87,50","10,94","10,94"
"Czochara, Natalia",24503323,,nm.czochara@student.avans.nl,canvas.instructure.com,Biobased Green Chemistry,"52,00","9,00","8,00","9,00","9,00","5,00","9,00","8,00","8,00","117,00","117,00","91,41","91,41","91,41","91,41","0,00","0,00",,,,,"117,00","117,00","91,41","91,41","91,41","91,41"
"Daling, Bart",25126696,,familiedaling@gmail.com,canvas.instructure.com,Biobased Green Chemistry,,,,,,,,,,"0,00","0,00",,,"0,00","0,00","0,00","0,00",,,,,"0,00","0,00",,,"0,00","0,00"
"Dankaart, Kenneth",24502643,,kfj.dankaart@student.avans.nl,canvas.instructure.com,Biobased Green Chemistry,,,,,,,,,,"0,00","0,00",,,"0,00","0,00","0,00","0,00",,,,,"0,00","0,00",,,"0,00","0,00"
"Dhama, Pranjal",26210246,,pranjaldhama9411@gmail.com,canvas.instructure.com,Biobased Green Chemistry,,,,,,,,,,"0,00","0,00",,,"0,00","0,00","0,00","0,00",,,,,"0,00","0,00",,,"0,00","0,00"
"Dijk, Brenda van",24502782,,brenda_snoetje@hotmail.com,canvas.instructure.com,Biobased Green Chemistry,,,,,,,,,,"0,00","0,00",,,"0,00","0,00","0,00","0,00",,,,,"0,00","0,00",,,"0,00","0,00"
"Dijk, Joanke van",24836043,,j.vandijk3@uu.nl,canvas.instructure.com,Biobased Green Chemistry,,,,,,,,,,"0,00","0,00",,,"0,00","0,00","0,00","0,00",,,,,"0,00","0,00",,,"0,00","0,00"
"Dorsselaer, Mike van",25102874,,mikevd1998@gmail.com,canvas.instructure.com,Biobased Green Chemistry,,,,,,,,,,"0,00","0,00",,,"0,00","0,00","0,00","0,00",,,,,"0,00","0,00",,,"0,00","0,00"
"Garcia, Maria Amparo Hernandez",26494598,,mariaamparo62@gmail.com,canvas.instructure.com,Biobased Green Chemistry,,,,,,,,,,"0,00","0,00",,,"0,00","0,00","0,00","0,00",,,,,"0,00","0,00",,,"0,00","0,00"
"Garcia, Maria Amparo Hernandez",26494370,,Mariaamparohg@correo.ugr.es,canvas.instructure.com,Biobased Green Chemistry,,,,,,,,,,"0,00","0,00",,,"0,00","0,00","0,00","0,00",,,,,"0,00","0,00",,,"0,00","0,00"
"Gemert, Femke van",25249216,,fpm.vangemert@student.avans.nl,canvas.instructure.com,Biobased Green Chemistry,"52,00","10,00","8,00","10,00","9,00","5,00","8,00","9,00","10,00","121,00","121,00","94,53","94,53","94,53","94,53","0,00","0,00",,,,,"121,00","121,00","94,53","94,53","94,53","94,53"
"Gillesse, Allisia",24700146,,gill0010@hz.nl,canvas.instructure.com,Biobased Green Chemistry,,,,,,,,,,"0,00","0,00",,,"0,00","0,00","0,00","0,00",,,,,"0,00","0,00",,,"0,00","0,00"
"Giusepponi, Giona",24586239,,G.giusepponi@student.avans.nl,canvas.instructure.com,Biobased Green Chemistry,"52,00","8,00","8,00","8,00","8,00","5,00","9,00","10,00","9,00","117,00","117,00","91,41","91,41","91,41","91,41","0,00","0,00",,,,,"117,00","117,00","91,41","91,41","91,41","91,41"
"Gomes, Hiago de Oliveira",25915187,,gomeshdo@gmail.com,canvas.instructure.com,Biobased Green Chemistry,,,,,,,,,,"0,00","0,00",,,"0,00","0,00","0,00","0,00",,,,,"0,00","0,00",,,"0,00","0,00"
"Groote, Bram de",25224027,,groo0042@hz.nl,canvas.instructure.com,Biobased Green Chemistry,,,"9,00","9,00","8,00","6,00","9,00","9,00","8,00","58,00","58,00","87,88","87,88","45,31","45,31","0,00","0,00",,,,,"58,00","58,00","87,88","87,88","45,31","45,31"
"Groote, Bram de",25246636,,groo042@hz.nl,canvas.instructure.com,Biobased Green Chemistry,,,,,,"6,00","9,00",,,"15,00","15,00","93,75","93,75","11,72","11,72","0,00","0,00",,,,,"15,00","15,00","93,75","93,75","11,72","11,72"
"Guan, Jia-Ying",25176939,,jiaying.guan@gmail.com,canvas.instructure.com,Biobased Green Chemistry,,,,,,,,,,"0,00","0,00",,,"0,00","0,00","0,00","0,00",,,,,"0,00","0,00",,,"0,00","0,00"
"Hooft, Gert",24629550,,gert.hooft@HOGENT.be,canvas.instructure.com,Biobased Green Chemistry,,,,,,,,,,"0,00","0,00",,,"0,00","0,00","0,00","0,00",,,,,"0,00","0,00",,,"0,00","0,00"
"Huijbregts, Kim",25000737,,cep.huijbregts@student.avans.nl,canvas.instructure.com,Biobased Green Chemistry,,,,,,,,,,"0,00","0,00",,,"0,00","0,00","0,00","0,00",,,,,"0,00","0,00",,,"0,00","0,00"
"I, MIDHUN RAJ",26691293,,midhunrajraj98@gmail.com,canvas.instructure.com,Biobased Green Chemistry,,,,,,,,,,"0,00","0,00",,,"0,00","0,00","0,00","0,00",,,,,"0,00","0,00",,,"0,00","0,00"
"Jack van Schijndel, real Green Chemist",25405795,,jam.vanschijndel@avans.nl,canvas.instructure.com,Biobased Green Chemistry,,,,,,,,,,"0,00","0,00",,,"0,00","0,00","0,00","0,00",,,,,"0,00","0,00",,,"0,00","0,00"
"jong, Bas de",25104822,,B.dejong16@student.avans.nl,canvas.instructure.com,Biobased Green Chemistry,,,,,,,,,,"0,00","0,00",,,"0,00","0,00","0,00","0,00",,,,,"0,00","0,00",,,"0,00","0,00"
"Jordan, Kati",26769893,,kati.jordan@xamk.fi,canvas.instructure.com,Biobased Green Chemistry,,,,,,,,,,"0,00","0,00",,,"0,00","0,00","0,00","0,00",,,,,"0,00","0,00",,,"0,00","0,00"
"JOSHI, RAVINDRA RADHAKRISHNA",26427924,,joshiravindra123456@gmail.com,canvas.instructure.com,Biobased Green Chemistry,,,,,,,,,,"0,00","0,00",,,"0,00","0,00","0,00","0,00",,,,,"0,00","0,00",,,"0,00","0,00"
"JUNG, Valérie",26431104,,valerie.jung2@wanadoo.fr,canvas.instructure.com,Biobased Green Chemistry,,,,,,,,,,"0,00","0,00",,,"0,00","0,00","0,00","0,00",,,,,"0,00","0,00",,,"0,00","0,00"
"Kanda, Leenawat",26917756,,leenawat.kanda@gmail.com,canvas.instructure.com,Biobased Green Chemistry,,,,,,,,,,"0,00","0,00",,,"0,00","0,00","0,00","0,00",,,,,"0,00","0,00",,,"0,00","0,00"
"Kennedy, Chiara",24696467,,chiarak020@outlook.it,canvas.instructure.com,Biobased Green Chemistry,,,,,,"6,00","10,00","10,00","10,00","36,00","36,00","100,00","100,00","28,13","28,13","0,00","0,00",,,,,"36,00","36,00","100,00","100,00","28,13","28,13"
"Kraan, Jeroen",24682485,,jeroen.kraan@han.nl,canvas.instructure.com,Biobased Green Chemistry,,,,,,,,,,"0,00","0,00",,,"0,00","0,00","0,00","0,00",,,,,"0,00","0,00",,,"0,00","0,00"
"Kumar, Aparna Rajendra",26560542,,aparnarajendrakumar18@gmail.com,canvas.instructure.com,Biobased Green Chemistry,,,,,,,,,,"0,00","0,00",,,"0,00","0,00","0,00","0,00",,,,,"0,00","0,00",,,"0,00","0,00"
"Kunenborg, Davy",26706681,,dkunenbo@avans.nl,canvas.instructure.com,Biobased Green Chemistry,,,,,,,,,,"0,00","0,00",,,"0,00","0,00","0,00","0,00",,,,,"0,00","0,00",,,"0,00","0,00"
"Kunenborg, Davy",26881527,,davy.kunenborg@hotmail.nl,canvas.instructure.com,Biobased Green Chemistry,,,,,,,,,,"0,00","0,00",,,"0,00","0,00","0,00","0,00",,,,,"0,00","0,00",,,"0,00","0,00"
"Linssen, Meggy",24649238,,Mdgp.linssen@student.avans.nl,canvas.instructure.com,Biobased Green Chemistry,,"8,00","8,00","8,00","8,00",,"10,00","8,00","7,00","57,00","57,00","81,43","81,43","44,53","44,53","0,00","0,00",,,,,"57,00","57,00","81,43","81,43","44,53","44,53"
"Liu, Tim",24504091,,d.liu3@student.avans.nl,canvas.instructure.com,Biobased Green Chemistry,,,,,,,,,,"0,00","0,00",,,"0,00","0,00","0,00","0,00",,,,,"0,00","0,00",,,"0,00","0,00"
"Londen, Maurice van",23802056,,m.vanlonden@avans.nl,canvas.instructure.com,Biobased Green Chemistry,,,,,,,,,,"0,00","0,00",,,"0,00","0,00","0,00","0,00",,,,,"0,00","0,00",,,"0,00","0,00"
"Mangelinckx, Sven",24621258,,sven.mangelinckx@ugent.be,canvas.instructure.com,Biobased Green Chemistry,,,,,,"6,00",,,,"6,00","6,00","100,00","100,00","4,69","4,69","0,00","0,00",,,,,"6,00","6,00","100,00","100,00","4,69","4,69"
"Mastenbroek, Floyd",25013655,,fmastenb@avans.nl,canvas.instructure.com,Biobased Green Chemistry,"52,00","8,00","9,00","9,00","8,00","6,00","9,00","10,00","8,00","119,00","119,00","92,97","92,97","92,97","92,97","0,00","0,00",,,,,"119,00","119,00","92,97","92,97","92,97","92,97"
"MISHRA, SHIVAMKUMAR",24801902,,amshivam.1111@gmail.com,canvas.instructure.com,Biobased Green Chemistry,,,,,,"3,00",,,,"3,00","3,00","50,00","50,00","2,34","2,34","0,00","0,00",,,,,"3,00","3,00","50,00","50,00","2,34","2,34"
"Mitton, Kenneth P.",26401143,,mitton@oakland.edu,canvas.instructure.com,Biobased Green Chemistry,,,,,,,,,,"0,00","0,00",,,"0,00","0,00","0,00","0,00",,,,,"0,00","0,00",,,"0,00","0,00"
"Mkhize, Thembinkosi",24620818,,themba.mkhize@caminix.co.za,canvas.instructure.com,Biobased Green Chemistry,,,,,,,,,,"0,00","0,00",,,"0,00","0,00","0,00","0,00",,,,,"0,00","0,00",,,"0,00","0,00"
"MUCIC, Peda",24805178,,pedamucic@gmail.com,canvas.instructure.com,Biobased Green Chemistry,,,,,,,,,,"0,00","0,00",,,"0,00","0,00","0,00","0,00",,,,,"0,00","0,00",,,"0,00","0,00"
"Mujeeb, Salman",24871878,,salmanmrahman@gmail.com,canvas.instructure.com,Biobased Green Chemistry,,,,,,,,,,"0,00","0,00",,,"0,00","0,00","0,00","0,00",,,,,"0,00","0,00",,,"0,00","0,00"
"Oostdijk, Karin",25479131,,c.oostdijk1@student.avans.nl,canvas.instructure.com,Biobased Green Chemistry,,,,,,,,,,"0,00","0,00",,,"0,00","0,00","0,00","0,00",,,,,"0,00","0,00",,,"0,00","0,00"
"Passel, Cas van",24675777,,cmm.vanpassel@student.avans.nl,canvas.instructure.com,Biobased Green Chemistry,,,,,,,,,,"0,00","0,00",,,"0,00","0,00","0,00","0,00",,,,,"0,00","0,00",,,"0,00","0,00"
"Podrucka, Jagoda",24693421,,j.podrucka@gmail.com,canvas.instructure.com,Biobased Green Chemistry,,,,,,,,,,"0,00","0,00",,,"0,00","0,00","0,00","0,00",,,,,"0,00","0,00",,,"0,00","0,00"
"Puiatti, Gustavo Alves",24772450,,g.a.puiatti@gmail.com,canvas.instructure.com,Biobased Green Chemistry,,,,,,,,,,"0,00","0,00",,,"0,00","0,00","0,00","0,00",,,,,"0,00","0,00",,,"0,00","0,00"
"Rajpoot, Dr. Subhadra",26890254,,swikritiraj4727@gmail.com,canvas.instructure.com,Biobased Green Chemistry,,,,,,,,,,"0,00","0,00",,,"0,00","0,00","0,00","0,00",,,,,"0,00","0,00",,,"0,00","0,00"
"Rao, Ms. D. Pranita",26772446,,prao1107@gmail.com,canvas.instructure.com,Biobased Green Chemistry,,,,,,,,,,"0,00","0,00",,,"0,00","0,00","0,00","0,00",,,,,"0,00","0,00",,,"0,00","0,00"
"Rijckborst, Daniël",26543937,,d.rijckborst@avans.nl,canvas.instructure.com,Biobased Green Chemistry,,,,,,,,,,"0,00","0,00",,,"0,00","0,00","0,00","0,00",,,,,"0,00","0,00",,,"0,00","0,00"
"ROBERT, Sylvie",24625772,,sylvie.robert@lilo.org,canvas.instructure.com,Biobased Green Chemistry,,,,,,"6,00",,,,"6,00","6,00","100,00","100,00","4,69","4,69","0,00","0,00",,,,,"6,00","6,00","100,00","100,00","4,69","4,69"
"Samoylova, Elizaveta",24700131,,elizavetasamoy@gmail.com,canvas.instructure.com,Biobased Green Chemistry,,,,,,"6,00","5,00",,,"11,00","11,00","68,75","68,75","8,59","8,59","0,00","0,00",,,,,"11,00","11,00","68,75","68,75","8,59","8,59"
"Samuel, Okpongette",25083646,,samuelokpongette@gmail.com,canvas.instructure.com,Biobased Green Chemistry,,,,,,,,,,"0,00","0,00",,,"0,00","0,00","0,00","0,00",,,,,"0,00","0,00",,,"0,00","0,00"
"Scheele, Lisa",25275142,,l.scheele@student.avans.nl,canvas.instructure.com,Biobased Green Chemistry,,,,,,,,,,"0,00","0,00",,,"0,00","0,00","0,00","0,00",,,,,"0,00","0,00",,,"0,00","0,00"
"Scheele, Lisa",25316961,,lisa.scheele@corbion.com,canvas.instructure.com,Biobased Green Chemistry,,,,,,,,,,"0,00","0,00",,,"0,00","0,00","0,00","0,00",,,,,"0,00","0,00",,,"0,00","0,00"
"Scheele, Lisa",25263862,,lischl@live.nl,canvas.instructure.com,Biobased Green Chemistry,,,,,,,,,,"0,00","0,00",,,"0,00","0,00","0,00","0,00",,,,,"0,00","0,00",,,"0,00","0,00"
"Scheyltjens, Nancy",25919268,,nancy.scheyltjens@finnas.be,canvas.instructure.com,Biobased Green Chemistry,,,,,,,,,,"0,00","0,00",,,"0,00","0,00","0,00","0,00",,,,,"0,00","0,00",,,"0,00","0,00"
"Schoo, Anna",25399869,,ac.schoo@student.avans.nl,canvas.instructure.com,Biobased Green Chemistry,,"9,00","9,00","9,00","8,00","6,00","8,00","8,00","9,00","66,00","66,00","86,84","86,84","51,56","51,56","0,00","0,00",,,,,"66,00","66,00","86,84","86,84","51,56","51,56"
"Schrammeijer, Barbara",25816540,,b.schrammeijer@hr.nl,canvas.instructure.com,Biobased Green Chemistry,,,,,,,,,,"0,00","0,00",,,"0,00","0,00","0,00","0,00",,,,,"0,00","0,00",,,"0,00","0,00"
"Skolina, Julija",26448555,,Julskol@gmail.com,canvas.instructure.com,Biobased Green Chemistry,,,,,,,,,,"0,00","0,00",,,"0,00","0,00","0,00","0,00",,,,,"0,00","0,00",,,"0,00","0,00"
"Sloof, Lydia",24703789,,lydia214@live.nl,canvas.instructure.com,Biobased Green Chemistry,,"10,00","8,00","9,00","10,00","6,00","9,00","10,00","9,00","71,00","71,00","93,42","93,42","55,47","55,47","0,00","0,00",,,,,"71,00","71,00","93,42","93,42","55,47","55,47"
"Sol, Adriaan",24502656,,ahmp.sol@student.avans.nl,canvas.instructure.com,Biobased Green Chemistry,,,,,,"6,00","8,00",,,"14,00","14,00","87,50","87,50","10,94","10,94","0,00","0,00",,,,,"14,00","14,00","87,50","87,50","10,94","10,94"
Sophie,24972936,,s.engel@student.avans.nl,canvas.instructure.com,Biobased Green Chemistry,"0,00","9,00","8,00","8,00","9,00","6,00","8,00","10,00","8,00","66,00","66,00","51,56","51,56","51,56","51,56","0,00","0,00",,,,,"66,00","66,00","51,56","51,56","51,56","51,56"
"Stegink, Sonja",26482592,,sonjastegink@protonmail.com,canvas.instructure.com,Biobased Green Chemistry,,,,,,,,,,"0,00","0,00",,,"0,00","0,00","0,00","0,00",,,,,"0,00","0,00",,,"0,00","0,00"
"Sulaiman, Mustafa Gbolahan",26124817,,gbolahan.mustafa@lagosstate.gov.ng,canvas.instructure.com,Biobased Green Chemistry,,,,,,"4,00",,,,"4,00","4,00","66,67","66,67","3,13","3,13","0,00","0,00",,,,,"4,00","4,00","66,67","66,67","3,13","3,13"
"Tarta, Iulia Karina",24767104,,tarta.iulia19@gmail.com,canvas.instructure.com,Biobased Green Chemistry,,,,,,,,,,"0,00","0,00",,,"0,00","0,00","0,00","0,00",,,,,"0,00","0,00",,,"0,00","0,00"
"Timmers, Elizabeth Maria",26221877,,lisatimmers2@gmail.com,canvas.instructure.com,Biobased Green Chemistry,,,,,,,,,,"0,00","0,00",,,"0,00","0,00","0,00","0,00",,,,,"0,00","0,00",,,"0,00","0,00"
"Tran, Tuan",24504006,,mt.tran1@student.avans.nl,canvas.instructure.com,Biobased Green Chemistry,,,,,,,,,,"0,00","0,00",,,"0,00","0,00","0,00","0,00",,,,,"0,00","0,00",,,"0,00","0,00"
"Tyumina, Angelina",25056319,,tyumina.angelina@gmail.com,canvas.instructure.com,Biobased Green Chemistry,,,,,,,,,,"0,00","0,00",,,"0,00","0,00","0,00","0,00",,,,,"0,00","0,00",,,"0,00","0,00"
"Verwei, Margot",24079705,,mgp.verwei@avans.nl,canvas.instructure.com,Biobased Green Chemistry,,,,,,,,,,"0,00","0,00",,,"0,00","0,00","0,00","0,00",,,,,"0,00","0,00",,,"0,00","0,00"
"Vijverberg, Britt",24611525,,bj.vijverberg@student.avans.nl,canvas.instructure.com,Biobased Green Chemistry,,,,,,,,,,"0,00","0,00",,,"0,00","0,00","0,00","0,00",,,,,"0,00","0,00",,,"0,00","0,00"
"Vonk, Stefan",25052952,,sp.vonk@student.avans.nl,canvas.instructure.com,Biobased Green Chemistry,"52,00","9,00","10,00","9,00","10,00","6,00","9,00","9,00","9,00","123,00","123,00","96,09","96,09","96,09","96,09","0,00","0,00",,,,,"123,00","123,00","96,09","96,09","96,09","96,09"
"Vroman, Moniek",25050547,,moniekvroman@hotmail.com,canvas.instructure.com,Biobased Green Chemistry,"0,00",,,,,"5,00","8,00","8,00","8,00","29,00","29,00","32,95","32,95","22,66","22,66","0,00","0,00",,,,,"29,00","29,00","32,95","32,95","22,66","22,66"
"Williams, Katerina",25733438,,katerinawilliams@hotmail.com,canvas.instructure.com,Biobased Green Chemistry,,"10,00","10,00","8,00","10,00","5,00","8,00","10,00","8,00","69,00","69,00","90,79","90,79","53,91","53,91","0,00","0,00",,,,,"69,00","69,00","90,79","90,79","53,91","53,91"
"Zijdenbos, Robert",25223878,,rbj.zijdenbos@student.avans.nl,canvas.instructure.com,Biobased Green Chemistry,,,"10,00","10,00",,"6,00","10,00","10,00","10,00","56,00","56,00","100,00","100,00","43,75","43,75","0,00","0,00",,,,,"56,00","56,00","100,00","100,00","43,75","43,75"
