Student,ID,SIS User ID,SIS Login ID,Root Account,Section,Individual Assignment (28990),Wood - Quiz (29033),Bamboo - Quiz (29034),Straw / Reed - Quiz (29035),Hemp / Flax - Quiz (29036),Biocomposite - Quiz (29037),Mycelium - Quiz (29038),Hempcrete - Quiz (29039),Introduction - Quiz (29238),Assignments Current Points,Assignments Final Points,Assignments Current Score,Assignments Unposted Current Score,Assignments Final Score,Assignments Unposted Final Score,Current Points,Final Points,Current Score,Unposted Current Score,Final Score,Unposted Final Score
    Points Possible,,,,,,52.00,7.00,7.00,8.00,7.00,7.00,8.00,7.00,7.00,(read only),(read only),(read only),(read only),(read only),(read only),(read only),(read only),(read only),(read only),(read only),(read only)
Bassam Elmasri. My #is 1724,893913,,Hanadi12elbaf@gmail.com,learn.canvas.net,Biobased Building (Mar2019),,,,,,,,,,0.00,0.00,,,0.00,0.00,0.00,0.00,,,0.00,0.00
A,488765,,cornejogerson@gmail.com,learn.canvas.net,Biobased Building (Mar2019),0.00,7.00,7.00,8.00,7.00,7.00,8.00,7.00,7.00,58.00,58.00,52.73,52.73,52.73,52.73,58.00,58.00,52.73,52.73,52.73,52.73
Mauree A.,893954,,00.makhi@gmail.com,learn.canvas.net,Biobased Building (Mar2019),,,,,,,,,,0.00,0.00,,,0.00,0.00,0.00,0.00,,,0.00,0.00
seija aalto,423759,,sh.aalto@avans.nl,learn.canvas.net,Biobased Building (Mar2019),,,,,,,,,,0.00,0.00,,,,,0.00,0.00,,,,
Awad Ahmed Mohammed Ahmed,880386,,awad.ahmed7788@gmail.com,learn.canvas.net,Biobased Building (Mar2019),,7.00,7.00,8.00,7.00,6.00,7.00,6.00,6.00,54.00,54.00,93.10,93.10,49.09,49.09,54.00,54.00,93.10,93.10,49.09,49.09
Didem Akan,908413,,didem.96@hotmail.com,learn.canvas.net,Biobased Building (Mar2019),,,,,,,,,,0.00,0.00,,,,,0.00,0.00,,,,
Serdar Aksu,939438,,S.aksu@student.avans.nl,learn.canvas.net,Biobased Building (Mar2019),0.00,7.00,7.00,8.00,7.00,7.00,8.00,7.00,7.00,58.00,58.00,52.73,52.73,52.73,52.73,58.00,58.00,52.73,52.73,52.73,52.73
albert,898901,,albertryantagaro@gmail.com,learn.canvas.net,Biobased Building (Mar2019),,,,,,,,,,0.00,0.00,,,0.00,0.00,0.00,0.00,,,0.00,0.00
Sandra Alonso,961959,,sandra.alonso@tutanota.com,learn.canvas.net,Biobased Building (Mar2019),,,,,,,,,,0.00,0.00,,,0.00,0.00,0.00,0.00,,,0.00,0.00
Jonathan Andrews,890856,,Inglesinterativo@outlook.com,learn.canvas.net,Biobased Building (Mar2019),,,,,,,,,,0.00,0.00,,,,,0.00,0.00,,,,
SHAKEEL ANJUM,872441,,shakeel.anjum5151@gmail.com,learn.canvas.net,Biobased Building (Mar2019),,,,,,,,,,0.00,0.00,,,0.00,0.00,0.00,0.00,,,0.00,0.00
Anna,891673,,annamushu19@gmail.com,learn.canvas.net,Biobased Building (Mar2019),,,,,,,,,,0.00,0.00,,,0.00,0.00,0.00,0.00,,,0.00,0.00
Melissa Arias,907885,,meli_as_17@hotmail.com,learn.canvas.net,Biobased Building (Mar2019),,,,,,,,,,0.00,0.00,,,,,0.00,0.00,,,,
Hamza Arif,892118,,hamza_m.arif@hotmail.com,learn.canvas.net,Biobased Building (Mar2019),,,,,,,,,,0.00,0.00,,,0.00,0.00,0.00,0.00,,,0.00,0.00
Richard Asante,924217,,kojokwakye33@gmail.com,learn.canvas.net,Biobased Building (Mar2019),,,,,,,,,4.00,4.00,4.00,57.14,57.14,3.64,3.64,4.00,4.00,57.14,57.14,3.64,3.64
Hessa G. Azul,834370,,hessa.azul@gmail.com,learn.canvas.net,Biobased Building (Mar2019),,,,,,,,,,0.00,0.00,,,,,0.00,0.00,,,,
Florian B,946235,,florian.bodrogi@uni-hohenheim.de,learn.canvas.net,Biobased Building (Mar2019),,,,,,,,,,0.00,0.00,,,,,0.00,0.00,,,,
Dor Ba,354652,,doriven@live.com,learn.canvas.net,Biobased Building (Mar2019),,,,,,,,,,0.00,0.00,,,0.00,0.00,0.00,0.00,,,0.00,0.00
Sheena Babra,893893,,sheenababra@hotmail.com,learn.canvas.net,Biobased Building (Mar2019),,,,,,,,,,0.00,0.00,,,0.00,0.00,0.00,0.00,,,0.00,0.00
Ulviyya Bahramova,708888,,behramova.ulviyye@mail.ru,learn.canvas.net,Biobased Building (Mar2019),0.00,7.00,7.00,8.00,7.00,7.00,8.00,7.00,7.00,58.00,58.00,52.73,52.73,52.73,52.73,58.00,58.00,52.73,52.73,52.73,52.73
Simone Baldini,888598,,baldinisi@outlook.it,learn.canvas.net,Biobased Building (Mar2019),,,,,,,,,,0.00,0.00,,,0.00,0.00,0.00,0.00,,,0.00,0.00
Felipe da Mota Bandeira,887870,,felipe.bandeira2014@hotmail.com,learn.canvas.net,Biobased Building (Mar2019),,,,,,,,,,0.00,0.00,,,0.00,0.00,0.00,0.00,,,0.00,0.00
Yolanda M. Barameda,874919,,yollybarameda@yahoo.com,learn.canvas.net,Biobased Building (Mar2019),,,,,,,,,,0.00,0.00,,,0.00,0.00,0.00,0.00,,,0.00,0.00
L. Barend,900133,,Mirrordragonfly@gmail.com,learn.canvas.net,Biobased Building (Mar2019),,,,,,,,,,0.00,0.00,,,,,0.00,0.00,,,,
Luis Barroso,892900,,Lubarr@gmail.com,learn.canvas.net,Biobased Building (Mar2019),,7.00,7.00,8.00,7.00,7.00,8.00,7.00,7.00,58.00,58.00,100.00,100.00,52.73,52.73,58.00,58.00,100.00,100.00,52.73,52.73
Beatrice,928093,,beatrice@epicwander.com,learn.canvas.net,Biobased Building (Mar2019),,,,,,,,,,0.00,0.00,,,,,0.00,0.00,,,,
Jan Bekkering,949546,,j.bekkering@hetenergiebureau.nl,learn.canvas.net,Biobased Building (Mar2019),,,,,,,,,,0.00,0.00,,,,,0.00,0.00,,,,
Liza Gemoto Bengal,883598,,liza.bengal@deped.gov.ph,learn.canvas.net,Biobased Building (Mar2019),,,,,,,,,,0.00,0.00,,,0.00,0.00,0.00,0.00,,,0.00,0.00
Maartje Berenschot,956885,,m.berenschot-postmus@alfa-college.nl,learn.canvas.net,Biobased Building (Mar2019),,,,,,,,,,0.00,0.00,,,0.00,0.00,0.00,0.00,,,0.00,0.00
Jasper van den Berg,947542,,jasper@companynewheroes.com,learn.canvas.net,Biobased Building (Mar2019),,7.00,,,,,,,,7.00,7.00,100.00,100.00,6.36,6.36,7.00,7.00,100.00,100.00,6.36,6.36
Ria Bernards,898596,,ria.bernards@hetnet.nl,learn.canvas.net,Biobased Building (Mar2019),,7.00,6.00,8.00,7.00,5.00,8.00,6.00,,47.00,47.00,92.16,92.16,42.73,42.73,47.00,47.00,92.16,92.16,42.73,42.73
Pieter Besuijen,925412,,besu0005@hz.nl,learn.canvas.net,Biobased Building (Mar2019),,,,,,,,,,0.00,0.00,,,,,0.00,0.00,,,,
Stephanie Bos,909904,,sabos1@avans.nl,learn.canvas.net,Biobased Building (Mar2019),,,2.00,,,,,,,2.00,2.00,28.57,28.57,1.82,1.82,2.00,2.00,28.57,28.57,1.82,1.82
Djacco van den Bosch,901345,,djacco.vandenbosch@commonaffairs.nl,learn.canvas.net,Biobased Building (Mar2019),,5.00,,,,,,,,5.00,5.00,71.43,71.43,4.55,4.55,5.00,5.00,71.43,71.43,4.55,4.55
Jeroen van den Bosch,920879,,jeroenvdbosch@gmail.com,learn.canvas.net,Biobased Building (Mar2019),,,,,,,,,,0.00,0.00,,,,,0.00,0.00,,,,
Robin Bouman,808029,,robabouman@hotmail.com,learn.canvas.net,Biobased Building (Mar2019),0.00,7.00,6.00,8.00,6.00,6.00,8.00,7.00,7.00,55.00,55.00,50.00,50.00,50.00,50.00,55.00,55.00,50.00,50.00,50.00,50.00
Tom Boyed,505095,,tomboyed@gmail.com,learn.canvas.net,Biobased Building (Mar2019),,,,,,,,,,0.00,0.00,,,0.00,0.00,0.00,0.00,,,0.00,0.00
Guus van Bree,880115,,guusvanbree@hotmail.com,learn.canvas.net,Biobased Building (Mar2019),,3.00,3.00,6.00,3.00,6.00,8.00,,,29.00,29.00,65.91,65.91,26.36,26.36,29.00,29.00,65.91,65.91,26.36,26.36
Maikel Brinkhoff,896368,,m.j.s.brinkhoff@student.tue.nl,learn.canvas.net,Biobased Building (Mar2019),,,,,,,,,,0.00,0.00,,,0.00,0.00,0.00,0.00,,,0.00,0.00
Querijn van Broekhoven,958283,,qtvanbroekhoven@gmail.com,learn.canvas.net,Biobased Building (Mar2019),,,,,,,,,,0.00,0.00,,,0.00,0.00,0.00,0.00,,,0.00,0.00
Sietske Brok,666686,,st.brok@student.avans.nl,learn.canvas.net,Biobased Building (Mar2019),0.00,6.00,6.00,8.00,7.00,6.00,6.00,6.00,7.00,52.00,52.00,47.27,47.27,47.27,47.27,52.00,52.00,47.27,47.27,47.27,47.27
Tessa Buijnsters,807671,,tjm.buijnsters@student.avans.nl,learn.canvas.net,Biobased Building (Mar2019),,,,,,,,,7.00,7.00,7.00,100.00,100.00,6.36,6.36,7.00,7.00,100.00,100.00,6.36,6.36
Tyler Campbell,968849,,t.a.cmpbll@gmail.com,learn.canvas.net,Biobased Building (Mar2019),,,,,,,,,,0.00,0.00,,,0.00,0.00,0.00,0.00,,,0.00,0.00
Rolando Tapia Cañas,900908,,rolando.t.cc@hotmail.com,learn.canvas.net,Biobased Building (Mar2019),,,,,,,,,,0.00,0.00,,,,,0.00,0.00,,,,
John Carlos Candelaria,963623,,Candelariajohnc@gmail.com,learn.canvas.net,Biobased Building (Mar2019),,,,,,,,,,0.00,0.00,,,0.00,0.00,0.00,0.00,,,0.00,0.00
Caroline,930198,,carolinegibet@yahoo.fr,learn.canvas.net,Biobased Building (Mar2019),,,,,,,,,,0.00,0.00,,,,,0.00,0.00,,,,
MARCO CARTA,616272,,marco.carta@ufficioweb.com,learn.canvas.net,Biobased Building (Mar2019),52.00,7.00,7.00,8.00,7.00,7.00,8.00,7.00,7.00,110.00,110.00,100.00,100.00,100.00,100.00,110.00,110.00,100.00,100.00,100.00,100.00
Davis Cartwright,892189,,kiwi303@gmail.com,learn.canvas.net,Biobased Building (Mar2019),,,,,,,,,,0.00,0.00,,,0.00,0.00,0.00,0.00,,,0.00,0.00
laury chaerle,923302,,laury.chaerle@hogent.be,learn.canvas.net,Biobased Building (Mar2019),,,,,,,,,,0.00,0.00,,,,,0.00,0.00,,,,
Chin Fook Ming,505209,,edwinchinkk@gmail.com,learn.canvas.net,Biobased Building (Mar2019),,,,,,,,,,0.00,0.00,,,0.00,0.00,0.00,0.00,,,0.00,0.00
Ng Ping Chun ,733618,,skytreetokyo@yandex.com,learn.canvas.net,Biobased Building (Mar2019),,,,,,,,,,0.00,0.00,,,0.00,0.00,0.00,0.00,,,0.00,0.00
Edwin  Collazo,898883,,edwin.v.collazo@boeing.com,learn.canvas.net,Biobased Building (Mar2019),,,,,,,,,,0.00,0.00,,,0.00,0.00,0.00,0.00,,,0.00,0.00
Julian Coppoolse,919203,,copp0039@hz.nl,learn.canvas.net,Biobased Building (Mar2019),52.00,7.00,6.00,7.00,7.00,6.00,8.00,7.00,6.00,106.00,106.00,96.36,96.36,96.36,96.36,106.00,106.00,96.36,96.36,96.36,96.36
Jairo da Costa,967592,,jairo.costa.junior@gmail.com,learn.canvas.net,Biobased Building (Mar2019),,,,,,,,,,0.00,0.00,,,0.00,0.00,0.00,0.00,,,0.00,0.00
Joyce Crucq,903765,,cruc0010@hz.nl,learn.canvas.net,Biobased Building (Mar2019),,7.00,,,,,,,,7.00,7.00,100.00,100.00,6.36,6.36,7.00,7.00,100.00,100.00,6.36,6.36
Miet Van Dael,906888,,Miet.vandael@uhasselt.be,learn.canvas.net,Biobased Building (Mar2019),,,,,,,,,,0.00,0.00,,,,,0.00,0.00,,,,
Adelaja Kayode Dalrymple,877901,,adelajad9@gmail.com,learn.canvas.net,Biobased Building (Mar2019),,,,,,,,,,0.00,0.00,,,0.00,0.00,0.00,0.00,,,0.00,0.00
Riley Daman-Willems,844902,,rdamanw@hotmail.com,learn.canvas.net,Biobased Building (Mar2019),,,,,,,,,,0.00,0.00,,,0.00,0.00,0.00,0.00,,,0.00,0.00
Elva Dede,898155,,elva.dede13@gmail.com,learn.canvas.net,Biobased Building (Mar2019),,,,,,,,,,0.00,0.00,,,,,0.00,0.00,,,,
Timo Derriks,899561,,t.derriks@hz.nl,learn.canvas.net,Biobased Building (Mar2019),,,,,,,,,,0.00,0.00,,,0.00,0.00,0.00,0.00,,,0.00,0.00
Fiona Dewhirst-Daniel,903137,,fiona.zenrec@gmail.com,learn.canvas.net,Biobased Building (Mar2019),,,,,,,,,,0.00,0.00,,,,,0.00,0.00,,,,
Ann Van Dielen,471862,,vandielenann@gmail.com,learn.canvas.net,Biobased Building (Mar2019),,,,,,,,,,0.00,0.00,,,0.00,0.00,0.00,0.00,,,0.00,0.00
Merve Dikiciler,907059,,dikiciler.merve@gmail.com,learn.canvas.net,Biobased Building (Mar2019),,,,,,,,,,0.00,0.00,,,,,0.00,0.00,,,,
Josephine Dion,891280,,dionjosephine@gmail.com,learn.canvas.net,Biobased Building (Mar2019),,,,,,,,,,0.00,0.00,,,0.00,0.00,0.00,0.00,,,0.00,0.00
Kria Djoyoadhiningrat,907475,,ka.djoijoadhiningrat@windesheimflevoland.nl,learn.canvas.net,Biobased Building (Mar2019),,,,,,,,,,0.00,0.00,,,,,0.00,0.00,,,,
Ingolf van Doorn,920685,,I.vandoorn@helicon.nl,learn.canvas.net,Biobased Building (Mar2019),,,,,,,,,,0.00,0.00,,,,,0.00,0.00,,,,
Sam Driessen,807584,,driessensam@gmail.com,learn.canvas.net,Biobased Building (Mar2019),52.00,7.00,6.00,7.00,7.00,6.00,7.00,6.00,6.00,104.00,104.00,94.55,94.55,94.55,94.55,104.00,104.00,94.55,94.55,94.55,94.55
Pepijn Duijvestein,920621,,p.du@me.com,learn.canvas.net,Biobased Building (Mar2019),,,,,,,,,,0.00,0.00,,,,,0.00,0.00,,,,
Anne Eichhorn,901976,,anne.eichhorn88@gmail.com,learn.canvas.net,Biobased Building (Mar2019),,,,,,,,,,0.00,0.00,,,,,0.00,0.00,,,,
Christina Eickmeier,899539,,info@chrith.com,learn.canvas.net,Biobased Building (Mar2019),,,,,,,,,,0.00,0.00,,,0.00,0.00,0.00,0.00,,,0.00,0.00
irfan emsen,906075,,rfnemsen@gmail.com,learn.canvas.net,Biobased Building (Mar2019),,7.00,,,,,,,,7.00,7.00,100.00,100.00,6.36,6.36,7.00,7.00,100.00,100.00,6.36,6.36
ESTER,897936,,esterestefinini@gmail.com.br,learn.canvas.net,Biobased Building (Mar2019),,,,,,,,,,0.00,0.00,,,0.00,0.00,0.00,0.00,,,0.00,0.00
Carla Estes,886772,,forchun8@gmail.com,learn.canvas.net,Biobased Building (Mar2019),,,,,,,,,,0.00,0.00,,,0.00,0.00,0.00,0.00,,,0.00,0.00
etburg,807764,,etburg@avans.nl,learn.canvas.net,Biobased Building (Mar2019),52.00,7.00,7.00,8.00,7.00,7.00,8.00,7.00,7.00,110.00,110.00,100.00,100.00,100.00,100.00,110.00,110.00,100.00,100.00,100.00,100.00
Jelle Evers,934087,,Ever0031@hz.nl,learn.canvas.net,Biobased Building (Mar2019),,,,,,,,,,0.00,0.00,,,,,0.00,0.00,,,,
Farida,763536,,farida.orujova@yahoo.com,learn.canvas.net,Biobased Building (Mar2019),,,,,,,,,,0.00,0.00,,,,,0.00,0.00,,,,
Youness Faridi,900674,,younessfaridi48@gmail.com,learn.canvas.net,Biobased Building (Mar2019),,,,,,,,,,0.00,0.00,,,,,0.00,0.00,,,,
wanda ferguson,96847,,wandafab@hotmail.com,learn.canvas.net,Biobased Building (Mar2019),,,,,,,,,,0.00,0.00,,,0.00,0.00,0.00,0.00,,,0.00,0.00
Megan Fitch,899004,,megan.fitch@boeing.com,learn.canvas.net,Biobased Building (Mar2019),,,,,,,,,,0.00,0.00,,,,,0.00,0.00,,,,
Neil Flinchbaugh,738835,,n.flinchbaugh@gmail.com,learn.canvas.net,Biobased Building (Mar2019),,,,,,,,,,0.00,0.00,,,0.00,0.00,0.00,0.00,,,0.00,0.00
Thijs Flore,920737,,Info@studio-tf.com,learn.canvas.net,Biobased Building (Mar2019),,,,,,,,,,0.00,0.00,,,,,0.00,0.00,,,,
frankvanwezel,903813,,frankvanwezel@outlook.com,learn.canvas.net,Biobased Building (Mar2019),,4.00,5.00,5.00,3.00,3.00,6.00,,,26.00,26.00,59.09,59.09,23.64,23.64,26.00,26.00,59.09,59.09,23.64,23.64
Eefje Franssen,903580,,Eefje.franssen@hotmail.com,learn.canvas.net,Biobased Building (Mar2019),,,,,,,,,,0.00,0.00,,,,,0.00,0.00,,,,
Karin gabor,898582,,Karin@dgvgroup.com,learn.canvas.net,Biobased Building (Mar2019),,,,,,,,,,0.00,0.00,,,0.00,0.00,0.00,0.00,,,0.00,0.00
Siddhartha Gautam,888309,,Sidar.gtm@gmail.com,learn.canvas.net,Biobased Building (Mar2019),,,,,,,,,,0.00,0.00,,,0.00,0.00,0.00,0.00,,,0.00,0.00
Sander Geluk,934176,,sandergeluk19@gmail.com,learn.canvas.net,Biobased Building (Mar2019),52.00,7.00,7.00,8.00,7.00,7.00,8.00,7.00,7.00,110.00,110.00,100.00,100.00,100.00,100.00,110.00,110.00,100.00,100.00,100.00,100.00
Fernando De Marchi Gherini,846911,,fgherini@gmail.com,learn.canvas.net,Biobased Building (Mar2019),,,,,,,,,,0.00,0.00,,,0.00,0.00,0.00,0.00,,,0.00,0.00
Arkoprovo Ghosh,902995,,arkoprovo1996@gmail.com,learn.canvas.net,Biobased Building (Mar2019),,,,,,,,,,0.00,0.00,,,,,0.00,0.00,,,,
Sander Goedegebure,931392,,Sgoedeg@zeelandnet.nl,learn.canvas.net,Biobased Building (Mar2019),52.00,7.00,7.00,7.00,6.00,6.00,7.00,6.00,7.00,105.00,105.00,95.45,95.45,95.45,95.45,105.00,105.00,95.45,95.45,95.45,95.45
Varnika Gopal,899958,,varnikagopal@gmail.com,learn.canvas.net,Biobased Building (Mar2019),,7.00,7.00,8.00,7.00,7.00,8.00,7.00,7.00,58.00,58.00,100.00,100.00,52.73,52.73,58.00,58.00,100.00,100.00,52.73,52.73
Grzegorz Gorski,902742,,grzellak@gmail.com,learn.canvas.net,Biobased Building (Mar2019),,,,,,,,,,0.00,0.00,,,,,0.00,0.00,,,,
Jasmijn Govaarts,897415,,Gova0010@hz.nl,learn.canvas.net,Biobased Building (Mar2019),,7.00,7.00,,,,,,7.00,21.00,21.00,100.00,100.00,19.09,19.09,21.00,21.00,100.00,100.00,19.09,19.09
Paul Griffiths,923785,,pdgriffiths@hotmail.co.uk,learn.canvas.net,Biobased Building (Mar2019),,,,,,,,,6.00,6.00,6.00,85.71,85.71,5.45,5.45,6.00,6.00,85.71,85.71,5.45,5.45
Bert de Groot,957804,,Bertdegroot1@hotmail.com,learn.canvas.net,Biobased Building (Mar2019),,,,,,,,,,0.00,0.00,,,0.00,0.00,0.00,0.00,,,0.00,0.00
Hanika grover,898075,,Hanikagrover14@gmail.com,learn.canvas.net,Biobased Building (Mar2019),,,,,,,,,,0.00,0.00,,,0.00,0.00,0.00,0.00,,,0.00,0.00
Lars de Haan,524873,,lhaan@avans.nl,learn.canvas.net,Biobased Building (Mar2019),,,,,7.00,,,,,7.00,7.00,100.00,100.00,6.36,6.36,7.00,7.00,100.00,100.00,6.36,6.36
hannahwessels,947742,,hannahslessew@gmail.com,learn.canvas.net,Biobased Building (Mar2019),,,,,,,,,,0.00,0.00,,,,,0.00,0.00,,,,
Harithasree,898463,,harithasree97@gmail.com,learn.canvas.net,Biobased Building (Mar2019),,,,,,,,,,0.00,0.00,,,0.00,0.00,0.00,0.00,,,0.00,0.00
Jits Hartsuijker,933835,,jitshartsuijker@gmail.com,learn.canvas.net,Biobased Building (Mar2019),,,,,,,,,,0.00,0.00,,,,,0.00,0.00,,,,
N. Haverkamp,966366,,ninahaverkamp@hotmail.nl,learn.canvas.net,Biobased Building (Mar2019),,,,,,,,,,0.00,0.00,,,0.00,0.00,0.00,0.00,,,0.00,0.00
Tristan Hazeleger,935960,,haze0025@hz.nl,learn.canvas.net,Biobased Building (Mar2019),52.00,7.00,7.00,8.00,7.00,7.00,8.00,7.00,7.00,110.00,110.00,100.00,100.00,100.00,100.00,110.00,110.00,100.00,100.00,100.00,100.00
Amber Rose Heijdens,896970,,arheijdens@gmail.com,learn.canvas.net,Biobased Building (Mar2019),,6.00,6.00,7.00,7.00,,,,7.00,33.00,33.00,91.67,91.67,30.00,30.00,33.00,33.00,91.67,91.67,30.00,30.00
trea hermans,906438,,trea@forest-design.nl,learn.canvas.net,Biobased Building (Mar2019),,7.00,4.00,,,,,,7.00,18.00,18.00,85.71,85.71,16.36,16.36,18.00,18.00,85.71,85.71,16.36,16.36
Janice Hethcote,764030,,Jhethcote@gmail.com,learn.canvas.net,Biobased Building (Mar2019),,,,,,,,,7.00,7.00,7.00,100.00,100.00,6.36,6.36,7.00,7.00,100.00,100.00,6.36,6.36
Dylan Hijdra,919262,,hijd0001@hz.nl,learn.canvas.net,Biobased Building (Mar2019),52.00,6.00,6.00,8.00,6.00,7.00,7.00,6.00,7.00,105.00,105.00,95.45,95.45,95.45,95.45,105.00,105.00,95.45,95.45,95.45,95.45
Berend hoffmann,899823,,Berend.hoffmann@commonaffairs.nl,learn.canvas.net,Biobased Building (Mar2019),,,,,,,,,6.00,6.00,6.00,85.71,85.71,5.45,5.45,6.00,6.00,85.71,85.71,5.45,5.45
eoghan Hogan,904874,,eoghan.hogan@laureate.edu.au,learn.canvas.net,Biobased Building (Mar2019),,,,,,,,,,0.00,0.00,,,,,0.00,0.00,,,,
Gert Hooft,800947,,gert.hooft@hogent.be,learn.canvas.net,Biobased Building (Mar2019),,,,,,,,,,0.00,0.00,,,0.00,0.00,0.00,0.00,,,0.00,0.00
alwin hoogendoorn,432903,,a.hoogendoorn@avans.nl,learn.canvas.net,Biobased Building (Mar2019),,,,,,,,,,0.00,0.00,,,,,0.00,0.00,,,,
Stephan Hoornaert,237740,,biomimicry.be@gmail.com,learn.canvas.net,Biobased Building (Mar2019),,7.00,7.00,7.00,7.00,7.00,7.00,7.00,,49.00,49.00,96.08,96.08,44.55,44.55,49.00,49.00,96.08,96.08,44.55,44.55
Robert Howard,874475,,RobertBHoward.oa@gmail.com,learn.canvas.net,Biobased Building (Mar2019),,,,,,,,,,0.00,0.00,,,0.00,0.00,0.00,0.00,,,0.00,0.00
Stewart Howard,891692,,Stewart@Seedlipdrinks.com,learn.canvas.net,Biobased Building (Mar2019),,,,,,,,,,0.00,0.00,,,0.00,0.00,0.00,0.00,,,0.00,0.00
TRAN THI DIEU HUONG,812643,,darkstorm1308@gmail.com,learn.canvas.net,Biobased Building (Mar2019),,,,,,,,,,0.00,0.00,,,,,0.00,0.00,,,,
Fatima Ibrahimi,907196,,yuui-chills@hotmail.nl,learn.canvas.net,Biobased Building (Mar2019),,7.00,7.00,8.00,7.00,7.00,8.00,7.00,7.00,58.00,58.00,100.00,100.00,52.73,52.73,58.00,58.00,100.00,100.00,52.73,52.73
Jaap,900308,,regmenu@hotmail.com,learn.canvas.net,Biobased Building (Mar2019),,,,,,,,,,0.00,0.00,,,,,0.00,0.00,,,,
Ricardo Jansen,902683,,Jans0255@hz.nl,learn.canvas.net,Biobased Building (Mar2019),,,,,,,,,,0.00,0.00,,,,,0.00,0.00,,,,
Adrián jarrin,896771,,Ajarringuzman@gmail.com,learn.canvas.net,Biobased Building (Mar2019),,,,,,,,,,0.00,0.00,,,0.00,0.00,0.00,0.00,,,0.00,0.00
Jennifer Jones,852591,,jennifer.jones979@gmail.com,learn.canvas.net,Biobased Building (Mar2019),,3.00,,,,,,,,3.00,3.00,42.86,42.86,2.73,2.73,3.00,3.00,42.86,42.86,2.73,2.73
Pradeepa K,896870,,kpchamp1998@gmail.com,learn.canvas.net,Biobased Building (Mar2019),,,,,,,,,,0.00,0.00,,,0.00,0.00,0.00,0.00,,,0.00,0.00
Michael Ari Kahl-Adams,898125,,m.kahl92@gmaill.com,learn.canvas.net,Biobased Building (Mar2019),,,,,,,,,,0.00,0.00,,,0.00,0.00,0.00,0.00,,,0.00,0.00
Kerstin Kapitzke,245100,,kkapitzke23@gmail.com,learn.canvas.net,Biobased Building (Mar2019),,,,,,,,,,0.00,0.00,,,,,0.00,0.00,,,,
David Katsburg,899461,,kats0010@hz.nl,learn.canvas.net,Biobased Building (Mar2019),52.00,6.00,6.00,7.00,7.00,6.00,6.00,7.00,6.00,103.00,103.00,93.64,93.64,93.64,93.64,103.00,103.00,93.64,93.64,93.64,93.64
Nwosu-obieogu kenechi,800665,,kenenwosuobie@gmail.com,learn.canvas.net,Biobased Building (Mar2019),,,,,,,,,,0.00,0.00,,,0.00,0.00,0.00,0.00,,,0.00,0.00
Ali Jawad Khahim,907140,,ilailailaila@hotmail.com,learn.canvas.net,Biobased Building (Mar2019),,,,,,,,7.00,,7.00,7.00,100.00,100.00,6.36,6.36,7.00,7.00,100.00,100.00,6.36,6.36
Adnan Ghani Khan,726302,,adnanghanikhan@gmail.com,learn.canvas.net,Biobased Building (Mar2019),,,,,,,,,,0.00,0.00,,,0.00,0.00,0.00,0.00,,,0.00,0.00
Lailla Khusnul Khotimah,896753,,gitu.saja@gmail.com,learn.canvas.net,Biobased Building (Mar2019),,,,,,,,,,0.00,0.00,,,0.00,0.00,0.00,0.00,,,0.00,0.00
Catherine Lee kit,938733,,Icatyservices@gmail.com,learn.canvas.net,Biobased Building (Mar2019),,,,,,,,,,0.00,0.00,,,,,0.00,0.00,,,,
Sebastian Klemm,734526,,an.sebastian.klemm@gmail.com,learn.canvas.net,Biobased Building (Mar2019),,,,,,,,,,0.00,0.00,,,0.00,0.00,0.00,0.00,,,0.00,0.00
Olga kosova,772544,,Olgakosova@yahoo.com,learn.canvas.net,Biobased Building (Mar2019),,,,,,,,,,0.00,0.00,,,0.00,0.00,0.00,0.00,,,0.00,0.00
Olena Kovalenko,603851,,olena.eco.kovalenko@gmail.com,learn.canvas.net,Biobased Building (Mar2019),,,,,,,,,,0.00,0.00,,,0.00,0.00,0.00,0.00,,,0.00,0.00
Lou Krabshuis,898593,,loukrabshuis@gmail.com,learn.canvas.net,Biobased Building (Mar2019),,,,,,,,,,0.00,0.00,,,0.00,0.00,0.00,0.00,,,0.00,0.00
Courtney Kreifels,887825,,courtneykreifels@cox.net,learn.canvas.net,Biobased Building (Mar2019),,,,,,,,,,0.00,0.00,,,0.00,0.00,0.00,0.00,,,0.00,0.00
Elise Marie Kretzschmar,899940,,elisemarie.ink@gmail.com,learn.canvas.net,Biobased Building (Mar2019),,,,,,,,,,0.00,0.00,,,0.00,0.00,0.00,0.00,,,0.00,0.00
Neethu Krishnan ,575543,,neethuk33@gmail.com,learn.canvas.net,Biobased Building (Mar2019),,,,,,,,,,0.00,0.00,,,0.00,0.00,0.00,0.00,,,0.00,0.00
Tara Lakerveld,903613,,lake0002@hz.nl,learn.canvas.net,Biobased Building (Mar2019),52.00,7.00,7.00,8.00,7.00,7.00,8.00,7.00,7.00,110.00,110.00,100.00,100.00,100.00,100.00,110.00,110.00,100.00,100.00,100.00,100.00
Jochem Langerwerf,903628,,langerwerf_j@hotmail.com,learn.canvas.net,Biobased Building (Mar2019),,,,,,,,,,0.00,0.00,,,,,0.00,0.00,,,,
Laurie,893422,,laurie.baker1@gmail.com,learn.canvas.net,Biobased Building (Mar2019),,,,,,,,,,0.00,0.00,,,0.00,0.00,0.00,0.00,,,0.00,0.00
LEE WEE TECK,67849,,dennisleewt@live.com.au,learn.canvas.net,Biobased Building (Mar2019),,,,,,,,,,0.00,0.00,,,0.00,0.00,0.00,0.00,,,0.00,0.00
Mitch Lobbezoo,903762,,mitch_299@icloud.com,learn.canvas.net,Biobased Building (Mar2019),,,,,,,,,,0.00,0.00,,,,,0.00,0.00,,,,
Janneke van Loon,926792,,janneke.vanloon01@gmail.com,learn.canvas.net,Biobased Building (Mar2019),,,,,,,,,,0.00,0.00,,,,,0.00,0.00,,,,
Wim Loonen,428726,,wimloonen@hotmail.com,learn.canvas.net,Biobased Building (Mar2019),,,,,,,,,,0.00,0.00,,,,,0.00,0.00,,,,
Lubbers, A.,250398,,dammm90@gmail.com,learn.canvas.net,Biobased Building (Mar2019),,,,,,,,,,0.00,0.00,,,,,0.00,0.00,,,,
ALDRIAN DHEEN MALCAMPO MAGNAYE,829334,,aldrianmagnaye@gmail.com,learn.canvas.net,Biobased Building (Mar2019),,,,,,,,,,0.00,0.00,,,0.00,0.00,0.00,0.00,,,0.00,0.00
Lucija Malinar,850964,,laralucija2@gmail.com,learn.canvas.net,Biobased Building (Mar2019),,,,,,,,,,0.00,0.00,,,,,0.00,0.00,,,,
Sudhiranjan Mandal,442737,,sudhiranjan1959@gmail.com,learn.canvas.net,Biobased Building (Mar2019),,,,,,,,,,0.00,0.00,,,,,0.00,0.00,,,,
vasiliki maniati,220558,,vickiestevemaniati@yahoo.gr,learn.canvas.net,Biobased Building (Mar2019),,,,,,,,,,0.00,0.00,,,0.00,0.00,0.00,0.00,,,0.00,0.00
Johanna Metcalfe,745127,,metcaljc@gmail.com,learn.canvas.net,Biobased Building (Mar2019),,6.00,7.00,8.00,5.00,7.00,8.00,7.00,7.00,55.00,55.00,94.83,94.83,50.00,50.00,55.00,55.00,94.83,94.83,50.00,50.00
Jelte van der Meulen,924124,,jeltevdmeulen@gmail.com,learn.canvas.net,Biobased Building (Mar2019),,,,,,3.00,,,,3.00,3.00,42.86,42.86,2.73,2.73,3.00,3.00,42.86,42.86,2.73,2.73
Femke Michielse,666722,,f.michielse1@student.avans.nl,learn.canvas.net,Biobased Building (Mar2019),,,,,,,,,,0.00,0.00,,,,,0.00,0.00,,,,
Lars Middel,924932,,lhjr.middel@student.avans.nl,learn.canvas.net,Biobased Building (Mar2019),52.00,6.00,6.00,8.00,6.00,6.00,8.00,7.00,7.00,106.00,106.00,96.36,96.36,96.36,96.36,106.00,106.00,96.36,96.36,96.36,96.36
Shabir A Moghal ,726563,,Sam_mk@hotmail.com,learn.canvas.net,Biobased Building (Mar2019),52.00,6.00,6.00,8.00,6.00,6.00,7.00,6.00,7.00,104.00,104.00,94.55,94.55,94.55,94.55,104.00,104.00,94.55,94.55,94.55,94.55
Mona,893456,,redstoneorganicfarm@gmail.com,learn.canvas.net,Biobased Building (Mar2019),,,,,,,,,,0.00,0.00,,,,,0.00,0.00,,,,
Comfort Alexander Mosha,888395,,cmmosha@gmail.com,learn.canvas.net,Biobased Building (Mar2019),,,,,,,,,,0.00,0.00,,,0.00,0.00,0.00,0.00,,,0.00,0.00
Evelyn Mosha,888394,,enamosha@gmail.com,learn.canvas.net,Biobased Building (Mar2019),,,,,,,,,,0.00,0.00,,,0.00,0.00,0.00,0.00,,,0.00,0.00
Eduardo Aguiar Gomes de Moura,901373,,arquitetoeduardomoura@gmail.com,learn.canvas.net,Biobased Building (Mar2019),,7.00,,,,,,,,7.00,7.00,100.00,100.00,6.36,6.36,7.00,7.00,100.00,100.00,6.36,6.36
Poliana Barbosa Lima Moura,458711,,polianabmoura@gmail.com,learn.canvas.net,Biobased Building (Mar2019),,,,,,,,,,0.00,0.00,,,0.00,0.00,0.00,0.00,,,0.00,0.00
Karl R. Mulder,630974,,karl@obiali.nl,learn.canvas.net,Biobased Building (Mar2019),,7.00,7.00,8.00,7.00,7.00,8.00,7.00,7.00,58.00,58.00,100.00,100.00,52.73,52.73,58.00,58.00,100.00,100.00,52.73,52.73
Vinesh G Nath,340145,,vineshgnath@gmail.com,learn.canvas.net,Biobased Building (Mar2019),,,,,,,,,,0.00,0.00,,,,,0.00,0.00,,,,
Yasmin Akhlagh nejat,898295,,Yasmin_a808@yahoo.com,learn.canvas.net,Biobased Building (Mar2019),,,,,,,,,,0.00,0.00,,,0.00,0.00,0.00,0.00,,,0.00,0.00
Raymon Nesen,908151,,nese0001@hz.nl,learn.canvas.net,Biobased Building (Mar2019),52.00,7.00,7.00,8.00,7.00,7.00,8.00,7.00,7.00,110.00,110.00,100.00,100.00,100.00,100.00,110.00,110.00,100.00,100.00,100.00,100.00
Thanh Ngoc Nguyen,892789,,t.n.nguyen29985@gmail.com,learn.canvas.net,Biobased Building (Mar2019),,,,,,,,,,0.00,0.00,,,0.00,0.00,0.00,0.00,,,0.00,0.00
Ruben van den Nieuwenhuizen,937377,,rnieuwen1@avans.nl,learn.canvas.net,Biobased Building (Mar2019),,7.00,7.00,8.00,7.00,7.00,8.00,7.00,6.00,57.00,57.00,98.28,98.28,51.82,51.82,57.00,57.00,98.28,98.28,51.82,51.82
Narda Miranda Nieves,905116,,nardyshow@hotmail.com,learn.canvas.net,Biobased Building (Mar2019),,,,,,,,,,0.00,0.00,,,,,0.00,0.00,,,,
Ernst de Nobel,898799,,ernstdenobel0@gmail.com,learn.canvas.net,Biobased Building (Mar2019),,,,,,,,,,0.00,0.00,,,0.00,0.00,0.00,0.00,,,0.00,0.00
Ernst de Nobel,905030,,Info@ecocoatings.nl,learn.canvas.net,Biobased Building (Mar2019),,7.00,7.00,,,,,,,14.00,14.00,100.00,100.00,12.73,12.73,14.00,14.00,100.00,100.00,12.73,12.73
Jean Ntampaka,927649,,jeanntampaka@gmail.com,learn.canvas.net,Biobased Building (Mar2019),,,,,,,,,,0.00,0.00,,,,,0.00,0.00,,,,
Olaf Olden,902158,,olafolden@gmail.com,learn.canvas.net,Biobased Building (Mar2019),,,,,,,,,,0.00,0.00,,,,,0.00,0.00,,,,
Adrian Jean Oldenburg,896656,,adrian.jean@hotmail.com,learn.canvas.net,Biobased Building (Mar2019),,,,,,,,,,0.00,0.00,,,0.00,0.00,0.00,0.00,,,0.00,0.00
ALEXANDRE FERNANDES DE OLIVEIRA,616167,,DOLOMITI@UOL.COM.BR,learn.canvas.net,Biobased Building (Mar2019),0.00,7.00,7.00,8.00,7.00,7.00,8.00,7.00,7.00,58.00,58.00,52.73,52.73,52.73,52.73,58.00,58.00,52.73,52.73,52.73,52.73
Wouter van Olphen,905635,,woutervanolphen@gmail.com,learn.canvas.net,Biobased Building (Mar2019),,,,,,,,,,0.00,0.00,,,,,0.00,0.00,,,,
FARSSI OMAR,871219,,omarfarssi@gmail.com,learn.canvas.net,Biobased Building (Mar2019),,,,,,,,,,0.00,0.00,,,,,0.00,0.00,,,,
Nathan van Oosten,905661,,oost0089@hz.nl,learn.canvas.net,Biobased Building (Mar2019),,,,,,,,,,0.00,0.00,,,,,0.00,0.00,,,,
Amber Osseweijer,903435,,amber291297@hotmail.com,learn.canvas.net,Biobased Building (Mar2019),52.00,6.00,6.00,8.00,6.00,7.00,7.00,7.00,6.00,105.00,105.00,95.45,95.45,95.45,95.45,105.00,105.00,95.45,95.45,95.45,95.45
Greet Overbeek,427586,,greet.overbeek@wur.nl,learn.canvas.net,Biobased Building (Mar2019),,,,,,,,,,0.00,0.00,,,,,0.00,0.00,,,,
NURAY ÖZMEN,889089,,ozmennuray@gmail.com,learn.canvas.net,Biobased Building (Mar2019),,,,,,,,,,0.00,0.00,,,0.00,0.00,0.00,0.00,,,0.00,0.00
Joanalle Pacatang-Pama,868400,,joanallepacatang@gmail.com,learn.canvas.net,Biobased Building (Mar2019),,,,,,,,,,0.00,0.00,,,,,0.00,0.00,,,,
Noud Paes,898800,,Noud@paulderuiter.nl,learn.canvas.net,Biobased Building (Mar2019),,,,,,,,,,0.00,0.00,,,0.00,0.00,0.00,0.00,,,0.00,0.00
Mark Leo Huit Paga,876785,,p.markleo@yahoo.com.ph,learn.canvas.net,Biobased Building (Mar2019),,,,,,,,,,0.00,0.00,,,0.00,0.00,0.00,0.00,,,0.00,0.00
Nelmar D. Palalon,816898,,palalonnelmar@gmail.com,learn.canvas.net,Biobased Building (Mar2019),,,,,,,,,,0.00,0.00,,,0.00,0.00,0.00,0.00,,,0.00,0.00
Cristopher Bombane Parmis,885383,,cristopherparmis@gmail.com,learn.canvas.net,Biobased Building (Mar2019),,,,,,,,,,0.00,0.00,,,,,0.00,0.00,,,,
Raju Patil,51140,,raju.patil@pricoltech.com,learn.canvas.net,Biobased Building (Mar2019),,5.00,7.00,,7.00,5.00,8.00,,,32.00,32.00,88.89,88.89,29.09,29.09,32.00,32.00,88.89,88.89,29.09,29.09
Nick Pels,920507,,nha.pels@student.avans.nl,learn.canvas.net,Biobased Building (Mar2019),,,,,,,,,,0.00,0.00,,,,,0.00,0.00,,,,
michele pergolesi,897035,,michele.pergolesi@gmail.com,learn.canvas.net,Biobased Building (Mar2019),,,,,,,,,,0.00,0.00,,,0.00,0.00,0.00,0.00,,,0.00,0.00
Anna Perreira,895992,,perreira.anna@gmail.com,learn.canvas.net,Biobased Building (Mar2019),,,6.00,7.00,6.00,5.00,7.00,5.00,6.00,42.00,42.00,82.35,82.35,38.18,38.18,42.00,42.00,82.35,82.35,38.18,38.18
Rahmat Peypers,903052,,Rahmat@stratenergetic.com,learn.canvas.net,Biobased Building (Mar2019),,,,,,,,,,0.00,0.00,,,,,0.00,0.00,,,,
Michel Pipping,422341,,mpipping@davinci.nl,learn.canvas.net,Biobased Building (Mar2019),,,,,,,,,,0.00,0.00,,,,,0.00,0.00,,,,
Natalie Prinsen,947729,,natalie.prinsen@alcedo.nl,learn.canvas.net,Biobased Building (Mar2019),,,,,,,,,,0.00,0.00,,,,,0.00,0.00,,,,
marije remigius,958119,,marijeremigius@hotmail.com,learn.canvas.net,Biobased Building (Mar2019),,,,,,,5.00,,,5.00,5.00,62.50,62.50,4.55,4.55,5.00,5.00,62.50,62.50,4.55,4.55
Tim Remmers,807593,,jngpremm@avans.nl,learn.canvas.net,Biobased Building (Mar2019),,,,,,,,,,0.00,0.00,,,,,0.00,0.00,,,,
Myra Reus,895083,,myrareus@gmail.com,learn.canvas.net,Biobased Building (Mar2019),,6.00,6.00,8.00,6.00,6.00,6.00,6.00,5.00,49.00,49.00,84.48,84.48,44.55,44.55,49.00,49.00,84.48,84.48,44.55,44.55
Emiel Rietvelt,947535,,emiel@stichtingnieuwehelden.nl,learn.canvas.net,Biobased Building (Mar2019),,,,,,,,,,0.00,0.00,,,,,0.00,0.00,,,,
Niels de Rijke,897067,,nielsrijkede@gmail.com,learn.canvas.net,Biobased Building (Mar2019),52.00,7.00,7.00,8.00,7.00,7.00,8.00,7.00,6.00,109.00,109.00,99.09,99.09,99.09,99.09,109.00,109.00,99.09,99.09,99.09,99.09
loes van rijnsbergen,908141,,loes.rijnsbergen@rijksoverheid.nl,learn.canvas.net,Biobased Building (Mar2019),,,,,,,,,,0.00,0.00,,,,,0.00,0.00,,,,
Georgia Roach,896739,,groach93@gmail.com,learn.canvas.net,Biobased Building (Mar2019),,,,,,,,,,0.00,0.00,,,0.00,0.00,0.00,0.00,,,0.00,0.00
Daniel Ernesto Romero Rodríguez,798404,,romeroprofebibliotecario@gmail.com,learn.canvas.net,Biobased Building (Mar2019),,,,,,,,,,0.00,0.00,,,0.00,0.00,0.00,0.00,,,0.00,0.00
Reshma S,903794,,reshma.srinivasan@gmail.com,learn.canvas.net,Biobased Building (Mar2019),,4.00,5.00,7.00,,,,,,16.00,16.00,72.73,72.73,14.55,14.55,16.00,16.00,72.73,72.73,14.55,14.55
RYAN BEN SABILALA,887945,,Sabilala.ryanben@outlook.com,learn.canvas.net,Biobased Building (Mar2019),,,,,,,,,,0.00,0.00,,,0.00,0.00,0.00,0.00,,,0.00,0.00
Rashidul Sadi,544380,,rashidul.sadi@gmail.com,learn.canvas.net,Biobased Building (Mar2019),,,,,,,,,,0.00,0.00,,,0.00,0.00,0.00,0.00,,,0.00,0.00
Fatima Saif,704390,,crazyartist523@gmail.com,learn.canvas.net,Biobased Building (Mar2019),,,,,,,,,,0.00,0.00,,,0.00,0.00,0.00,0.00,,,0.00,0.00
Stijn Sannen,920596,,stijn.sannen@faam-bv.nl,learn.canvas.net,Biobased Building (Mar2019),,,,,,,,,,0.00,0.00,,,,,0.00,0.00,,,,
Uriel Santiago,907511,,urielsantiagoiteshu@gmail.com,learn.canvas.net,Biobased Building (Mar2019),,,,,,,,,,0.00,0.00,,,,,0.00,0.00,,,,
Sarasadat,903868,,sarahtejareh@gmail.com,learn.canvas.net,Biobased Building (Mar2019),,,,,,,,,,0.00,0.00,,,,,0.00,0.00,,,,
jaclyn saylor,893402,,jaclynsaylor@gmail.com,learn.canvas.net,Biobased Building (Mar2019),,,,,,,,,,0.00,0.00,,,0.00,0.00,0.00,0.00,,,0.00,0.00
Lars Schiettekatte,920540,,l.schiettekatte@gmail.com,learn.canvas.net,Biobased Building (Mar2019),,,,,,,,,,0.00,0.00,,,,,0.00,0.00,,,,
Brigitte J.A.G. Schrijvers,869575,,jag.schrijvers@gmail.com,learn.canvas.net,Biobased Building (Mar2019),,,,,,,,,7.00,7.00,7.00,100.00,100.00,6.36,6.36,7.00,7.00,100.00,100.00,6.36,6.36
Tuna Sensu,886546,,tunasensu@gmail.com,learn.canvas.net,Biobased Building (Mar2019),,7.00,7.00,,,,,,7.00,21.00,21.00,100.00,100.00,19.09,19.09,21.00,21.00,100.00,100.00,19.09,19.09
Amer Sayed Shaat,891758,,engamer2596@gmail.com,learn.canvas.net,Biobased Building (Mar2019),,,,,,,,,,0.00,0.00,,,0.00,0.00,0.00,0.00,,,0.00,0.00
Gopal Krishna Sharma,951749,,tukey30@gmail.com,learn.canvas.net,Biobased Building (Mar2019),,,,,,,,,,0.00,0.00,,,,,0.00,0.00,,,,
Mahendra Kumar Shrestha,903714,,mdulegaunda@gmail.com,learn.canvas.net,Biobased Building (Mar2019),,,,,,,,,,0.00,0.00,,,,,0.00,0.00,,,,
Hanne Simonse,931264,,s.simonse@student.avans.nl,learn.canvas.net,Biobased Building (Mar2019),52.00,7.00,7.00,8.00,7.00,7.00,8.00,7.00,7.00,110.00,110.00,100.00,100.00,100.00,100.00,110.00,110.00,100.00,100.00,100.00,100.00
serge van sluijs,903578,,slui0040@hz.nl,learn.canvas.net,Biobased Building (Mar2019),,,,,,,,,,0.00,0.00,,,,,0.00,0.00,,,,
Marlies Sobczak,897061,,m.sobczak@sobczak.nl,learn.canvas.net,Biobased Building (Mar2019),,,,,,,,,,0.00,0.00,,,0.00,0.00,0.00,0.00,,,0.00,0.00
Triinu Sõber,3376,,triinusober@yahoo.com,learn.canvas.net,Biobased Building (Mar2019),,,,,,,,,,0.00,0.00,,,0.00,0.00,0.00,0.00,,,0.00,0.00
Eric Soer,901286,,eric@green-support.nl,learn.canvas.net,Biobased Building (Mar2019),,,,,,,,,,0.00,0.00,,,,,0.00,0.00,,,,
Michael Sommerfeld,903134,,haligonexpress@yahoo.ca,learn.canvas.net,Biobased Building (Mar2019),,,,,,,,,3.00,3.00,3.00,42.86,42.86,2.73,2.73,3.00,3.00,42.86,42.86,2.73,2.73
Sop,935784,,sophie_claude@sfr.fr,learn.canvas.net,Biobased Building (Mar2019),,,,,,,7.00,,,7.00,7.00,87.50,87.50,6.36,6.36,7.00,7.00,87.50,87.50,6.36,6.36
jaya sravani,894704,,jayasravanimareedu@gmail.com,learn.canvas.net,Biobased Building (Mar2019),,,,,,,,,,0.00,0.00,,,0.00,0.00,0.00,0.00,,,0.00,0.00
Harmen Stap,731831,,hstap@avans.nl,learn.canvas.net,Biobased Building (Mar2019),,,,,,,,,,0.00,0.00,,,0.00,0.00,0.00,0.00,,,0.00,0.00
Svetoslav Stoykov,235242,,svstoykov@gmail.com,learn.canvas.net,Biobased Building (Mar2019),,,,,,,,,,0.00,0.00,,,0.00,0.00,0.00,0.00,,,0.00,0.00
Simone Sturm,906515,,stur0039@hz.nl,learn.canvas.net,Biobased Building (Mar2019),52.00,7.00,7.00,8.00,7.00,6.00,8.00,7.00,7.00,109.00,109.00,99.09,99.09,99.09,99.09,109.00,109.00,99.09,99.09,99.09,99.09
Linda Supinski,862088,,Lachaperon81@gmail.com,learn.canvas.net,Biobased Building (Mar2019),,,,,,,,,,0.00,0.00,,,0.00,0.00,0.00,0.00,,,0.00,0.00
François Tabuteau,738886,,francois.tabuteau@hotmail.fr,learn.canvas.net,Biobased Building (Mar2019),,,,,,,,,,0.00,0.00,,,0.00,0.00,0.00,0.00,,,0.00,0.00
Hedvig Takacs,849708,,Thme.happy@gmail.com,learn.canvas.net,Biobased Building (Mar2019),,,,,,,,,,0.00,0.00,,,0.00,0.00,0.00,0.00,,,0.00,0.00
jetske thielen,919966,,j.thielen@avans.nl,learn.canvas.net,Biobased Building (Mar2019),,,,,,,,,,0.00,0.00,,,,,0.00,0.00,,,,
Robbert Thomaes,903764,,thom0014@hz.nl,learn.canvas.net,Biobased Building (Mar2019),,7.00,,,,,,,,7.00,7.00,100.00,100.00,6.36,6.36,7.00,7.00,100.00,100.00,6.36,6.36
Chan'nel thomas,888855,,makeit@littlepinkmaker.com,learn.canvas.net,Biobased Building (Mar2019),,,,,,,,,,0.00,0.00,,,0.00,0.00,0.00,0.00,,,0.00,0.00
Ran Tian,892668,,rtian@jgnarch.com,learn.canvas.net,Biobased Building (Mar2019),,,,,,,,,,0.00,0.00,,,0.00,0.00,0.00,0.00,,,0.00,0.00
EDENTHOR J. TIEMPO,859419,,edenthorjtiempo@gmail.com,learn.canvas.net,Biobased Building (Mar2019),,,,,,,,,,0.00,0.00,,,0.00,0.00,0.00,0.00,,,0.00,0.00
Wanda Too,317145,,wanda2wander@gmail.com,learn.canvas.net,Biobased Building (Mar2019),,,,,,,,,,0.00,0.00,,,0.00,0.00,0.00,0.00,,,0.00,0.00
tsakhurets,142535,,eldar.guseynov@gmail.com,learn.canvas.net,Biobased Building (Mar2019),,,,,,,,,,0.00,0.00,,,,,0.00,0.00,,,,
Jia Xin Tung,732882,,jx.tung@student.avans.nl,learn.canvas.net,Biobased Building (Mar2019),,7.00,7.00,8.00,7.00,7.00,8.00,7.00,7.00,58.00,58.00,100.00,100.00,52.73,52.73,58.00,58.00,100.00,100.00,52.73,52.73
Furkan Sinan Üğütmen,906901,,furkansinan.94@gmail.com,learn.canvas.net,Biobased Building (Mar2019),,,,,,,,,,0.00,0.00,,,,,0.00,0.00,,,,
umarani,887668,,uma912010@gmail.com,learn.canvas.net,Biobased Building (Mar2019),,,,,,,,,,0.00,0.00,,,0.00,0.00,0.00,0.00,,,0.00,0.00
Efe Unal,907774,,efeunal2@gmail.com,learn.canvas.net,Biobased Building (Mar2019),,,,,,,,,,0.00,0.00,,,,,0.00,0.00,,,,
Su Uyanık,907570,,suuyanik@gmail.com,learn.canvas.net,Biobased Building (Mar2019),,,,,,,,,,0.00,0.00,,,,,0.00,0.00,,,,
Koen de Vaan,903697,,vaan0003@hz.nl,learn.canvas.net,Biobased Building (Mar2019),,,,,,,,,,0.00,0.00,,,,,0.00,0.00,,,,
Corné bij de Vaate,903968,,vaat0008@hz.nl,learn.canvas.net,Biobased Building (Mar2019),52.00,7.00,7.00,8.00,7.00,7.00,8.00,7.00,7.00,110.00,110.00,100.00,100.00,100.00,100.00,110.00,110.00,100.00,100.00,100.00,100.00
Ann Vanner,888723,,Annvanner@hotmail.com,learn.canvas.net,Biobased Building (Mar2019),,,,,,,,,,0.00,0.00,,,0.00,0.00,0.00,0.00,,,0.00,0.00
Iris Vantricht,909862,,vant0007@hz.nl,learn.canvas.net,Biobased Building (Mar2019),52.00,7.00,6.00,7.00,6.00,6.00,7.00,7.00,6.00,104.00,104.00,94.55,94.55,94.55,94.55,104.00,104.00,94.55,94.55,94.55,94.55
Anne van Veggel,666727,,a.vanveggel@student.avans.nl,learn.canvas.net,Biobased Building (Mar2019),,,,,,,,,,0.00,0.00,,,,,0.00,0.00,,,,
Sanne Verbist,670139,,sanne1997hh@outlook.com,learn.canvas.net,Biobased Building (Mar2019),,,,,,,,,,0.00,0.00,,,,,0.00,0.00,,,,
Geertje Verschuren,897379,,g.verschuren@duravermeer.nl,learn.canvas.net,Biobased Building (Mar2019),,,,,,,,,,0.00,0.00,,,0.00,0.00,0.00,0.00,,,0.00,0.00
Joost Vette,924129,,joostvette@gmail.com,learn.canvas.net,Biobased Building (Mar2019),,,,,,,8.00,,,8.00,8.00,100.00,100.00,7.27,7.27,8.00,8.00,100.00,100.00,7.27,7.27
Pawaskar Vinayak,879506,,pawaskar.vinayak@outlook.com,learn.canvas.net,Biobased Building (Mar2019),0.00,7.00,7.00,8.00,7.00,7.00,8.00,7.00,7.00,58.00,58.00,52.73,52.73,52.73,52.73,58.00,58.00,52.73,52.73,52.73,52.73
Jose Visser,901646,,jvisser@roctilburg.nl,learn.canvas.net,Biobased Building (Mar2019),,,,,,,,,,0.00,0.00,,,,,0.00,0.00,,,,
Geoffrey Vonck,903609,,vonc0006@hz.nl,learn.canvas.net,Biobased Building (Mar2019),,,,,,,,,,0.00,0.00,,,,,0.00,0.00,,,,
Stefan Vonk,904666,,sp.vonk@student.avans.nl,learn.canvas.net,Biobased Building (Mar2019),,6.00,6.00,7.00,6.00,6.00,7.00,7.00,6.00,51.00,51.00,87.93,87.93,46.36,46.36,51.00,51.00,87.93,87.93,46.36,46.36
Lars Voskamp,935222,,vosk0003@hz.nl,learn.canvas.net,Biobased Building (Mar2019),,,,,,,,,,0.00,0.00,,,,,0.00,0.00,,,,
Dominique vosmaer,923110,,Dominique.vosmaer@frontwisefacades.nl,learn.canvas.net,Biobased Building (Mar2019),,,,,,,,,,0.00,0.00,,,,,0.00,0.00,,,,
Frank van de Vreede,919113,,vree0020@hz.nl,learn.canvas.net,Biobased Building (Mar2019),52.00,7.00,7.00,8.00,7.00,7.00,8.00,7.00,7.00,110.00,110.00,100.00,100.00,100.00,100.00,110.00,110.00,100.00,100.00,100.00,100.00
Esther de Vries,931266,,ejp.devries@student.avans.nl,learn.canvas.net,Biobased Building (Mar2019),52.00,7.00,7.00,8.00,7.00,7.00,8.00,7.00,7.00,110.00,110.00,100.00,100.00,100.00,100.00,110.00,110.00,100.00,100.00,100.00,100.00
Jonno van Vulpen,900209,,jonnovv@gmail.com,learn.canvas.net,Biobased Building (Mar2019),,6.00,,,,,,,,6.00,6.00,85.71,85.71,5.45,5.45,6.00,6.00,85.71,85.71,5.45,5.45
gerwin walpot,903806,,walp0001@hz.nl,learn.canvas.net,Biobased Building (Mar2019),,,,,,,,,,0.00,0.00,,,,,0.00,0.00,,,,
Thairu Wambutu,888287,,ephasjude@gmail.com,learn.canvas.net,Biobased Building (Mar2019),,,,,,,,,,0.00,0.00,,,0.00,0.00,0.00,0.00,,,0.00,0.00
Emmy Westerweel,903685,,west0133@hz.nl,learn.canvas.net,Biobased Building (Mar2019),52.00,7.00,7.00,8.00,7.00,7.00,8.00,7.00,7.00,110.00,110.00,100.00,100.00,100.00,100.00,110.00,110.00,100.00,100.00,100.00,100.00
Kim Wijnings,905715,,immert19@gmail.com,learn.canvas.net,Biobased Building (Mar2019),,,,,,,,,,0.00,0.00,,,,,0.00,0.00,,,,
Lindie Wither-Weston,900551,,lindieweston@hotmail.com,learn.canvas.net,Biobased Building (Mar2019),,,,,,,,,,0.00,0.00,,,,,0.00,0.00,,,,
Julia Woznicki,897270,,Juliacwoz@gmail.com,learn.canvas.net,Biobased Building (Mar2019),,,,,,,,,,0.00,0.00,,,0.00,0.00,0.00,0.00,,,0.00,0.00
Emirul Adzhar Yahya,826011,,emirul.adzhar@gmail.com,learn.canvas.net,Biobased Building (Mar2019),,,,,,,,,,0.00,0.00,,,0.00,0.00,0.00,0.00,,,0.00,0.00
Afshan Yousaf,872286,,missyousafbarkat@gmail.com,learn.canvas.net,Biobased Building (Mar2019),,,,,,,,,,0.00,0.00,,,0.00,0.00,0.00,0.00,,,0.00,0.00
zedki,895578,,zedki1314@gmail.com,learn.canvas.net,Biobased Building (Mar2019),,,,,,,,,,0.00,0.00,,,0.00,0.00,0.00,0.00,,,0.00,0.00
Heidi Zeuner,895462,,HAZeuner@gmail.com,learn.canvas.net,Biobased Building (Mar2019),,,,,,,,,,0.00,0.00,,,,,0.00,0.00,,,,
Test Student,873071,,2b314730bc008c561678d49df5b65732956e66a0,learn.canvas.net,Biobased Building (Mar2019),,,,,,,,,,0.00,0.00,,,0.00,0.00,0.00,0.00,,,0.00,0.00
