﻿Profile Picture;Name;SIS ID;Section;Role;Last Activity;Total Activity;Administrative Links
Bassam Elmasri. My #is 1724;Bassam Elmasri. My #is 1724 ;;Biobased Building (Mar2019);Student;;;
A;A ;;Biobased Building (Mar2019);Student;May 2 at 9:48pm;12:54:34;
Mauree A.;Mauree A. ;;Biobased Building (Mar2019);Student;;;
seija aalto;seija aalto ;;Biobased Building (Mar2019);Student;Jun 7, 2019 at 1:34am;06:25;
Awad Ahmed Mohammed Ahmed;Awad Ahmed Mohammed Ahmed ;;Biobased Building (Mar2019);Student;Aug 28, 2019 at 11:53am;08:38:21;
Didem Akan;Didem Akan ;;Biobased Building (Mar2019);Student;Sep 27, 2019 at 3:22pm;12:58;
Serdar Aksu;Serdar Aksu ;;Biobased Building (Mar2019);Student;Jul 1, 2019 at 9:03am;01:07:31;
albert;albert ;;Biobased Building (Mar2019);Student;;;
Sandra Alonso;Sandra Alonso ;;Biobased Building (Mar2019);Student;Sep 14, 2019 at 4:59am;10:57;
Jonathan Andrews;Jonathan Andrews ;;Biobased Building (Mar2019);Student;May 1, 2019 at 10:05am;32:03:00;
SHAKEEL ANJUM;SHAKEEL ANJUM ;;Biobased Building (Mar2019);Student;;;
Anna;Anna ;;Biobased Building (Mar2019);Student;Apr 7 at 6:33am;;
Melissa Arias;Melissa Arias ;;Biobased Building (Mar2019);Student;Mar 31, 2019 at 10:10am;;
Hamza Arif;Hamza Arif ;;Biobased Building (Mar2019);Student;;;
Richard Asante;Richard Asante ;;Biobased Building (Mar2019);Student;May 16, 2019 at 1:28am;01:01:59;
Hessa G. Azul;Hessa G. Azul ;;Biobased Building (Mar2019);Student;Mar 30, 2019 at 8:14pm;18:52;
Florian B;Florian B ;;Biobased Building (Mar2019);Student;Jul 18, 2019 at 6:45am;02:12;
Dor Ba;Dor Ba ;;Biobased Building (Mar2019);Student;Apr 10, 2019 at 4:28am;02:15;
Sheena Babra;Sheena Babra ;;Biobased Building (Mar2019);Student;;;
Ulviyya Bahramova;Ulviyya Bahramova ;;Biobased Building (Mar2019);Student;Jul 7, 2019 at 1:45pm;27:39:00;
Monique Bakker;Monique Bakker ;;Biobased Building (Mar2019);Course Designer;Feb 26, 2019 at 3:20am;15:18:44;
;;;;;;;
Simone Baldini;Simone Baldini ;;Biobased Building (Mar2019);Student;;;
Felipe da Mota Bandeira;Felipe da Mota Bandeira ;;Biobased Building (Mar2019);Student;Feb 26, 2019 at 10:29am;;
Yolanda M. Barameda;Yolanda M. Barameda ;;Biobased Building (Mar2019);Student;;;
L. Barend;L. Barend ;;Biobased Building (Mar2019);Student;Mar 26, 2019 at 11:06am;11:39:20;
Luis Barroso;Luis Barroso ;;Biobased Building (Mar2019);Student;Apr 22, 2019 at 4:21am;04:16:17;
Beatrice;Beatrice ;;Biobased Building (Mar2019);Student;May 2, 2019 at 10:25am;06:02;
Jan Bekkering;Jan Bekkering ;;Biobased Building (Mar2019);Student;Aug 5, 2019 at 1:44am;10:01;
Liza Gemoto Bengal;Liza Gemoto Bengal ;;Biobased Building (Mar2019);Student;Jun 21, 2019 at 10:54pm;06:18;
Maartje Berenschot;Maartje Berenschot ;;Biobased Building (Mar2019);Student;Aug 27, 2019 at 5:32am;01:20:28;
Jasper van den Berg;Jasper van den Berg ;;Biobased Building (Mar2019);Student;Jul 26, 2019 at 2:55am;03:09:40;
Ria Bernards;Ria Bernards ;;Biobased Building (Mar2019);Student;May 4, 2019 at 4:22am;09:20:55;
Pieter Besuijen;Pieter Besuijen ;;Biobased Building (Mar2019);Student;;;
Ilaria la Bianca;Ilaria la Bianca pending;;Biobased Building (Mar2019);Teacher;;;
;;;;;;;
Davine Blauwhoff;Davine Blauwhoff ;;Biobased Building (Mar2019);Teacher;Mar 22, 2019 at 10:36am;01:09:13;
;;;;;;;
Stephanie Bos;Stephanie Bos ;;Biobased Building (Mar2019);Student;Nov 4, 2019 at 1:22pm;07:20;
Djacco van den Bosch;Djacco van den Bosch ;;Biobased Building (Mar2019);Student;Mar 28, 2019 at 2:05am;02:44:19;
Jeroen van den Bosch;Jeroen van den Bosch ;;Biobased Building (Mar2019);Student;;;
Willem Bottger;Willem Bottger ;;Biobased Building (Mar2019);Teacher;Apr 1, 2019 at 1:03am;14:31:58;
;;;;;;;
Robin Bouman;Robin Bouman ;;Biobased Building (Mar2019);Student;Aug 21, 2019 at 8:43am;02:55:54;
Tom Boyed;Tom Boyed ;;Biobased Building (Mar2019);Student;Mar 16, 2019 at 11:36pm;;
Guus van Bree;Guus van Bree ;;Biobased Building (Mar2019);Student;Aug 22, 2019 at 2:23pm;11:34:16;
Maikel Brinkhoff;Maikel Brinkhoff ;;Biobased Building (Mar2019);Student;;;
Querijn van Broekhoven;Querijn van Broekhoven ;;Biobased Building (Mar2019);Student;Sep 27, 2019 at 7:57am;32:08:40;
Sietske Brok;Sietske Brok ;;Biobased Building (Mar2019);Student;Jul 4, 2019 at 5:03am;12:36:29;
Tessa Buijnsters;Tessa Buijnsters ;;Biobased Building (Mar2019);Student;Apr 10, 2019 at 1:39pm;05:21:34;
Tyler Campbell;Tyler Campbell ;;Biobased Building (Mar2019);Student;Apr 23 at 4:29pm;;
Rolando Tapia Cañas;Rolando Tapia Cañas ;;Biobased Building (Mar2019);Student;;;
John Carlos Candelaria;John Carlos Candelaria ;;Biobased Building (Mar2019);Student;Sep 17, 2019 at 7:07am;;
Caroline;Caroline ;;Biobased Building (Mar2019);Student;May 8, 2019 at 3:39pm;03:18:03;
MARCO CARTA;MARCO CARTA ;;Biobased Building (Mar2019);Student;Jan 6 at 6:53am;04:21:29;
Davis Cartwright;Davis Cartwright ;;Biobased Building (Mar2019);Student;;;
laury chaerle;laury chaerle ;;Biobased Building (Mar2019);Student;Apr 25, 2019 at 4:51am;28:03:00;
Chin Fook Ming;Chin Fook Ming ;;Biobased Building (Mar2019);Student;Mar 16, 2019 at 9am;;
Ng Ping Chun ;Ng Ping Chun ;;Biobased Building (Mar2019);Student;Sep 3, 2019 at 8pm;;
Edwin Collazo;Edwin Collazo ;;Biobased Building (Mar2019);Student;May 24, 2019 at 4:22am;;
Julian Coppoolse;Julian Coppoolse ;;Biobased Building (Mar2019);Student;Jun 24, 2019 at 11:14am;07:32:45;
Jairo da Costa;Jairo da Costa ;;Biobased Building (Mar2019);Student;Sep 27, 2019 at 2:59am;08:35;
Joyce Crucq;Joyce Crucq ;;Biobased Building (Mar2019);Student;Aug 29, 2019 at 3:05am;02:07:18;
Miet Van Dael;Miet Van Dael ;;Biobased Building (Mar2019);Student;Apr 23, 2019 at 10:15am;112:55:39;
Adelaja Kayode Dalrymple;Adelaja Kayode Dalrymple ;;Biobased Building (Mar2019);Student;;;
Riley Daman-Willems;Riley Daman-Willems ;;Biobased Building (Mar2019);Student;Mar 27, 2019 at 2:14pm;03:01;
Elva Dede;Elva Dede ;;Biobased Building (Mar2019);Student;Apr 29, 2019 at 3:42pm;34:49:00;
Timo Derriks;Timo Derriks ;;Biobased Building (Mar2019);Student;;;
Fiona Dewhirst-Daniel;Fiona Dewhirst-Daniel ;;Biobased Building (Mar2019);Student;;;
Ann Van Dielen;Ann Van Dielen ;;Biobased Building (Mar2019);Student;Mar 27, 2019 at 6:59am;17:16;
Merve Dikiciler;Merve Dikiciler ;;Biobased Building (Mar2019);Student;;;
Josephine Dion;Josephine Dion ;;Biobased Building (Mar2019);Student;Mar 3, 2019 at 6:02am;;
Kria Djoyoadhiningrat;Kria Djoyoadhiningrat ;;Biobased Building (Mar2019);Student;Mar 30, 2019 at 8:33am;;
Ingolf van Doorn;Ingolf van Doorn ;;Biobased Building (Mar2019);Student;Jun 15 at 4:47am;03:48:48;
Sam Driessen;Sam Driessen ;;Biobased Building (Mar2019);Student;Jun 24, 2019 at 4:12pm;10:12:27;
Pepijn Duijvestein;Pepijn Duijvestein ;;Biobased Building (Mar2019);Student;Apr 19, 2019 at 5:46am;07:17;
Anne Eichhorn;Anne Eichhorn ;;Biobased Building (Mar2019);Student;Mar 27, 2019 at 12:05am;16:15;
Christina Eickmeier;Christina Eickmeier ;;Biobased Building (Mar2019);Student;Mar 27, 2019 at 6:45am;23:45;
irfan emsen;irfan emsen ;;Biobased Building (Mar2019);Student;Sep 8, 2019 at 6:02pm;02:05:14;
ESTER;ESTER ;;Biobased Building (Mar2019);Student;;;
Carla Estes;Carla Estes ;;Biobased Building (Mar2019);Student;;;
etburg;etburg ;;Biobased Building (Mar2019);Student;Jun 21, 2019 at 7:24am;40:49:25;
Jelle Evers;Jelle Evers ;;Biobased Building (Mar2019);Student;;;
f.burghvander@avans.nl;f.burghvander@avans.nl ;;Biobased Building (Mar2019);Teacher;Jun 7, 2019 at 3:54am;02:59:46;
;;;;;;;
Farida;Farida ;;Biobased Building (Mar2019);Student;May 13, 2019 at 1:26am;31:24:00;
Youness Faridi;Youness Faridi ;;Biobased Building (Mar2019);Student;;;
wanda ferguson;wanda ferguson ;;Biobased Building (Mar2019);Student;Apr 29, 2019 at 4:57am;01:02:40;
Megan Fitch;Megan Fitch ;;Biobased Building (Mar2019);Student;;;
Neil Flinchbaugh;Neil Flinchbaugh ;;Biobased Building (Mar2019);Student;;;
Thijs Flore;Thijs Flore ;;Biobased Building (Mar2019);Student;Apr 18, 2019 at 3:41pm;;
frankvanwezel;frankvanwezel ;;Biobased Building (Mar2019);Student;Mar 25, 2019 at 11:38am;02:22:47;
Eefje Franssen;Eefje Franssen ;;Biobased Building (Mar2019);Student;Oct 3, 2019 at 5:49am;03:55:06;
Karin gabor;Karin gabor ;;Biobased Building (Mar2019);Student;;;
Siddhartha Gautam;Siddhartha Gautam ;;Biobased Building (Mar2019);Student;Apr 12, 2019 at 1:41am;;
Sander Geluk;Sander Geluk ;;Biobased Building (Mar2019);Student;Jun 28, 2019 at 4:51am;07:31:04;
Fernando De Marchi Gherini;Fernando De Marchi Gherini ;;Biobased Building (Mar2019);Student;Mar 26, 2019 at 4:22am;13:22:50;
Arkoprovo Ghosh;Arkoprovo Ghosh ;;Biobased Building (Mar2019);Student;;;
Sander Goedegebure;Sander Goedegebure ;;Biobased Building (Mar2019);Student;Jun 12, 2019 at 3:33am;06:59:50;
Varnika Gopal;Varnika Gopal ;;Biobased Building (Mar2019);Student;Jun 29, 2019 at 3:16pm;06:27:55;
Grzegorz Gorski;Grzegorz Gorski ;;Biobased Building (Mar2019);Student;Mar 27, 2019 at 5:02am;01:34:18;
Jasmijn Govaarts;Jasmijn Govaarts ;;Biobased Building (Mar2019);Student;Jun 18, 2019 at 6:28am;04:22:11;
Paul Griffiths;Paul Griffiths ;;Biobased Building (Mar2019);Student;Apr 29, 2019 at 6:36pm;09:37:09;
Bert de Groot;Bert de Groot ;;Biobased Building (Mar2019);Student;;;
Hanika grover;Hanika grover ;;Biobased Building (Mar2019);Student;;;
Lars de Haan;Lars de Haan ;;Biobased Building (Mar2019);Student;Feb 14 at 2:51am;;
hannahwessels;hannahwessels ;;Biobased Building (Mar2019);Student;Jul 25, 2019 at 3:13am;;
Harithasree;Harithasree ;;Biobased Building (Mar2019);Student;Mar 26, 2019 at 8:46am;10:07;
Jits Hartsuijker;Jits Hartsuijker ;;Biobased Building (Mar2019);Student;May 22, 2019 at 2:09pm;35:05:00;
N. Haverkamp;N. Haverkamp ;;Biobased Building (Mar2019);Student;Sep 24, 2019 at 1:19am;05:04;
Tristan Hazeleger;Tristan Hazeleger ;;Biobased Building (Mar2019);Student;Jul 4, 2019 at 11:53am;06:49:43;
Amber Rose Heijdens;Amber Rose Heijdens ;;Biobased Building (Mar2019);Student;Aug 7, 2019 at 2:35am;10:51:12;
trea hermans;trea hermans ;;Biobased Building (Mar2019);Student;May 7, 2019 at 7:41am;05:28:10;
Janice Hethcote;Janice Hethcote ;;Biobased Building (Mar2019);Student;Mar 28, 2019 at 7:51am;01:29:59;
Dylan Hijdra;Dylan Hijdra ;;Biobased Building (Mar2019);Student;May 23, 2019 at 4:02am;04:42:06;
Berend hoffmann;Berend hoffmann ;;Biobased Building (Mar2019);Student;Apr 15, 2019 at 3:02pm;38:50:00;
eoghan Hogan;eoghan Hogan ;;Biobased Building (Mar2019);Student;Mar 26, 2019 at 4pm;02:16:13;
Gert Hooft;Gert Hooft ;;Biobased Building (Mar2019);Student;;;
alwin hoogendoorn;alwin hoogendoorn ;;Biobased Building (Mar2019);Student;Apr 23, 2019 at 7:35am;31:26:00;
Stephan Hoornaert;Stephan Hoornaert ;;Biobased Building (Mar2019);Student;Apr 22, 2019 at 3:28pm;52:45:00;
Robert Howard;Robert Howard ;;Biobased Building (Mar2019);Student;;;
Stewart Howard;Stewart Howard ;;Biobased Building (Mar2019);Student;;;
TRAN THI DIEU HUONG;TRAN THI DIEU HUONG ;;Biobased Building (Mar2019);Student;;;
i.labianca1@avans.nl;i.labianca1@avans.nl ;;Biobased Building (Mar2019);Teacher;Jun 13, 2019 at 7:32am;03:25:03;
;;;;;;;
Fatima Ibrahimi;Fatima Ibrahimi ;;Biobased Building (Mar2019);Student;Aug 28, 2019 at 4:24am;36:17:00;
Jaap;Jaap ;;Biobased Building (Mar2019);Student;;;
Ricardo Jansen;Ricardo Jansen ;;Biobased Building (Mar2019);Student;Mar 26, 2019 at 3:28am;;
Adrián jarrin;Adrián jarrin ;;Biobased Building (Mar2019);Student;Apr 1, 2019 at 9:07am;14:50;
Jennifer Jones;Jennifer Jones ;;Biobased Building (Mar2019);Student;Apr 2, 2019 at 10:29pm;07:55:10;
Pradeepa K;Pradeepa K ;;Biobased Building (Mar2019);Student;;;
Michael Ari Kahl-Adams;Michael Ari Kahl-Adams ;;Biobased Building (Mar2019);Student;;;
Kerstin Kapitzke;Kerstin Kapitzke ;;Biobased Building (Mar2019);Student;;;
David Katsburg;David Katsburg ;;Biobased Building (Mar2019);Student;Sep 26, 2019 at 3:07am;05:05:09;
Nwosu-obieogu kenechi;Nwosu-obieogu kenechi ;;Biobased Building (Mar2019);Student;Mar 26, 2019 at 3:22pm;08:38;
Ali Jawad Khahim;Ali Jawad Khahim ;;Biobased Building (Mar2019);Student;Mar 29, 2019 at 8:02pm;34:47:00;
Adnan Ghani Khan;Adnan Ghani Khan ;;Biobased Building (Mar2019);Student;Mar 23, 2019 at 9:24pm;;
Lailla Khusnul Khotimah;Lailla Khusnul Khotimah ;;Biobased Building (Mar2019);Student;Mar 13, 2019 at 5:07pm;;
Catherine Lee kit;Catherine Lee kit ;;Biobased Building (Mar2019);Student;Jul 22, 2019 at 3:37pm;01:25:26;
Sebastian Klemm;Sebastian Klemm ;;Biobased Building (Mar2019);Student;Mar 25, 2019 at 12:28pm;54:16:00;
Olga kosova;Olga kosova ;;Biobased Building (Mar2019);Student;;;
Olena Kovalenko;Olena Kovalenko ;;Biobased Building (Mar2019);Student;;;
Lou Krabshuis;Lou Krabshuis ;;Biobased Building (Mar2019);Student;Mar 18, 2019 at 4:25pm;04:44;
Courtney Kreifels;Courtney Kreifels ;;Biobased Building (Mar2019);Student;Feb 26, 2019 at 8:41am;;
Elise Marie Kretzschmar;Elise Marie Kretzschmar ;;Biobased Building (Mar2019);Student;Mar 25, 2019 at 9:50am;45:10:00;
Neethu Krishnan ;Neethu Krishnan ;;Biobased Building (Mar2019);Student;;;
Tara Lakerveld;Tara Lakerveld ;;Biobased Building (Mar2019);Student;Feb 17 at 8:02am;09:54:38;
Jochem Langerwerf;Jochem Langerwerf ;;Biobased Building (Mar2019);Student;;;
Laurie;Laurie ;;Biobased Building (Mar2019);Student;;;
LEE WEE TECK;LEE WEE TECK ;;Biobased Building (Mar2019);Student;Jan 6 at 9:35pm;02:11;
Mitch Lobbezoo;Mitch Lobbezoo ;;Biobased Building (Mar2019);Student;Mar 25, 2019 at 4:51pm;03:23:31;
Maurice van Londen;Maurice van Londen ;;Biobased Building (Mar2019);Course Designer;Sep 9, 2019 at 4:06am;05:46:04;
;;;Biobased Building (Mar2019);Teacher;Sep 9, 2019 at 4:06am;;
;;;;;;;
Janneke van Loon;Janneke van Loon ;;Biobased Building (Mar2019);Student;May 1, 2019 at 6:47am;05:24:04;
Wim Loonen;Wim Loonen ;;Biobased Building (Mar2019);Student;May 29, 2019 at 12:07pm;23:29;
Lubbers, A.;Lubbers, A. ;;Biobased Building (Mar2019);Student;;;
ALDRIAN DHEEN MALCAMPO MAGNAYE;ALDRIAN DHEEN MALCAMPO MAGNAYE ;;Biobased Building (Mar2019);Student;;;
Lucija Malinar;Lucija Malinar ;;Biobased Building (Mar2019);Student;;;
Sudhiranjan Mandal;Sudhiranjan Mandal ;;Biobased Building (Mar2019);Student;Jun 8, 2019 at 12:28pm;22:16;
vasiliki maniati;vasiliki maniati ;;Biobased Building (Mar2019);Student;Apr 1, 2019 at 5:57am;;
Johanna Metcalfe;Johanna Metcalfe ;;Biobased Building (Mar2019);Student;Apr 3, 2019 at 11:51pm;03:32:11;
Jelte van der Meulen;Jelte van der Meulen ;;Biobased Building (Mar2019);Student;Apr 24, 2019 at 8:39am;04:29;
Femke Michielse;Femke Michielse ;;Biobased Building (Mar2019);Student;;;
Lars Middel;Lars Middel ;;Biobased Building (Mar2019);Student;Nov 12, 2019 at 12:44pm;08:44:32;
mjj.koster@avans.nl;mjj.koster@avans.nl ;;Biobased Building (Mar2019);Teacher;Apr 19, 2019 at 12:59am;01:31:42;
;;;;;;;
Shabir A Moghal ;Shabir A Moghal ;;Biobased Building (Mar2019);Student;Aug 8 at 12:54am;11:20:01;
Mona;Mona ;;Biobased Building (Mar2019);Student;;;
Comfort Alexander Mosha;Comfort Alexander Mosha ;;Biobased Building (Mar2019);Student;Apr 24, 2019 at 3:52am;27:25:00;
Evelyn Mosha;Evelyn Mosha ;;Biobased Building (Mar2019);Student;;;
Eduardo Aguiar Gomes de Moura;Eduardo Aguiar Gomes de Moura ;;Biobased Building (Mar2019);Student;Apr 1, 2019 at 11:46am;05:43:09;
Poliana Barbosa Lima Moura;Poliana Barbosa Lima Moura ;;Biobased Building (Mar2019);Student;;;
mp.winkelmolen@avans.nl;mp.winkelmolen@avans.nl ;;Biobased Building (Mar2019);Teacher;Jun 8 at 4:35am;08:33:30;
;;;;;;;
Karl R. Mulder;Karl R. Mulder ;;Biobased Building (Mar2019);Student;Apr 24, 2019 at 7:01am;03:19:26;
Vinesh G Nath;Vinesh G Nath ;;Biobased Building (Mar2019);Student;Mar 28, 2019 at 12:53am;05:04;
Yasmin Akhlagh nejat;Yasmin Akhlagh nejat ;;Biobased Building (Mar2019);Student;;;
Raymon Nesen;Raymon Nesen ;;Biobased Building (Mar2019);Student;Aug 13, 2019 at 2:45am;05:29:55;
Thanh Ngoc Nguyen;Thanh Ngoc Nguyen ;;Biobased Building (Mar2019);Student;;;
Ruben van den Nieuwenhuizen;Ruben van den Nieuwenhuizen ;;Biobased Building (Mar2019);Student;Jun 6, 2019 at 6:38pm;44:51:00;
Narda Miranda Nieves;Narda Miranda Nieves ;;Biobased Building (Mar2019);Student;;;
Ernst de Nobel;Ernst de Nobel ;;Biobased Building (Mar2019);Student;;;
Ernst de Nobel;Ernst de Nobel ;;Biobased Building (Mar2019);Student;Apr 17, 2019 at 2:36am;02:30:51;
Jean Ntampaka;Jean Ntampaka ;;Biobased Building (Mar2019);Student;May 1, 2019 at 6:18am;;
Olaf Olden;Olaf Olden ;;Biobased Building (Mar2019);Student;;;
Adrian Jean Oldenburg;Adrian Jean Oldenburg ;;Biobased Building (Mar2019);Student;Mar 18, 2019 at 7:22am;;
ALEXANDRE FERNANDES DE OLIVEIRA;ALEXANDRE FERNANDES DE OLIVEIRA ;;Biobased Building (Mar2019);Student;Sep 3, 2019 at 5:39pm;05:17:57;
Wouter van Olphen;Wouter van Olphen ;;Biobased Building (Mar2019);Student;Mar 27, 2019 at 4:59am;16:55;
FARSSI OMAR;FARSSI OMAR ;;Biobased Building (Mar2019);Student;Mar 27, 2019 at 5:11am;;
Nathan van Oosten;Nathan van Oosten ;;Biobased Building (Mar2019);Student;Oct 28, 2019 at 12:45pm;25:40:00;
Amber Osseweijer;Amber Osseweijer ;;Biobased Building (Mar2019);Student;Sep 20, 2019 at 1:33am;05:01:08;
Greet Overbeek;Greet Overbeek ;;Biobased Building (Mar2019);Student;Apr 4, 2019 at 2:21am;02:06:47;
NURAY ÖZMEN;NURAY ÖZMEN ;;Biobased Building (Mar2019);Student;;;
Joanalle Pacatang-Pama;Joanalle Pacatang-Pama ;;Biobased Building (Mar2019);Student;Apr 11, 2019 at 4:47pm;;
Noud Paes;Noud Paes ;;Biobased Building (Mar2019);Student;;;
Mark Leo Huit Paga;Mark Leo Huit Paga ;;Biobased Building (Mar2019);Student;Mar 4, 2019 at 8:39pm;;
Nelmar D. Palalon;Nelmar D. Palalon ;;Biobased Building (Mar2019);Student;;;
Cristopher Bombane Parmis;Cristopher Bombane Parmis ;;Biobased Building (Mar2019);Student;Sep 3, 2019 at 5:48am;01:13:48;
Raju Patil;Raju Patil ;;Biobased Building (Mar2019);Student;Jul 18, 2019 at 5:39am;24:27:44;
Nick Pels;Nick Pels ;;Biobased Building (Mar2019);Student;Apr 18, 2019 at 3:57am;38:32:00;
michele pergolesi;michele pergolesi ;;Biobased Building (Mar2019);Student;;;
Anna Perreira;Anna Perreira ;;Biobased Building (Mar2019);Student;Apr 7, 2019 at 1:45pm;03:46:23;
Rahmat Peypers;Rahmat Peypers ;;Biobased Building (Mar2019);Student;May 25, 2019 at 12:38am;02:00:32;
Michel Pipping;Michel Pipping ;;Biobased Building (Mar2019);Student;May 8, 2019 at 8:24am;04:08:27;
Natalie Prinsen;Natalie Prinsen ;;Biobased Building (Mar2019);Student;;;
marije remigius;marije remigius ;;Biobased Building (Mar2019);Student;Sep 1, 2019 at 10:43am;15:39;
Tim Remmers;Tim Remmers ;;Biobased Building (Mar2019);Student;;;
Myra Reus;Myra Reus ;;Biobased Building (Mar2019);Student;Apr 17, 2019 at 2:45pm;19:38:07;
Emiel Rietvelt;Emiel Rietvelt ;;Biobased Building (Mar2019);Student;;;
Niels de Rijke;Niels de Rijke ;;Biobased Building (Mar2019);Student;Feb 17 at 8:09am;03:01:50;
loes van rijnsbergen;loes van rijnsbergen ;;Biobased Building (Mar2019);Student;;;
Georgia Roach;Georgia Roach ;;Biobased Building (Mar2019);Student;;;
Daniel Ernesto Romero Rodríguez;Daniel Ernesto Romero Rodríguez ;;Biobased Building (Mar2019);Student;;;
Reshma S;Reshma S ;;Biobased Building (Mar2019);Student;Mar 25, 2019 at 10:11am;01:11:51;
RYAN BEN SABILALA;RYAN BEN SABILALA ;;Biobased Building (Mar2019);Student;Mar 26, 2019 at 5pm;04:08:49;
Rashidul Sadi;Rashidul Sadi ;;Biobased Building (Mar2019);Student;Feb 9 at 11:36pm;07:15;
Fatima Saif;Fatima Saif ;;Biobased Building (Mar2019);Student;Mar 11, 2019 at 4:16am;;
Stijn Sannen;Stijn Sannen ;;Biobased Building (Mar2019);Student;May 7, 2019 at 12:08am;15:42;
Uriel Santiago;Uriel Santiago ;;Biobased Building (Mar2019);Student;Mar 30, 2019 at 10:08am;;
Sarasadat;Sarasadat ;;Biobased Building (Mar2019);Student;;;
jaclyn saylor;jaclyn saylor ;;Biobased Building (Mar2019);Student;;;
Lars Schiettekatte;Lars Schiettekatte ;;Biobased Building (Mar2019);Student;Apr 18, 2019 at 3:54am;05:57;
Brigitte J.A.G. Schrijvers;Brigitte J.A.G. Schrijvers ;;Biobased Building (Mar2019);Student;May 28, 2019 at 7:56am;02:00;
Tuna Sensu;Tuna Sensu ;;Biobased Building (Mar2019);Student;Apr 1, 2019 at 12:49pm;03:50:53;
Amer Sayed Shaat;Amer Sayed Shaat ;;Biobased Building (Mar2019);Student;;;
Gopal Krishna Sharma;Gopal Krishna Sharma ;;Biobased Building (Mar2019);Student;Aug 8, 2019 at 12:29am;06:01;
Mahendra Kumar Shrestha;Mahendra Kumar Shrestha ;;Biobased Building (Mar2019);Student;Mar 27, 2019 at 7:29pm;18:57;
Hanne Simonse;Hanne Simonse ;;Biobased Building (Mar2019);Student;Jul 1, 2019 at 1:10pm;02:00:05;
serge van sluijs;serge van sluijs ;;Biobased Building (Mar2019);Student;Mar 25, 2019 at 6:04am;;
Marlies Sobczak;Marlies Sobczak ;;Biobased Building (Mar2019);Student;;;
Triinu Sõber;Triinu Sõber ;;Biobased Building (Mar2019);Student;Mar 24, 2019 at 6:59pm;;
Eric Soer;Eric Soer ;;Biobased Building (Mar2019);Student;;;
Michael Sommerfeld;Michael Sommerfeld ;;Biobased Building (Mar2019);Student;Mar 30, 2019 at 2:27pm;02:14:24;
Sop;Sop ;;Biobased Building (Mar2019);Student;May 31, 2019 at 3:42am;54:07:00;
jaya sravani;jaya sravani ;;Biobased Building (Mar2019);Student;Mar 10, 2019 at 11:51pm;04:09;
Harmen Stap;Harmen Stap ;;Biobased Building (Mar2019);Student;;;
gie steenput;gie steenput ;;Biobased Building (Mar2019);Teacher;Apr 11, 2019 at 1:27am;14:46:48;
;;;;;;;
Svetoslav Stoykov;Svetoslav Stoykov ;;Biobased Building (Mar2019);Student;Mar 13, 2019 at 6:36am;;
Simone Sturm;Simone Sturm ;;Biobased Building (Mar2019);Student;Jul 1, 2019 at 1:15am;15:23:03;
Linda Supinski;Linda Supinski ;;Biobased Building (Mar2019);Student;;;
François Tabuteau;François Tabuteau ;;Biobased Building (Mar2019);Student;;;
Hedvig Takacs;Hedvig Takacs ;;Biobased Building (Mar2019);Student;Aug 9, 2019 at 6:03am;10:06;
jetske thielen;jetske thielen ;;Biobased Building (Mar2019);Student;Oct 30, 2019 at 5:02am;03:44:02;
Robbert Thomaes;Robbert Thomaes ;;Biobased Building (Mar2019);Student;Dec 4, 2019 at 8:56am;01:43:03;
Chan'nel thomas;Chan'nel thomas ;;Biobased Building (Mar2019);Student;Mar 30, 2019 at 10:06am;39:37:00;
Ran Tian;Ran Tian ;;Biobased Building (Mar2019);Student;;;
EDENTHOR J. TIEMPO;EDENTHOR J. TIEMPO ;;Biobased Building (Mar2019);Student;Mar 25, 2019 at 9:20pm;05:07;
Wanda Too;Wanda Too ;;Biobased Building (Mar2019);Student;;;
tsakhurets;tsakhurets ;;Biobased Building (Mar2019);Student;Apr 9, 2019 at 9:48am;;
Jia Xin Tung;Jia Xin Tung ;;Biobased Building (Mar2019);Student;Jun 10, 2019 at 10:43am;30:26:00;
Furkan Sinan Üğütmen;Furkan Sinan Üğütmen ;;Biobased Building (Mar2019);Student;Apr 16, 2019 at 6:25am;02:39:16;
umarani;umarani ;;Biobased Building (Mar2019);Student;;;
Efe Unal;Efe Unal ;;Biobased Building (Mar2019);Student;;;
Su Uyanık;Su Uyanık ;;Biobased Building (Mar2019);Student;Apr 1, 2019 at 3:48pm;01:58:43;
Koen de Vaan;Koen de Vaan ;;Biobased Building (Mar2019);Student;;;
Corné bij de Vaate;Corné bij de Vaate ;;Biobased Building (Mar2019);Student;Jun 29 at 9:21am;14:34:50;
Ann Vanner;Ann Vanner ;;Biobased Building (Mar2019);Student;Mar 31, 2019 at 1:39am;;
Iris Vantricht;Iris Vantricht ;;Biobased Building (Mar2019);Student;Feb 18 at 1:13am;15:37:18;
Anne van Veggel;Anne van Veggel ;;Biobased Building (Mar2019);Student;May 21, 2019 at 2am;05:31;
Sanne Verbist;Sanne Verbist ;;Biobased Building (Mar2019);Student;Apr 9, 2019 at 11:29am;04:02:19;
Geertje Verschuren;Geertje Verschuren ;;Biobased Building (Mar2019);Student;;;
Sissy Verspeek;Sissy Verspeek pending;;Biobased Building (Mar2019);Teacher;Apr 10, 2019 at 1:25am;;
;;;;;;;
Margot Verwei;Margot Verwei ;;Biobased Building (Mar2019);Teacher;Sep 9 at 6:57am;53:01:50;
;;;;;;;
Joost Vette;Joost Vette ;;Biobased Building (Mar2019);Student;Apr 25, 2019 at 2:21am;04:14;
Pawaskar Vinayak;Pawaskar Vinayak ;;Biobased Building (Mar2019);Student;Jun 18, 2019 at 9:27pm;43:40:00;
Jose Visser;Jose Visser ;;Biobased Building (Mar2019);Student;;;
Geoffrey Vonck;Geoffrey Vonck ;;Biobased Building (Mar2019);Student;May 14, 2019 at 12:57am;01:55:26;
Stefan Vonk;Stefan Vonk ;;Biobased Building (Mar2019);Student;Nov 28, 2019 at 6:36am;01:50:04;
Lars Voskamp;Lars Voskamp ;;Biobased Building (Mar2019);Student;May 27, 2019 at 2:44am;20:55;
Dominique vosmaer;Dominique vosmaer ;;Biobased Building (Mar2019);Student;;;
Frank van de Vreede;Frank van de Vreede ;;Biobased Building (Mar2019);Student;May 17, 2019 at 2:52am;18:27:24;
Esther de Vries;Esther de Vries ;;Biobased Building (Mar2019);Student;Jun 7, 2019 at 10:32am;04:49:42;
Jonno van Vulpen;Jonno van Vulpen ;;Biobased Building (Mar2019);Student;Apr 15, 2019 at 8:41am;01:52:26;
gerwin walpot;gerwin walpot ;;Biobased Building (Mar2019);Student;Feb 13 at 4:04am;03:38;
Thairu Wambutu;Thairu Wambutu ;;Biobased Building (Mar2019);Student;;;
Emmy Westerweel;Emmy Westerweel ;;Biobased Building (Mar2019);Student;Jun 24, 2019 at 9:02am;08:08:47;
Kim Wijnings;Kim Wijnings ;;Biobased Building (Mar2019);Student;Apr 16, 2019 at 5:24am;04:44:17;
Lindie Wither-Weston;Lindie Wither-Weston ;;Biobased Building (Mar2019);Student;Mar 28, 2019 at 11:32pm;02:05;
Julia Woznicki;Julia Woznicki ;;Biobased Building (Mar2019);Student;Mar 14, 2019 at 7:37pm;;
Emirul Adzhar Yahya;Emirul Adzhar Yahya ;;Biobased Building (Mar2019);Student;;;
Afshan Yousaf;Afshan Yousaf ;;Biobased Building (Mar2019);Student;Mar 25, 2019 at 8:32am;32:58:00;
zedki;zedki ;;Biobased Building (Mar2019);Student;;;
Heidi Zeuner;Heidi Zeuner ;;Biobased Building (Mar2019);Student;;;
