﻿Profile Picture;Name;SIS ID;Section;Role;Last Activity;Total Activity;Administrative Links
A;A ;;Biobased Business Development (Sep2018);Student;May 2 at 9:48pm;08:29:53;
Ravisankar A;Ravisankar A ;;Biobased Business Development (Sep2018);Student;;;
WAJEEH ABBAS;WAJEEH ABBAS ;;Biobased Business Development (Sep2018);Student;Apr 20, 2019 at 9am;09:33:19;
Tarek M. Abdel-Hamid;Tarek M. Abdel-Hamid ;;Biobased Business Development (Sep2018);Student;;;
Abdirahman Adan Abdullahi;Abdirahman Adan Abdullahi ;;Biobased Business Development (Sep2018);Student;Dec 18, 2018 at 6:21am;46:43:00;
Abubakar shehu abubakar;Abubakar shehu abubakar ;;Biobased Business Development (Sep2018);Student;Oct 8, 2018 at 3:17pm;02:34:03;
Ahmad Bahjat AbuHatab;Ahmad Bahjat AbuHatab ;;Biobased Business Development (Sep2018);Student;;;
Richmond Addai;Richmond Addai ;;Biobased Business Development (Sep2018);Student;;;
Kostas Agoris;Kostas Agoris ;;Biobased Business Development (Sep2018);Student;Nov 28, 2018 at 11:41am;07:14;
Ansha ahmed ;Ansha ahmed ;;Biobased Business Development (Sep2018);Student;;;
Omar Kasem Ajouj;Omar Kasem Ajouj ;;Biobased Business Development (Sep2018);Student;Sep 28, 2018 at 6:42am;;
Serdar Aksu;Serdar Aksu ;;Biobased Business Development (Sep2018);Student;Jul 1, 2019 at 9:04am;53:37:00;
Md. Shamim Aktar;Md. Shamim Aktar ;;Biobased Business Development (Sep2018);Student;;;
Khalil Mohamned AL-Romani ;Khalil Mohamned AL-Romani ;;Biobased Business Development (Sep2018);Student;Sep 26, 2019 at 11:29am;01:58:35;
Shabib Abdulqader Al-Shaibani ;Shabib Abdulqader Al-Shaibani ;;Biobased Business Development (Sep2018);Student;Sep 21, 2018 at 11:49am;02:11;
KAREN ALARCON;KAREN ALARCON ;;Biobased Business Development (Sep2018);Student;Oct 23, 2018 at 6:33am;40:24:00;
Richard Baca Alegria;Richard Baca Alegria ;;Biobased Business Development (Sep2018);Student;;;
Alfons;Alfons ;;Biobased Business Development (Sep2018);Student;Nov 3, 2018 at 4:54am;11:40;
Giovanna Carolina Allegra;Giovanna Carolina Allegra ;;Biobased Business Development (Sep2018);Student;Oct 10, 2018 at 2:38pm;50:27:00;
Faisal Alsalem;Faisal Alsalem ;;Biobased Business Development (Sep2018);Student;Aug 17, 2018 at 1:35am;;
Mohammed Alsmael;Mohammed Alsmael ;;Biobased Business Development (Sep2018);Student;;;
Bara Amar;Bara Amar ;;Biobased Business Development (Sep2018);Student;;;
Desiree America;Desiree America ;;Biobased Business Development (Sep2018);Student;Sep 19, 2018 at 10:18am;;
Dina Amiri;Dina Amiri ;;Biobased Business Development (Sep2018);Student;Nov 8, 2018 at 4:27am;11:51:11;
DR LAWAL MOHAMMAD ANKA;DR LAWAL MOHAMMAD ANKA ;;Biobased Business Development (Sep2018);Student;Jul 10, 2019 at 4:53am;04:03:45;
Anouk;Anouk ;;Biobased Business Development (Sep2018);Student;Oct 13, 2018 at 5:34am;24:23:00;
Louise Ian de los Reyes Aquino;Louise Ian de los Reyes Aquino ;;Biobased Business Development (Sep2018);Student;;;
Ali Arabloo;Ali Arabloo ;;Biobased Business Development (Sep2018);Student;;;
AHMAD MAHER ASFOUR ;AHMAD MAHER ASFOUR ;;Biobased Business Development (Sep2018);Student;;;
Loren Ashley;Loren Ashley ;;Biobased Business Development (Sep2018);Student;Nov 16, 2018 at 1:04pm;02:06;
Ester Assunção ;Ester Assunção ;;Biobased Business Development (Sep2018);Student;;;
Ayan;Ayan ;;Biobased Business Development (Sep2018);Student;;;
Ahmad Azreen Azizan;Ahmad Azreen Azizan ;;Biobased Business Development (Sep2018);Student;Sep 23, 2018 at 6:39am;01:33:13;
Florian B;Florian B ;;Biobased Business Development (Sep2018);Student;Jul 18, 2019 at 6:44am;;
Ulviyya Bahramova;Ulviyya Bahramova ;;Biobased Business Development (Sep2018);Student;Aug 1, 2019 at 12:25pm;59:11:00;
Monique Bakker;Monique Bakker ;;Biobased Business Development (Sep2018);Teacher;Feb 27, 2019 at 12:56am;86:36:13;
;;;;;;;
Clem P. Balasoto;Clem P. Balasoto ;;Biobased Business Development (Sep2018);Student;Feb 19, 2019 at 3:59am;01:29:02;
xhensila balla ;xhensila balla ;;Biobased Business Development (Sep2018);Student;Oct 24, 2018 at 9:04am;11:11;
Dario Bamonti;Dario Bamonti ;;Biobased Business Development (Sep2018);Student;Nov 21, 2018 at 3:55pm;;
brent baptiste;brent baptiste ;;Biobased Business Development (Sep2018);Student;;;
Laura Victoria Sanchez Barrero;Laura Victoria Sanchez Barrero ;;Biobased Business Development (Sep2018);Student;Dec 2, 2018 at 4:08pm;20:11;
Jeremiah Barrett;Jeremiah Barrett ;;Biobased Business Development (Sep2018);Student;Dec 27, 2018 at 8:46am;21:47:49;
Mario Javier Romero Barrios;Mario Javier Romero Barrios ;;Biobased Business Development (Sep2018);Student;;;
Michael Bassey;Michael Bassey ;;Biobased Business Development (Sep2018);Student;Feb 1, 2019 at 8:32am;22:56;
Khaoula bbalgouthi;Khaoula bbalgouthi ;;Biobased Business Development (Sep2018);Student;Nov 16, 2018 at 1:45am;36:00:00;
Ramzi Bergman;Ramzi Bergman ;;Biobased Business Development (Sep2018);Student;;;
Kongolo Bertho;Kongolo Bertho ;;Biobased Business Development (Sep2018);Student;May 29, 2019 at 9:06am;40:39:00;
Jappe de Best;Jappe de Best ;;Biobased Business Development (Sep2018);Student;Feb 2, 2019 at 3:13am;14:13:01;
Sagar bhaisare;Sagar bhaisare ;;Biobased Business Development (Sep2018);Student;Dec 6, 2018 at 5:12am;28:55:00;
Aakanksh Bhatiaa;Aakanksh Bhatiaa ;;Biobased Business Development (Sep2018);Student;Feb 2, 2019 at 2:54am;29:36:00;
Debarati Bhattacharya;Debarati Bhattacharya ;;Biobased Business Development (Sep2018);Student;Mar 10, 2019 at 10:19am;;
Mayukh Bhattacharya;Mayukh Bhattacharya ;;Biobased Business Development (Sep2018);Student;Dec 8, 2018 at 11:52am;;
SUMON BHATTACHARYYA;SUMON BHATTACHARYYA ;;Biobased Business Development (Sep2018);Student;Jan 31 at 8:48am;01:42:25;
HEMANTA BHUYAN;HEMANTA BHUYAN ;;Biobased Business Development (Sep2018);Student;Sep 19, 2018 at 10:08pm;26:51:00;
Berkay Bilsel;Berkay Bilsel ;;Biobased Business Development (Sep2018);Student;Apr 6, 2019 at 11:21am;01:44:19;
Sebastiaan de Block;Sebastiaan de Block ;;Biobased Business Development (Sep2018);Student;Aug 20, 2019 at 9:39am;01:27:44;
Leon Blom;Leon Blom ;;Biobased Business Development (Sep2018);Student;Feb 5, 2019 at 2:07pm;33:21:00;
nathan bolefa;nathan bolefa ;;Biobased Business Development (Sep2018);Student;;;
Rick Bonants;Rick Bonants ;;Biobased Business Development (Sep2018);Student;Nov 15, 2018 at 1:38pm;16:46:12;
Elena Tomas Bort;Elena Tomas Bort ;;Biobased Business Development (Sep2018);Student;;;
Sjoerd Bos;Sjoerd Bos ;;Biobased Business Development (Sep2018);Student;Oct 12, 2018 at 2:58am;08:11:19;
Jack Bostel;Jack Bostel ;;Biobased Business Development (Sep2018);Student;Jan 14, 2019 at 5:37am;07:30;
Robin Bouman;Robin Bouman ;;Biobased Business Development (Sep2018);Student;Jun 20, 2019 at 2:39am;23:34;
Faviol Bozgo;Faviol Bozgo ;;Biobased Business Development (Sep2018);Student;Aug 27, 2018 at 2:33am;;
Anne-Kathrin Brand;Anne-Kathrin Brand ;;Biobased Business Development (Sep2018);Student;Feb 18, 2019 at 7:44am;01:05:32;
Gustavo Henrique da Silva Brito;Gustavo Henrique da Silva Brito ;;Biobased Business Development (Sep2018);Student;;;
Brian Broeders;Brian Broeders ;;Biobased Business Development (Sep2018);Student;Feb 3, 2019 at 4:56am;06:59;
Lambertus van den Broek;Lambertus van den Broek ;;Biobased Business Development (Sep2018);Student;Sep 23, 2018 at 2:20am;41:55:00;
Gideon Broodryk;Gideon Broodryk ;;Biobased Business Development (Sep2018);Student;;;
Mitja Bukovec;Mitja Bukovec ;;Biobased Business Development (Sep2018);Student;Sep 13, 2019 at 10:20am;02:31;
Chethan I c;Chethan I c ;;Biobased Business Development (Sep2018);Student;Aug 25, 2018 at 7:55pm;;
Judith Cano-Ruiz;Judith Cano-Ruiz ;;Biobased Business Development (Sep2018);Student;Feb 5, 2019 at 1:57am;03:52:50;
Juan Pablo Gaviria Cardona;Juan Pablo Gaviria Cardona ;;Biobased Business Development (Sep2018);Student;Sep 17, 2019 at 2:44am;;
Juan Pablo Villegas Cardona;Juan Pablo Villegas Cardona ;;Biobased Business Development (Sep2018);Student;Nov 28, 2018 at 5:46pm;25:47:00;
MARCO CARTA;MARCO CARTA ;;Biobased Business Development (Sep2018);Student;Aug 14, 2019 at 2:47am;;
Ezer Ricardo Gomez Saraiva de Carvalho;Ezer Ricardo Gomez Saraiva de Carvalho ;;Biobased Business Development (Sep2018);Student;;;
Ana Patricia Guillén Castelló;Ana Patricia Guillén Castelló ;;Biobased Business Development (Sep2018);Student;Feb 20 at 11:37am;04:42:37;
Lewis cattell;Lewis cattell ;;Biobased Business Development (Sep2018);Student;Jan 12 at 6:45am;48:51:00;
Loreto Lorente Cerdá;Loreto Lorente Cerdá ;;Biobased Business Development (Sep2018);Student;Jan 15, 2019 at 9:23am;05:01:12;
Loreto Lorente Cerdá;Loreto Lorente Cerdá ;;Biobased Business Development (Sep2018);Student;Nov 16, 2018 at 6:41am;34:07:00;
DANILO D CESTARO;DANILO D CESTARO ;;Biobased Business Development (Sep2018);Student;;;
Bruno Gabriel Calle Chapa;Bruno Gabriel Calle Chapa ;;Biobased Business Development (Sep2018);Student;;;
Amrit Chaulagain;Amrit Chaulagain ;;Biobased Business Development (Sep2018);Student;Oct 10, 2018 at 2:30am;11:47;
Laure Chemin;Laure Chemin ;;Biobased Business Development (Sep2018);Student;;;
Alex Chiodo;Alex Chiodo ;;Biobased Business Development (Sep2018);Student;Jan 17, 2019 at 3:26am;18:21:21;
Alex Chiodo;Alex Chiodo ;;Biobased Business Development (Sep2018);Student;;;
Audrey Chitama;Audrey Chitama ;;Biobased Business Development (Sep2018);Student;Oct 31, 2018 at 4:15am;01:11:39;
Erica J. Cintron;Erica J. Cintron ;;Biobased Business Development (Sep2018);Student;;;
Georgiana Clark ;Georgiana Clark ;;Biobased Business Development (Sep2018);Student;Sep 8, 2019 at 7:29pm;07:16:54;
Olga Constanza;Olga Constanza ;;Biobased Business Development (Sep2018);Student;;;
Olga Constanza;Olga Constanza ;;Biobased Business Development (Sep2018);Student;Aug 29, 2018 at 9:05am;;
Iulia Covaliova;Iulia Covaliova ;;Biobased Business Development (Sep2018);Student;May 25, 2019 at 4:36am;03:55:39;
Maricel Cuerdo;Maricel Cuerdo ;;Biobased Business Development (Sep2018);Student;;;
Gustavo Romero Cueto;Gustavo Romero Cueto ;;Biobased Business Development (Sep2018);Student;;;
leon cutipa;leon cutipa ;;Biobased Business Development (Sep2018);Student;;;
Asiah Daniel;Asiah Daniel ;;Biobased Business Development (Sep2018);Student;Dec 5, 2018 at 5:13am;01:17:57;
Dare;Dare ;;Biobased Business Development (Sep2018);Student;Nov 29, 2018 at 8:02pm;26:57:00;
deev datta;deev datta ;;Biobased Business Development (Sep2018);Student;;;
Donielle Davis;Donielle Davis ;;Biobased Business Development (Sep2018);Student;May 5, 2019 at 10:46am;01:04:13;
OKOTH DAVIS;OKOTH DAVIS ;;Biobased Business Development (Sep2018);Student;May 28, 2019 at 7:27am;01:17:00;
Elmira Davtyan;Elmira Davtyan ;;Biobased Business Development (Sep2018);Student;Oct 3, 2018 at 12:50pm;;
Hans Dekker;Hans Dekker ;;Biobased Business Development (Sep2018);Student;Oct 5, 2018 at 8:12am;06:26:15;
;;;Biobased Business Development (Sep2018);Teacher;Oct 5, 2018 at 8:12am;;
;;;;;;;
Janneke den Dekker;Janneke den Dekker ;;Biobased Business Development (Sep2018);Student;Jan 13, 2019 at 1:21pm;32:00:28;
Debora Dermadi;Debora Dermadi ;;Biobased Business Development (Sep2018);Student;Jan 15, 2019 at 4:26am;16:58:06;
Shashank Ashok Deshmukh;Shashank Ashok Deshmukh ;;Biobased Business Development (Sep2018);Student;Dec 7, 2018 at 4:25am;01:35:09;
Praditta Syifa Desvi;Praditta Syifa Desvi ;;Biobased Business Development (Sep2018);Student;Oct 3, 2018 at 10:19am;02:33:12;
Princess Moijama Jannet Dixon;Princess Moijama Jannet Dixon ;;Biobased Business Development (Sep2018);Student;Oct 10, 2018 at 4:09am;01:23:47;
Esiel Mae Domingo;Esiel Mae Domingo ;;Biobased Business Development (Sep2018);Student;Nov 4, 2018 at 3:33am;04:41;
Ingolf van Doorn;Ingolf van Doorn ;;Biobased Business Development (Sep2018);Student;;;
Jepkirui Dorcas;Jepkirui Dorcas ;;Biobased Business Development (Sep2018);Student;Feb 22, 2019 at 11:17am;02:27:02;
Dr.A.Ravisankar;Dr.A.Ravisankar ;;Biobased Business Development (Sep2018);Student;Dec 5, 2018 at 9:55pm;13:27;
Douwe Duijn;Douwe Duijn ;;Biobased Business Development (Sep2018);Student;Jan 14, 2019 at 7:06am;08:00:55;
Claudio Dunan;Claudio Dunan ;;Biobased Business Development (Sep2018);Student;;;
Dzikrillah;Dzikrillah ;;Biobased Business Development (Sep2018);Student;Mar 30, 2019 at 1:03pm;;
Lidia Llusar Edo;Lidia Llusar Edo ;;Biobased Business Development (Sep2018);Student;Jan 15, 2019 at 4:24am;19:50:08;
Ruziev Eldor;Ruziev Eldor ;;Biobased Business Development (Sep2018);Student;Apr 9, 2019 at 4:03pm;;
Tihomir Elijas;Tihomir Elijas ;;Biobased Business Development (Sep2018);Student;;;
Djekidel Ibrahim Elkhalil;Djekidel Ibrahim Elkhalil ;;Biobased Business Development (Sep2018);Student;Jun 29, 2019 at 8:36am;57:36:00;
Walid Mohamed Elsherbiny;Walid Mohamed Elsherbiny ;;Biobased Business Development (Sep2018);Student;Nov 3, 2018 at 8:37am;05:31:52;
Evelyn Emmanuel;Evelyn Emmanuel ;;Biobased Business Development (Sep2018);Student;;;
Cansin Erck;Cansin Erck ;;Biobased Business Development (Sep2018);Student;;;
Marko Ervacanin;Marko Ervacanin ;;Biobased Business Development (Sep2018);Student;;;
Laura Carolina Martínez Esmeral;Laura Carolina Martínez Esmeral ;;Biobased Business Development (Sep2018);Student;Mar 8, 2019 at 10:17am;;
Fernando Landa Fabián;Fernando Landa Fabián ;;Biobased Business Development (Sep2018);Student;Jan 3, 2019 at 11:05am;07:21:54;
Urouj faheem;Urouj faheem ;;Biobased Business Development (Sep2018);Student;Sep 28, 2019 at 1:54pm;06:46;
Carlos Farfan;Carlos Farfan ;;Biobased Business Development (Sep2018);Student;Oct 22, 2018 at 9:08pm;03:26:20;
L. Raphael Feinäugle;L. Raphael Feinäugle ;;Biobased Business Development (Sep2018);Student;;;
Sonsoles Benavent Férez;Sonsoles Benavent Férez ;;Biobased Business Development (Sep2018);Student;Jan 3, 2019 at 1:36pm;17:11:58;
Kei Fujita;Kei Fujita ;;Biobased Business Development (Sep2018);Student;Dec 3, 2018 at 3:09am;;
Ronit Gaikwad;Ronit Gaikwad ;;Biobased Business Development (Sep2018);Student;Feb 13, 2019 at 6:21am;49:14:00;
Jean-Marc Gandonou;Jean-Marc Gandonou ;;Biobased Business Development (Sep2018);Student;Oct 12, 2018 at 4:29pm;01:47:52;
Nina Ganelin;Nina Ganelin ;;Biobased Business Development (Sep2018);Student;Nov 15, 2018 at 6:10pm;17:36;
Michał Garbowski;Michał Garbowski ;;Biobased Business Development (Sep2018);Student;Dec 17, 2018 at 4:11pm;02:03;
Carlos Espiritu Garcia;Carlos Espiritu Garcia ;;Biobased Business Development (Sep2018);Student;Dec 2, 2019 at 10am;17:49:56;
Lucia Garcia;Lucia Garcia ;;Biobased Business Development (Sep2018);Student;Jan 6, 2019 at 5:58am;06:36:51;
Paula Barberá García;Paula Barberá García ;;Biobased Business Development (Sep2018);Student;Jan 3, 2019 at 8:27am;09:41:08;
Jugnu Gaur;Jugnu Gaur ;;Biobased Business Development (Sep2018);Student;Oct 25, 2018 at 11am;09:26;
Ionela Gavrila;Ionela Gavrila ;;Biobased Business Development (Sep2018);Student;Sep 29, 2018 at 12:46am;;
Jared Gee;Jared Gee ;;Biobased Business Development (Sep2018);Student;Oct 10, 2018 at 11:04am;01:03:23;
Nicolas Geleijns;Nicolas Geleijns ;;Biobased Business Development (Sep2018);Student;Dec 4, 2019 at 2:59am;29:29:00;
Esteban Felipe Cáceres Gelvez;Esteban Felipe Cáceres Gelvez ;;Biobased Business Development (Sep2018);Student;Oct 15, 2018 at 1:46pm;17:35;
Mridun George;Mridun George ;;Biobased Business Development (Sep2018);Student;Mar 20, 2019 at 3:41am;26:41:00;
Ries van Gestel;Ries van Gestel ;;Biobased Business Development (Sep2018);Student;Feb 18, 2019 at 3:25am;04:39:32;
Elham Ghaderi;Elham Ghaderi ;;Biobased Business Development (Sep2018);Student;;;
Hawa Giga;Hawa Giga ;;Biobased Business Development (Sep2018);Student;;;
Ferran Todoli Gil;Ferran Todoli Gil ;;Biobased Business Development (Sep2018);Student;Sep 16, 2019 at 2:17am;;
Ferran Todoli Gil;Ferran Todoli Gil ;;Biobased Business Development (Sep2018);Student;Oct 9, 2019 at 5:40am;05:01;
Marissa Giovina;Marissa Giovina ;;Biobased Business Development (Sep2018);Student;Oct 16, 2018 at 3:14pm;;
Giona Giusepponi;Giona Giusepponi ;;Biobased Business Development (Sep2018);Student;Jun 13, 2019 at 4:33am;04:11:57;
m gokulkesav;m gokulkesav ;;Biobased Business Development (Sep2018);Student;Mar 17, 2019 at 3:09am;02:00;
Ramses Enrique Flores Gómez;Ramses Enrique Flores Gómez ;;Biobased Business Development (Sep2018);Student;Jan 14, 2019 at 9:34am;25:45:57;
Thamires Lopes Gomides;Thamires Lopes Gomides ;;Biobased Business Development (Sep2018);Student;Mar 12, 2019 at 7:12pm;01:05:14;
Lucia Gonzalez;Lucia Gonzalez ;;Biobased Business Development (Sep2018);Student;;;
Kelvin van de Laak Guarayote;Kelvin van de Laak Guarayote ;;Biobased Business Development (Sep2018);Student;Jan 30, 2019 at 1:10pm;04:06:46;
Fernando Guevara ;Fernando Guevara ;;Biobased Business Development (Sep2018);Student;;;
Payam Haerifar;Payam Haerifar ;;Biobased Business Development (Sep2018);Student;;;
Rasmi Hajjar;Rasmi Hajjar ;;Biobased Business Development (Sep2018);Student;Apr 17, 2019 at 6:39am;;
Abbas Salari Hamzehkhani;Abbas Salari Hamzehkhani ;;Biobased Business Development (Sep2018);Student;Aug 2, 2019 at 10:35pm;30:41:00;
marwa hazim;marwa hazim ;;Biobased Business Development (Sep2018);Student;Nov 19, 2018 at 6:22am;03:35:21;
Sonia Hazzemi;Sonia Hazzemi ;;Biobased Business Development (Sep2018);Student;Apr 14, 2019 at 4:43am;04:43;
Melissa He;Melissa He ;;Biobased Business Development (Sep2018);Student;Jan 14 at 6:59pm;03:40;
Hello Hello;Hello Hello ;;Biobased Business Development (Sep2018);Student;Sep 23, 2018 at 1:47am;;
Victor Henneton;Victor Henneton ;;Biobased Business Development (Sep2018);Student;Jan 15, 2019 at 3:04am;04:17:46;
Nedwin Lembar Hermavian;Nedwin Lembar Hermavian ;;Biobased Business Development (Sep2018);Student;Nov 28, 2018 at 12:48am;01:17:04;
Carmen Durán Hernández;Carmen Durán Hernández ;;Biobased Business Development (Sep2018);Student;Dec 27, 2019 at 6:10am;17:44:59;
Marielba Hernandez;Marielba Hernandez ;;Biobased Business Development (Sep2018);Student;Feb 18, 2019 at 4:02am;19:14;
Gerben van Herwijnen;Gerben van Herwijnen ;;Biobased Business Development (Sep2018);Student;Oct 31, 2018 at 2:49pm;07:22;
Astrid Heystee;Astrid Heystee ;;Biobased Business Development (Sep2018);Student;Feb 28, 2019 at 6:16am;04:07:00;
Víctor Fides Hilla;Víctor Fides Hilla ;;Biobased Business Development (Sep2018);Student;Oct 5, 2019 at 4:53am;01:10:52;
Synnøve Hjellvik;Synnøve Hjellvik ;;Biobased Business Development (Sep2018);Student;Jan 13, 2019 at 6:15am;07:52:45;
Nicole Hoekx;Nicole Hoekx ;;Biobased Business Development (Sep2018);Student;Sep 17, 2018 at 2:45am;01:09:36;
Luisa hofmann;Luisa hofmann ;;Biobased Business Development (Sep2018);Student;Jan 13, 2019 at 4:36am;10:27;
Cees Hogendoorn;Cees Hogendoorn ;;Biobased Business Development (Sep2018);Student;Nov 21, 2018 at 7:40am;01:25:51;
Md Rubel Hossain;Md Rubel Hossain ;;Biobased Business Development (Sep2018);Student;Feb 15, 2019 at 2:53am;02:26;
Chouaîb Houes;Chouaîb Houes ;;Biobased Business Development (Sep2018);Student;Dec 12, 2018 at 10pm;13:17:49;
Gabriela Claudia Aduviri Huaycho;Gabriela Claudia Aduviri Huaycho ;;Biobased Business Development (Sep2018);Student;Oct 24, 2019 at 12:51pm;03:23:03;
Hanna Huling;Hanna Huling ;;Biobased Business Development (Sep2018);Student;;;
ALRAFIE ABDALLA HUSSIEN;ALRAFIE ABDALLA HUSSIEN ;;Biobased Business Development (Sep2018);Student;Dec 12, 2018 at 12:56am;06:05;
pieter i;pieter i ;;Biobased Business Development (Sep2018);Student;Feb 7, 2019 at 12:01am;12:35;
Antonella Iamele;Antonella Iamele ;;Biobased Business Development (Sep2018);Student;Nov 23, 2018 at 6:36am;10:13;
Ali Ibrahim;Ali Ibrahim ;;Biobased Business Development (Sep2018);Student;;;
Omar Ibrahim;Omar Ibrahim ;;Biobased Business Development (Sep2018);Student;;;
Fapohunda Elizabeth Idowu;Fapohunda Elizabeth Idowu ;;Biobased Business Development (Sep2018);Student;;;
shakira inquieti;shakira inquieti ;;Biobased Business Development (Sep2018);Student;;;
Patrick Ippel;Patrick Ippel ;;Biobased Business Development (Sep2018);Student;Jun 17, 2019 at 12:59am;04:05:58;
Mohammad Baharul Islam;Mohammad Baharul Islam ;;Biobased Business Development (Sep2018);Student;Oct 17, 2018 at 11:11pm;;
GHAZALI ISMAIL;GHAZALI ISMAIL ;;Biobased Business Development (Sep2018);Student;;;
Liidia Ivanova;Liidia Ivanova ;;Biobased Business Development (Sep2018);Student;Dec 18, 2018 at 12:49pm;20:22:22;
shalaya jackson;shalaya jackson ;;Biobased Business Development (Sep2018);Student;Mar 6, 2019 at 4:55pm;46:30:00;
Tezso Jacob;Tezso Jacob ;;Biobased Business Development (Sep2018);Student;Dec 20, 2018 at 12:47pm;02:00;
javierpeiro;javierpeiro ;;Biobased Business Development (Sep2018);Student;Oct 21, 2019 at 8:11am;01:04:46;
Lukas Jaworski;Lukas Jaworski ;;Biobased Business Development (Sep2018);Student;Jan 4, 2019 at 2:28pm;26:48:01;
Jeisson;Jeisson ;;Biobased Business Development (Sep2018);Student;Feb 17, 2019 at 10:59am;01:44:01;
Heiko Jelitto;Heiko Jelitto ;;Biobased Business Development (Sep2018);Student;Jan 31, 2019 at 12:59pm;65:10:48;
Jessy;Jessy ;;Biobased Business Development (Sep2018);Student;Apr 26, 2019 at 1:11am;06:58:47;
Zachary Johnson-Dunlop;Zachary Johnson-Dunlop ;;Biobased Business Development (Sep2018);Student;;;
Dennis Johnson ;Dennis Johnson ;;Biobased Business Development (Sep2018);Student;;;
evan johnson;evan johnson ;;Biobased Business Development (Sep2018);Student;;;
Megan Johnson;Megan Johnson ;;Biobased Business Development (Sep2018);Student;;;
John Jones;John Jones ;;Biobased Business Development (Sep2018);Student;Dec 6, 2018 at 3:03am;13:55;
Lisa de Jong;Lisa de Jong ;;Biobased Business Development (Sep2018);Student;;;
Andreas K;Andreas K ;;Biobased Business Development (Sep2018);Student;Sep 17, 2018 at 3:53am;05:43;
Harita K;Harita K ;;Biobased Business Development (Sep2018);Student;;;
Mohammed ashiq k;Mohammed ashiq k ;;Biobased Business Development (Sep2018);Student;Nov 7, 2018 at 12:47am;05:55;
PRAJITH. K;PRAJITH. K ;;Biobased Business Development (Sep2018);Student;Dec 5, 2018 at 7:56am;33:32:00;
Yasemin Kabataşlı;Yasemin Kabataşlı ;;Biobased Business Development (Sep2018);Student;Feb 24, 2019 at 11:47am;;
George Kefa Kanani;George Kefa Kanani ;;Biobased Business Development (Sep2018);Student;Feb 7, 2019 at 10:22am;59:24:00;
mamudu kankasa;mamudu kankasa ;;Biobased Business Development (Sep2018);Student;Nov 13, 2018 at 2:02am;01:04:12;
Demir kaplan;Demir kaplan ;;Biobased Business Development (Sep2018);Student;Dec 1, 2018 at 2:06pm;;
Poonam Prashant Katyare;Poonam Prashant Katyare ;;Biobased Business Development (Sep2018);Student;Nov 28, 2018 at 10:46pm;02:00:48;
Nwosu-obieogu kenechi;Nwosu-obieogu kenechi ;;Biobased Business Development (Sep2018);Student;Mar 14, 2019 at 11:27pm;05:17:23;
Johan Keuehof ;Johan Keuehof ;;Biobased Business Development (Sep2018);Student;Nov 2, 2018 at 7:24am;;
Maulidia Khairani;Maulidia Khairani ;;Biobased Business Development (Sep2018);Student;Sep 11, 2018 at 4:43am;12:34;
Ahmad khalife;Ahmad khalife ;;Biobased Business Development (Sep2018);Student;Dec 17, 2018 at 12:41pm;17:23;
Sana khan;Sana khan ;;Biobased Business Development (Sep2018);Student;;;
Nduduzo Khoza;Nduduzo Khoza ;;Biobased Business Development (Sep2018);Student;Nov 8, 2018 at 4:50am;41:38:00;
Nosimilo Khumalo;Nosimilo Khumalo ;;Biobased Business Development (Sep2018);Student;Nov 11, 2018 at 2:34pm;;
Krisztian Oliver Kincses;Krisztian Oliver Kincses ;;Biobased Business Development (Sep2018);Student;Jan 9, 2019 at 4:04am;06:26:08;
Junya Kitazono;Junya Kitazono ;;Biobased Business Development (Sep2018);Student;;;
Peter Klagyivik;Peter Klagyivik ;;Biobased Business Development (Sep2018);Student;Nov 3, 2018 at 1:35am;;
rene kleijntjens;rene kleijntjens ;;Biobased Business Development (Sep2018);Student;Jun 21, 2019 at 7:43am;04:15;
;;;Biobased Business Development (Sep2018);Teacher;Jun 21, 2019 at 7:43am;;
;;;;;;;
Jamod knight ;Jamod knight ;;Biobased Business Development (Sep2018);Student;Nov 30, 2018 at 9:51am;37:19:00;
Jane Knowles;Jane Knowles ;;Biobased Business Development (Sep2018);Student;;;
Bertho Kongolo;Bertho Kongolo ;;Biobased Business Development (Sep2018);Student;Nov 5, 2018 at 6:56am;04:44:25;
Sophie Konijnenbelt;Sophie Konijnenbelt ;;Biobased Business Development (Sep2018);Student;Jan 23, 2019 at 10:11am;01:34:23;
Cas Koopmans;Cas Koopmans ;;Biobased Business Development (Sep2018);Student;Sep 16, 2019 at 11:50am;;
sander kooremans;sander kooremans ;;Biobased Business Development (Sep2018);Student;Sep 16, 2019 at 2:14am;;
Esen Kendir Köroğlu;Esen Kendir Köroğlu ;;Biobased Business Development (Sep2018);Student;Dec 8, 2018 at 10:30pm;11:57;
Lou Krabshuis;Lou Krabshuis ;;Biobased Business Development (Sep2018);Student;Mar 18, 2019 at 4:23pm;;
Ingmar Kreeft;Ingmar Kreeft ;;Biobased Business Development (Sep2018);Student;Sep 16, 2019 at 2:14am;;
Jeffrey de Krijger;Jeffrey de Krijger ;;Biobased Business Development (Sep2018);Student;Jun 16, 2019 at 1:59pm;01:22:58;
Neethu Krishnan ;Neethu Krishnan ;;Biobased Business Development (Sep2018);Student;;;
Femke Kuijpers;Femke Kuijpers ;;Biobased Business Development (Sep2018);Student;;;
Nagaraj kulkarni ;Nagaraj kulkarni ;;Biobased Business Development (Sep2018);Student;Oct 26, 2018 at 11:48pm;20:27:47;
Khushboo Kumari;Khushboo Kumari ;;Biobased Business Development (Sep2018);Student;Mar 4, 2019 at 10:47am;01:56:24;
Nadeeka Kumari;Nadeeka Kumari ;;Biobased Business Development (Sep2018);Student;Nov 19, 2018 at 11:49pm;07:59;
Vasiliqi Kume;Vasiliqi Kume ;;Biobased Business Development (Sep2018);Student;Sep 26, 2018 at 3:57pm;04:01;
Rosette U. Labrador;Rosette U. Labrador ;;Biobased Business Development (Sep2018);Student;;;
Naresh K Lagadapati;Naresh K Lagadapati ;;Biobased Business Development (Sep2018);Student;Jan 18, 2019 at 12:49pm;;
biraj lama;biraj lama ;;Biobased Business Development (Sep2018);Student;Nov 5, 2018 at 7:36pm;01:24:39;
Michael Lambert;Michael Lambert ;;Biobased Business Development (Sep2018);Student;;;
Daisy D. Lamorinas ;Daisy D. Lamorinas ;;Biobased Business Development (Sep2018);Student;Nov 3, 2018 at 8:47pm;12:35;
SUCHIRAT LAMYAI;SUCHIRAT LAMYAI ;;Biobased Business Development (Sep2018);Student;;;
Kacper Lasowski;Kacper Lasowski ;;Biobased Business Development (Sep2018);Student;Oct 6, 2019 at 11:09am;10:54;
FARRUKH LATIF;FARRUKH LATIF ;;Biobased Business Development (Sep2018);Student;Oct 8, 2018 at 9:02am;02:41:38;
Piet Lazeroms;Piet Lazeroms ;;Biobased Business Development (Sep2018);Student;Jan 4, 2019 at 3:36am;02:17:34;
Piet Lazeroms;Piet Lazeroms ;;Biobased Business Development (Sep2018);Student;Jan 15, 2019 at 8:05am;16:28:09;
LEE WEE TECK;LEE WEE TECK ;;Biobased Business Development (Sep2018);Student;Jun 20, 2019 at 2:07am;02:34:16;
RaKisha Lee;RaKisha Lee ;;Biobased Business Development (Sep2018);Student;;;
Carlos Josué Perdomo Leiva;Carlos Josué Perdomo Leiva ;;Biobased Business Development (Sep2018);Student;Jan 22, 2019 at 3:34pm;08:30:40;
Goran Lepir;Goran Lepir ;;Biobased Business Development (Sep2018);Student;Apr 10, 2019 at 6:58pm;;
El houcine LHOUSSAINI;El houcine LHOUSSAINI ;;Biobased Business Development (Sep2018);Student;;;
El houcine LHOUSSAINI;El houcine LHOUSSAINI ;;Biobased Business Development (Sep2018);Student;Oct 30, 2018 at 6:44am;02:24:47;
Lyndon John Liebenberg;Lyndon John Liebenberg ;;Biobased Business Development (Sep2018);Student;Feb 18, 2019 at 3:11am;46:47:00;
Dagmar Liebens;Dagmar Liebens ;;Biobased Business Development (Sep2018);Student;Apr 15, 2019 at 1:35am;01:09:28;
Elitsa Lipovyanova;Elitsa Lipovyanova ;;Biobased Business Development (Sep2018);Student;Sep 10, 2019 at 10:49am;10:42:10;
Mohamed lkrt;Mohamed lkrt ;;Biobased Business Development (Sep2018);Student;;;
lolitan;lolitan ;;Biobased Business Development (Sep2018);Student;Oct 27, 2018 at 1:22am;;
Maurice van Londen;Maurice van Londen ;;Biobased Business Development (Sep2018);Teacher;Feb 18 at 12:50pm;22:56:07;
;;;;;;;
looking;looking ;;Biobased Business Development (Sep2018);Student;Feb 2, 2019 at 1am;02:00;
Milena Guarisco Lopes;Milena Guarisco Lopes ;;Biobased Business Development (Sep2018);Student;Mar 30, 2019 at 9:11am;44:50:00;
lovebati;lovebati ;;Biobased Business Development (Sep2018);Student;Jan 24, 2019 at 6:33am;01:53:40;
Cassandra Loy;Cassandra Loy ;;Biobased Business Development (Sep2018);Student;Nov 19, 2018 at 11:24am;;
Lubbers, A.;Lubbers, A. ;;Biobased Business Development (Sep2018);Student;;;
Egbert Lucas;Egbert Lucas ;;Biobased Business Development (Sep2018);Student;Dec 30, 2018 at 12:23pm;49:53:00;
Anjo Luijben;Anjo Luijben ;;Biobased Business Development (Sep2018);Student;Sep 16, 2019 at 3:34pm;12:34;
Manuela Macario;Manuela Macario ;;Biobased Business Development (Sep2018);Student;;;
Mahandry;Mahandry ;;Biobased Business Development (Sep2018);Student;Oct 30, 2018 at 6:14am;02:25;
Mogau Malebye;Mogau Malebye ;;Biobased Business Development (Sep2018);Student;;;
Malika;Malika ;;Biobased Business Development (Sep2018);Student;May 11, 2019 at 5:12pm;05:40:04;
Lucija Malinar;Lucija Malinar ;;Biobased Business Development (Sep2018);Student;Apr 22, 2019 at 4am;01:58:20;
Aemon Malone;Aemon Malone ;;Biobased Business Development (Sep2018);Student;Sep 19, 2018 at 2:07pm;05:45:15;
EMMANUEL MAMKI;EMMANUEL MAMKI ;;Biobased Business Development (Sep2018);Student;Oct 14, 2018 at 11am;20:02;
vasiliki maniati;vasiliki maniati ;;Biobased Business Development (Sep2018);Student;May 6, 2019 at 3:42pm;28:08:00;
Vincena Mantella;Vincena Mantella ;;Biobased Business Development (Sep2018);Student;Apr 14, 2019 at 5:18am;01:51:11;
Carla Marín ;Carla Marín ;;Biobased Business Development (Sep2018);Student;Jan 17, 2019 at 4:37am;04:34:42;
Miguel Angel Ruiz Marmolejo.;Miguel Angel Ruiz Marmolejo. ;;Biobased Business Development (Sep2018);Student;May 8, 2019 at 6:24pm;21:46;
Enrique Martinez;Enrique Martinez ;;Biobased Business Development (Sep2018);Student;Sep 12, 2018 at 12:46pm;09:46;
Selloane Matoase;Selloane Matoase ;;Biobased Business Development (Sep2018);Student;;;
Payton Maurer;Payton Maurer ;;Biobased Business Development (Sep2018);Student;;;
Phumelele N. Maziya;Phumelele N. Maziya ;;Biobased Business Development (Sep2018);Student;Dec 18, 2018 at 4:14am;40:15:00;
mirna mazzawi;mirna mazzawi ;;Biobased Business Development (Sep2018);Student;Nov 11, 2018 at 1:40am;;
Shruthi Meenakshisundaram;Shruthi Meenakshisundaram ;;Biobased Business Development (Sep2018);Student;Sep 17, 2018 at 8:03am;;
Stéphan van der Meer;Stéphan van der Meer ;;Biobased Business Development (Sep2018);Student;Sep 12, 2018 at 7:31am;07:31;
Maouche Meftah;Maouche Meftah ;;Biobased Business Development (Sep2018);Student;;;
GARA MOHAMED MEHDI;GARA MOHAMED MEHDI ;;Biobased Business Development (Sep2018);Student;Dec 10, 2018 at 1:31pm;59:18:00;
Ella Meijer;Ella Meijer ;;Biobased Business Development (Sep2018);Student;Sep 11, 2019 at 4:31am;;
Saba Fantaye Meles;Saba Fantaye Meles ;;Biobased Business Development (Sep2018);Student;;;
Zulqarnain Memon;Zulqarnain Memon ;;Biobased Business Development (Sep2018);Student;Nov 13, 2018 at 11:34am;01:12:03;
Lakhbalat Meryem;Lakhbalat Meryem ;;Biobased Business Development (Sep2018);Student;;;
Dereje Ademe Mesfin;Dereje Ademe Mesfin ;;Biobased Business Development (Sep2018);Student;;;
David Meshioye ;David Meshioye ;;Biobased Business Development (Sep2018);Student;Oct 10, 2018 at 12:29pm;02:06;
miaspice101;miaspice101 ;;Biobased Business Development (Sep2018);Student;Oct 5, 2018 at 11:36pm;08:56;
Mohammad Mikati;Mohammad Mikati ;;Biobased Business Development (Sep2018);Student;;;
Mohammad Mikati;Mohammad Mikati ;;Biobased Business Development (Sep2018);Student;;;
Taylor Miller;Taylor Miller ;;Biobased Business Development (Sep2018);Student;;;
Irfan mir;Irfan mir ;;Biobased Business Development (Sep2018);Student;Oct 24, 2018 at 1:48pm;06:05;
Henry Mkalawa;Henry Mkalawa ;;Biobased Business Development (Sep2018);Student;Dec 9, 2018 at 6:23am;01:29:17;
Moses Modisane;Moses Modisane ;;Biobased Business Development (Sep2018);Student;;;
mohamed rashad mohamed;mohamed rashad mohamed ;;Biobased Business Development (Sep2018);Student;Nov 3, 2018 at 2:38am;23:56;
Wala Waleed Esmail Mohammed;Wala Waleed Esmail Mohammed ;;Biobased Business Development (Sep2018);Student;Mar 16, 2019 at 8:05am;41:33:00;
Sophie Mok;Sophie Mok ;;Biobased Business Development (Sep2018);Student;;;
Fergus Moore;Fergus Moore ;;Biobased Business Development (Sep2018);Student;Oct 18, 2018 at 1:40am;;
gabriela rocha moreira;gabriela rocha moreira ;;Biobased Business Development (Sep2018);Student;Jan 15, 2019 at 5:41pm;12:02:15;
Carlos Lopez Moreno;Carlos Lopez Moreno ;;Biobased Business Development (Sep2018);Student;Oct 22, 2019 at 7:45am;25:59:00;
david morera;david morera ;;Biobased Business Development (Sep2018);Student;Nov 27, 2018 at 8:41am;;
Evelyn Mosha;Evelyn Mosha ;;Biobased Business Development (Sep2018);Student;;;
Andrés Felipe Arias Mosquera.;Andrés Felipe Arias Mosquera. ;;Biobased Business Development (Sep2018);Student;Dec 6, 2018 at 8:57am;09:46:21;
mp.winkelmolen@avans.nl;mp.winkelmolen@avans.nl ;;Biobased Business Development (Sep2018);Teacher;Jan 24 at 2:58am;22:58:24;
;;;;;;;
Candyanne K. Mugo;Candyanne K. Mugo ;;Biobased Business Development (Sep2018);Student;;;
Mukund;Mukund ;;Biobased Business Development (Sep2018);Student;Dec 16, 2018 at 9:49pm;;
Karl R. Mulder;Karl R. Mulder ;;Biobased Business Development (Sep2018);Student;Mar 28, 2019 at 5:11am;06:26:24;
Gunel Muradova;Gunel Muradova ;;Biobased Business Development (Sep2018);Student;Sep 9, 2019 at 11:03pm;;
Mahbuba Musayeva;Mahbuba Musayeva ;;Biobased Business Development (Sep2018);Student;Oct 23, 2018 at 9:33am;18:59;
Antony Mwati;Antony Mwati ;;Biobased Business Development (Sep2018);Student;Mar 25, 2019 at 10:11am;24:25:00;
Nadiia Mykhailovska;Nadiia Mykhailovska ;;Biobased Business Development (Sep2018);Student;May 10 at 2:38pm;01:00:58;
Rajhi Nadia;Rajhi Nadia ;;Biobased Business Development (Sep2018);Student;Oct 1, 2018 at 4:05am;;
Mokhtar Nadren;Mokhtar Nadren ;;Biobased Business Development (Sep2018);Student;;;
Sudeshna Naskar;Sudeshna Naskar ;;Biobased Business Development (Sep2018);Student;;;
Strebko Nataliia;Strebko Nataliia ;;Biobased Business Development (Sep2018);Student;Aug 6, 2019 at 7:44am;49:45:00;
laqbaqbi nawal;laqbaqbi nawal ;;Biobased Business Development (Sep2018);Student;;;
Pramod Nayak;Pramod Nayak ;;Biobased Business Development (Sep2018);Student;Feb 18, 2019 at 4:59am;57:46:00;
Tumaini manase ndimbo;Tumaini manase ndimbo ;;Biobased Business Development (Sep2018);Student;Feb 24, 2019 at 3:48am;38:05:00;
Ruqiya Nevoh;Ruqiya Nevoh ;;Biobased Business Development (Sep2018);Student;Feb 19, 2019 at 7:59am;14:57:40;
ADELINE NGUYEN;ADELINE NGUYEN ;;Biobased Business Development (Sep2018);Student;;;
Kevin Nijmeijer;Kevin Nijmeijer ;;Biobased Business Development (Sep2018);Student;Jan 13, 2019 at 4:55am;32:05:53;
Jane Wandi Wanjira Njeru;Jane Wandi Wanjira Njeru ;;Biobased Business Development (Sep2018);Student;Sep 13, 2018 at 3:12pm;26:07:00;
Nicolas Noel;Nicolas Noel ;;Biobased Business Development (Sep2018);Student;Mar 22, 2019 at 7:10am;09:47:27;
coen van noord;coen van noord ;;Biobased Business Development (Sep2018);Student;Feb 21, 2019 at 1:03am;02:32;
Aweis Haji Nor;Aweis Haji Nor ;;Biobased Business Development (Sep2018);Student;Sep 16, 2018 at 8:10am;46:02:00;
Vasileios I. Ntaflos;Vasileios I. Ntaflos ;;Biobased Business Development (Sep2018);Student;;;
Hamis Nyangasa;Hamis Nyangasa ;;Biobased Business Development (Sep2018);Student;Jun 3, 2019 at 2:10am;10:08:01;
Eghe Obanor;Eghe Obanor ;;Biobased Business Development (Sep2018);Student;Jan 26, 2019 at 3:47am;05:39;
Eghe Oze Obanor;Eghe Oze Obanor ;;Biobased Business Development (Sep2018);Student;Jan 26 at 6:09am;48:45:09;
Pascal Ocan;Pascal Ocan ;;Biobased Business Development (Sep2018);Student;;;
Eddie Ezekiel Ochieng;Eddie Ezekiel Ochieng ;;Biobased Business Development (Sep2018);Student;Dec 14, 2018 at 6:37am;05:14;
oritsetsaye toritseju ogbitse;oritsetsaye toritseju ogbitse ;;Biobased Business Development (Sep2018);Student;;;
BABATUNDE MATHEW OLADELE;BABATUNDE MATHEW OLADELE ;;Biobased Business Development (Sep2018);Student;Aug 27, 2019 at 9:53am;;
Veronika Oláh;Veronika Oláh ;;Biobased Business Development (Sep2018);Student;Jan 3, 2019 at 10:26am;21:29:46;
Alagangan Olawale;Alagangan Olawale ;;Biobased Business Development (Sep2018);Student;Mar 25, 2019 at 4:03pm;07:48:35;
Robbi Oley ;Robbi Oley ;;Biobased Business Development (Sep2018);Student;Oct 24, 2018 at 4:34pm;;
ALEXANDRE FERNANDES DE OLIVEIRA;ALEXANDRE FERNANDES DE OLIVEIRA ;;Biobased Business Development (Sep2018);Student;Feb 6, 2019 at 1:51pm;10:30:39;
Rodolfo Moredisson Silva de Oliveira;Rodolfo Moredisson Silva de Oliveira ;;Biobased Business Development (Sep2018);Student;;;
oluwafemi oluwole;oluwafemi oluwole ;;Biobased Business Development (Sep2018);Student;Dec 5, 2018 at 2:27am;02:36;
Albert Ong;Albert Ong ;;Biobased Business Development (Sep2018);Student;;;
Olga Oreshkova;Olga Oreshkova ;;Biobased Business Development (Sep2018);Student;;;
Ehab osama;Ehab osama ;;Biobased Business Development (Sep2018);Student;;;
Agnes Ajijia Osang;Agnes Ajijia Osang ;;Biobased Business Development (Sep2018);Student;;;
Yazgi Ozturk;Yazgi Ozturk ;;Biobased Business Development (Sep2018);Student;Jul 2, 2019 at 2:40pm;02:39:08;
veronica pabon;veronica pabon ;;Biobased Business Development (Sep2018);Student;;;
Paolo Pagella;Paolo Pagella ;;Biobased Business Development (Sep2018);Student;Dec 16, 2018 at 12:30pm;;
Maruthibabu Paidikondala;Maruthibabu Paidikondala ;;Biobased Business Development (Sep2018);Student;Jan 13, 2019 at 11:53pm;02:31;
Lukhman Pambra;Lukhman Pambra ;;Biobased Business Development (Sep2018);Student;;;
Binayak Panda;Binayak Panda ;;Biobased Business Development (Sep2018);Student;Mar 11, 2019 at 6:55pm;01:36:59;
Carl John Pasante;Carl John Pasante ;;Biobased Business Development (Sep2018);Student;Jan 17, 2019 at 3:53pm;03:54:50;
Aleksandr Pashinin;Aleksandr Pashinin ;;Biobased Business Development (Sep2018);Student;;;
Raju Patil;Raju Patil ;;Biobased Business Development (Sep2018);Student;Jul 15, 2019 at 3:38pm;30:39:48;
Amani pius paul;Amani pius paul ;;Biobased Business Development (Sep2018);Student;;;
Lluis Sanmatias Perez;Lluis Sanmatias Perez ;;Biobased Business Development (Sep2018);Student;Jan 13, 2019 at 10:33am;06:15:15;
Maria Fernanda Sanchez Perez;Maria Fernanda Sanchez Perez ;;Biobased Business Development (Sep2018);Student;Mar 15, 2019 at 12:18pm;21:51:15;
Polina Petrova;Polina Petrova ;;Biobased Business Development (Sep2018);Student;Jan 15, 2019 at 10:24am;19:15:57;
Phil;Phil ;;Biobased Business Development (Sep2018);Student;Feb 2, 2019 at 7:44am;04:42:13;
rikki pieters;rikki pieters ;;Biobased Business Development (Sep2018);Student;Jun 21, 2019 at 5:29am;14:39:05;
Aline Correa Pinheiro;Aline Correa Pinheiro ;;Biobased Business Development (Sep2018);Student;Nov 5, 2018 at 6:31pm;13:54:36;
Sanne van de Plas;Sanne van de Plas ;;Biobased Business Development (Sep2018);Student;;;
Bianca van der Poel;Bianca van der Poel ;;Biobased Business Development (Sep2018);Student;Apr 11, 2019 at 12:24am;;
Dusan Popovic;Dusan Popovic ;;Biobased Business Development (Sep2018);Student;;;
Daria Postavnaia;Daria Postavnaia ;;Biobased Business Development (Sep2018);Student;;;
pp;pp ;;Biobased Business Development (Sep2018);Student;Dec 6, 2018 at 12:36am;02:14;
Anand Prabhakar;Anand Prabhakar ;;Biobased Business Development (Sep2018);Student;;;
Denise Praet;Denise Praet ;;Biobased Business Development (Sep2018);Student;Jan 10, 2019 at 3am;13:37:04;
Danah Marie Purificacion;Danah Marie Purificacion ;;Biobased Business Development (Sep2018);Student;Oct 24, 2018 at 2:09am;04:35:56;
Lê Dụng Quang;Lê Dụng Quang ;;Biobased Business Development (Sep2018);Student;Dec 31, 2018 at 7:43am;02:30;
Isabelle Quartel;Isabelle Quartel ;;Biobased Business Development (Sep2018);Student;Jan 9, 2019 at 7:11am;06:25:16;
GISHAMOL R;GISHAMOL R ;;Biobased Business Development (Sep2018);Student;;;
rab.simons@avans.nl;rab.simons@avans.nl ;;Biobased Business Development (Sep2018);Student;Sep 12, 2018 at 9:07am;35:47:00;
Md. Rayhan Ullah Rabin ;Md. Rayhan Ullah Rabin ;;Biobased Business Development (Sep2018);Student;Sep 28, 2018 at 6:21am;01:57:20;
jagos radovic;jagos radovic ;;Biobased Business Development (Sep2018);Student;Apr 14 at 10:33am;;
Abdul Raheem;Abdul Raheem ;;Biobased Business Development (Sep2018);Student;Oct 19, 2018 at 11:07pm;20:01;
Hansel Rajan;Hansel Rajan ;;Biobased Business Development (Sep2018);Student;;;
Elina Ranta;Elina Ranta ;;Biobased Business Development (Sep2018);Student;Jan 15, 2019 at 5:52am;13:21:25;
Hermann Rasch;Hermann Rasch ;;Biobased Business Development (Sep2018);Student;Oct 14, 2018 at 2:56pm;02:45:34;
Krystyna Rauliuk;Krystyna Rauliuk ;;Biobased Business Development (Sep2018);Student;Oct 21, 2019 at 2:05pm;49:53:00;
Shankar Ravichandran;Shankar Ravichandran ;;Biobased Business Development (Sep2018);Student;Nov 19, 2018 at 11:17am;10:19;
Muhammad Hassan Raza;Muhammad Hassan Raza ;;Biobased Business Development (Sep2018);Student;Sep 10, 2018 at 7:09am;02:05;
Renu;Renu ;;Biobased Business Development (Sep2018);Student;;;
Rezaul Karim;Rezaul Karim ;;Biobased Business Development (Sep2018);Student;May 15, 2019 at 6:11am;36:28:00;
Stefan Rietbergen;Stefan Rietbergen ;;Biobased Business Development (Sep2018);Student;Jan 20 at 11:26am;02:20;
Nica Rijken;Nica Rijken ;;Biobased Business Development (Sep2018);Student;Apr 5, 2019 at 9:16am;04:32:00;
Wendy van Rijsbergen ;Wendy van Rijsbergen ;;Biobased Business Development (Sep2018);Teacher;Aug 28, 2018 at 3:43am;;
;;;;;;;
Tiffany Risner;Tiffany Risner ;;Biobased Business Development (Sep2018);Student;Feb 28, 2019 at 1:19pm;;
Sylvie ROBERT;Sylvie ROBERT ;;Biobased Business Development (Sep2018);Student;Sep 4, 2019 at 1:37pm;;
Alain Roelse;Alain Roelse ;;Biobased Business Development (Sep2018);Student;Feb 18, 2019 at 4:19am;06:28:16;
Camino López Romero;Camino López Romero ;;Biobased Business Development (Sep2018);Student;Jan 19, 2019 at 6:09am;03:18:53;
XIAO RONG;XIAO RONG ;;Biobased Business Development (Sep2018);Student;;;
Valerie de Rooij;Valerie de Rooij ;;Biobased Business Development (Sep2018);Student;Sep 14, 2019 at 8:18am;;
Atanu Roy;Atanu Roy ;;Biobased Business Development (Sep2018);Student;Oct 11, 2018 at 2:05am;51:58:00;
audrey rozowykwiat;audrey rozowykwiat ;;Biobased Business Development (Sep2018);Student;;;
CHARLES Ocgena Rusten;CHARLES Ocgena Rusten ;;Biobased Business Development (Sep2018);Student;Sep 28, 2018 at 5:07am;32:41:00;
Igor Rylkov;Igor Rylkov ;;Biobased Business Development (Sep2018);Student;;;
SANTHOSH S;SANTHOSH S ;;Biobased Business Development (Sep2018);Student;Oct 17, 2019 at 7:27am;03:51:26;
Mary John Sabu;Mary John Sabu ;;Biobased Business Development (Sep2018);Student;;;
Benjamin Sackey;Benjamin Sackey ;;Biobased Business Development (Sep2018);Student;Feb 2, 2019 at 2:17am;02:13;
Rashidul Sadi;Rashidul Sadi ;;Biobased Business Development (Sep2018);Student;Sep 4, 2019 at 4:31am;03:22:26;
Ajay yuvraj sagar;Ajay yuvraj sagar ;;Biobased Business Development (Sep2018);Student;Oct 3, 2018 at 3:44am;05:29;
Şeyda Şahin;Şeyda Şahin ;;Biobased Business Development (Sep2018);Student;Sep 10, 2018 at 7:27am;02:42;
Fatima Saif;Fatima Saif ;;Biobased Business Development (Sep2018);Student;Oct 24, 2019 at 12:46am;;
Ahmed Salman;Ahmed Salman ;;Biobased Business Development (Sep2018);Student;Dec 16, 2018 at 11:18am;03:43;
Sammy;Sammy ;;Biobased Business Development (Sep2018);Student;Jan 3, 2019 at 10:04am;02:19;
Sammy;Sammy ;;Biobased Business Development (Sep2018);Student;Jan 3, 2019 at 10:14am;09:56;
Sebastián Sanabria Sánchez;Sebastián Sanabria Sánchez ;;Biobased Business Development (Sep2018);Student;Oct 27, 2018 at 12:52pm;08:22;
Sebastián Sanabria Sánchez;Sebastián Sanabria Sánchez ;;Biobased Business Development (Sep2018);Student;Sep 19, 2018 at 8:24pm;26:30:00;
Gracia sanchis;Gracia sanchis ;;Biobased Business Development (Sep2018);Student;Dec 25, 2018 at 4:18am;;
Mohammad Ali Saygal;Mohammad Ali Saygal ;;Biobased Business Development (Sep2018);Student;Feb 19, 2019 at 2:22pm;04:08;
Aysel Sayid;Aysel Sayid ;;Biobased Business Development (Sep2018);Student;Sep 15, 2018 at 1:52pm;;
Brigitte J.A.G. Schrijvers;Brigitte J.A.G. Schrijvers ;;Biobased Business Development (Sep2018);Student;May 17, 2019 at 4:23pm;58:17:00;
sdfsfsdf;sdfsfsdf ;;Biobased Business Development (Sep2018);Student;;;
Alex Segers;Alex Segers ;;Biobased Business Development (Sep2018);Student;Nov 2, 2018 at 7:44am;21:41;
Enock FOTAZOU Seguy;Enock FOTAZOU Seguy ;;Biobased Business Development (Sep2018);Student;;;
George Sen;George Sen ;;Biobased Business Development (Sep2018);Student;Apr 21, 2019 at 9:30am;04:08;
Erjona Serjani;Erjona Serjani ;;Biobased Business Development (Sep2018);Student;Mar 2, 2019 at 3:14pm;52:06:00;
Valeria Serra;Valeria Serra ;;Biobased Business Development (Sep2018);Student;;;
Amer Sayed Shaat;Amer Sayed Shaat ;;Biobased Business Development (Sep2018);Student;Mar 26, 2019 at 5:22pm;04:14;
Marmik shah;Marmik shah ;;Biobased Business Development (Sep2018);Student;;;
Aadarsh Sharma;Aadarsh Sharma ;;Biobased Business Development (Sep2018);Student;Jan 5, 2019 at 8:40am;;
Shivam Sharma;Shivam Sharma ;;Biobased Business Development (Sep2018);Student;Jan 29, 2019 at 8:22am;08:23;
Deepak Shilkar;Deepak Shilkar ;;Biobased Business Development (Sep2018);Student;Oct 11, 2018 at 12:08pm;01:29:31;
renad shqeirat;renad shqeirat ;;Biobased Business Development (Sep2018);Student;;;
Mahmoud Shuairi;Mahmoud Shuairi ;;Biobased Business Development (Sep2018);Student;Nov 18, 2018 at 5:03am;02:00;
Duryodbek Shukhratov;Duryodbek Shukhratov ;;Biobased Business Development (Sep2018);Student;Sep 12, 2018 at 9:51am;02:38;
Salah Uddin Shuvo;Salah Uddin Shuvo ;;Biobased Business Development (Sep2018);Student;Dec 8, 2018 at 5:39am;45:52:00;
Lackson Phineas Sibanyati;Lackson Phineas Sibanyati ;;Biobased Business Development (Sep2018);Student;Dec 18, 2018 at 2:36am;39:30:00;
Melinda Simmons;Melinda Simmons ;;Biobased Business Development (Sep2018);Student;;;
Guilherme Simoes;Guilherme Simoes ;;Biobased Business Development (Sep2018);Student;Dec 16, 2018 at 9:28am;11:24:06;
Sujendra Singh;Sujendra Singh ;;Biobased Business Development (Sep2018);Student;Nov 20, 2018 at 2:52pm;04:41:12;
BK Sinha;BK Sinha ;;Biobased Business Development (Sep2018);Student;Feb 18, 2019 at 4:55am;30:16:00;
Kars Smeulders;Kars Smeulders ;;Biobased Business Development (Sep2018);Student;Jan 16, 2019 at 4:11pm;07:01:35;
ge smit;ge smit ;;Biobased Business Development (Sep2018);Student;;;
Triinu Sõber;Triinu Sõber ;;Biobased Business Development (Sep2018);Student;Mar 24, 2019 at 7:16pm;;
Shrikant Rajendra Sonawane;Shrikant Rajendra Sonawane ;;Biobased Business Development (Sep2018);Student;Dec 17, 2018 at 11:19am;;
Cristina Madrero Soria;Cristina Madrero Soria ;;Biobased Business Development (Sep2018);Student;Jan 15, 2019 at 12:58pm;04:40:47;
João Bosco Brasil de Souza;João Bosco Brasil de Souza ;;Biobased Business Development (Sep2018);Student;Feb 18, 2019 at 5:03am;;
Audrey speyer;Audrey speyer ;;Biobased Business Development (Sep2018);Student;Nov 10, 2018 at 4:08am;11:26;
Sifra Spuijbroek;Sifra Spuijbroek ;;Biobased Business Development (Sep2018);Student;Sep 18, 2019 at 7:45am;10:16:00;
Andreea Stefanescu;Andreea Stefanescu ;;Biobased Business Development (Sep2018);Student;;;
Sven Stielstra;Sven Stielstra ;;Biobased Business Development (Sep2018);Student;;;
Luc Stienissen;Luc Stienissen ;;Biobased Business Development (Sep2018);Student;Jan 14, 2019 at 3:21pm;10:04:13;
Sien Strauven;Sien Strauven ;;Biobased Business Development (Sep2018);Student;Sep 30, 2019 at 2:59am;;
Gunther Suarez;Gunther Suarez ;;Biobased Business Development (Sep2018);Student;;;
Gustas Sudintas;Gustas Sudintas ;;Biobased Business Development (Sep2018);Student;Feb 4, 2019 at 7:26am;09:52:15;
MYNENI SUSHMA;MYNENI SUSHMA ;;Biobased Business Development (Sep2018);Student;;;
Irfan Sylvanto;Irfan Sylvanto ;;Biobased Business Development (Sep2018);Student;;;
Amina T;Amina T ;;Biobased Business Development (Sep2018);Student;May 30, 2019 at 9:39pm;;
Thierno Abdourahmane TALLA;Thierno Abdourahmane TALLA ;;Biobased Business Development (Sep2018);Student;Dec 24, 2018 at 6:07am;02:17;
Jared Tallis;Jared Tallis ;;Biobased Business Development (Sep2018);Student;Nov 13, 2018 at 9:38pm;01:12:15;
Michael Tan;Michael Tan ;;Biobased Business Development (Sep2018);Student;;;
deston tanner;deston tanner ;;Biobased Business Development (Sep2018);Student;;;
Aline Teerlinck;Aline Teerlinck ;;Biobased Business Development (Sep2018);Student;Jan 15, 2019 at 8:27am;09:11:22;
Abraham Teferi;Abraham Teferi ;;Biobased Business Development (Sep2018);Student;Sep 24, 2018 at 3am;48:37:00;
Anne Teschler;Anne Teschler ;;Biobased Business Development (Sep2018);Student;;;
Nine Thijssen;Nine Thijssen ;;Biobased Business Development (Sep2018);Student;Sep 18, 2019 at 4:29am;01:54:40;
Justina Thompson ;Justina Thompson ;;Biobased Business Development (Sep2018);Student;;;
Yel Kyaw Thu;Yel Kyaw Thu ;;Biobased Business Development (Sep2018);Student;Mar 30, 2019 at 3:05am;;
KAMOGELO GORATA THULARI;KAMOGELO GORATA THULARI ;;Biobased Business Development (Sep2018);Student;Apr 15, 2019 at 6:18am;01:46:11;
Tiarah;Tiarah ;;Biobased Business Development (Sep2018);Student;Jan 14, 2019 at 8:47am;01:35:13;
Nils Timan;Nils Timan ;;Biobased Business Development (Sep2018);Student;Jan 18, 2019 at 2:41am;05:17;
Natnael Negussie Tiumemy;Natnael Negussie Tiumemy ;;Biobased Business Development (Sep2018);Student;Aug 29, 2018 at 11:49am;;
DALIA RAMOS TOLEDO;DALIA RAMOS TOLEDO ;;Biobased Business Development (Sep2018);Student;Jun 4, 2019 at 9:07am;;
Ilona Tompa;Ilona Tompa ;;Biobased Business Development (Sep2018);Student;Feb 8, 2019 at 4:01am;13:05:13;
L.A. den Toom;L.A. den Toom ;;Biobased Business Development (Sep2018);Student;Oct 30, 2018 at 2:13am;01:30:35;
Jose Miguel Cabrera Torrico;Jose Miguel Cabrera Torrico ;;Biobased Business Development (Sep2018);Student;Jan 13, 2019 at 10:13am;04:10:11;
Tamsir TOURE;Tamsir TOURE ;;Biobased Business Development (Sep2018);Student;Nov 20, 2018 at 2:57am;33:52:00;
Priscilla Tovey;Priscilla Tovey ;;Biobased Business Development (Sep2018);Student;Jan 7, 2019 at 11:01am;22:29;
Hoang The Trung;Hoang The Trung ;;Biobased Business Development (Sep2018);Student;Oct 31, 2018 at 4:03pm;;
tsakhurets;tsakhurets ;;Biobased Business Development (Sep2018);Student;;;
TZU TING, LIN;TZU TING, LIN ;;Biobased Business Development (Sep2018);Student;Oct 13, 2018 at 6:44pm;02:15;
Hector Ulloa;Hector Ulloa ;;Biobased Business Development (Sep2018);Student;Mar 24, 2019 at 10:59pm;;
Efe Unal;Efe Unal ;;Biobased Business Development (Sep2018);Student;;;
Elvin Valenzona;Elvin Valenzona ;;Biobased Business Development (Sep2018);Student;Oct 26, 2018 at 6:34pm;02:34;
Art Vandalyay;Art Vandalyay ;;Biobased Business Development (Sep2018);Student;Sep 21, 2018 at 7:50am;09:21;
Erick Dennis Pallaroso Vasquez;Erick Dennis Pallaroso Vasquez ;;Biobased Business Development (Sep2018);Student;Dec 29, 2018 at 9:24pm;03:07:34;
Ladyvine De Vera;Ladyvine De Vera ;;Biobased Business Development (Sep2018);Student;Oct 11, 2018 at 11:30pm;15:21;
Pablo Garcia Verdu;Pablo Garcia Verdu ;;Biobased Business Development (Sep2018);Student;Oct 3, 2019 at 3:46am;20:01:15;
Max Vergeer;Max Vergeer ;;Biobased Business Development (Sep2018);Student;Feb 1, 2019 at 10:18am;02:18;
Margot Verwei;Margot Verwei ;;Biobased Business Development (Sep2018);Teacher;Sep 9 at 7:13am;13:58:13;
;;;;;;;
Britt Vijverberg;Britt Vijverberg ;;Biobased Business Development (Sep2018);Student;Apr 19, 2019 at 6:06am;08:28;
Cesar Aldair Maza Vilchez;Cesar Aldair Maza Vilchez ;;Biobased Business Development (Sep2018);Student;;;
Pawaskar Vinayak;Pawaskar Vinayak ;;Biobased Business Development (Sep2018);Student;Apr 11, 2019 at 1:17am;09:51;
Yethindra Vityala;Yethindra Vityala ;;Biobased Business Development (Sep2018);Student;Jan 9, 2019 at 8:13am;59:06:00;
Annelies de Voogt;Annelies de Voogt ;;Biobased Business Development (Sep2018);Student;Jun 24, 2019 at 7:43am;02:13:38;
vusal;vusal ;;Biobased Business Development (Sep2018);Student;Jan 15, 2019 at 3:53am;32:37:00;
Tinsae Moges Wakumo;Tinsae Moges Wakumo ;;Biobased Business Development (Sep2018);Student;Oct 22, 2018 at 1:16am;02:00;
Gijs van Weert;Gijs van Weert ;;Biobased Business Development (Sep2018);Student;Jan 15, 2019 at 6:11am;01:28:56;
Gabrielle Werkhoven;Gabrielle Werkhoven ;;Biobased Business Development (Sep2018);Student;Jan 16, 2019 at 4:46pm;16:13:46;
SARAH WILSON;SARAH WILSON ;;Biobased Business Development (Sep2018);Student;;;
Anteneh Mekasha Worku;Anteneh Mekasha Worku ;;Biobased Business Development (Sep2018);Student;Oct 31, 2018 at 11:17pm;04:24:49;
xiaonan.hou;xiaonan.hou ;;Biobased Business Development (Sep2018);Student;Apr 9, 2019 at 6:47am;46:57:00;
xxx;xxx ;;Biobased Business Development (Sep2018);Student;;;
Aya Khaled Yahia;Aya Khaled Yahia ;;Biobased Business Development (Sep2018);Student;Dec 30, 2018 at 4:49pm;07:45;
Emirul Adzhar Yahya;Emirul Adzhar Yahya ;;Biobased Business Development (Sep2018);Student;Mar 9, 2019 at 5:34am;10:48:06;
MOHAMMED YAHYA;MOHAMMED YAHYA ;;Biobased Business Development (Sep2018);Student;Sep 24, 2018 at 1:34pm;26:05:00;
Vishnu Priya Yalavarthi;Vishnu Priya Yalavarthi ;;Biobased Business Development (Sep2018);Student;Apr 29, 2019 at 9:18am;;
Hui-Mun Yang;Hui-Mun Yang ;;Biobased Business Development (Sep2018);Student;Jan 17, 2019 at 8:13am;;
Miquel Duran Ylla-Català;Miquel Duran Ylla-Català ;;Biobased Business Development (Sep2018);Student;Oct 23, 2019 at 5:28am;04:28:35;
anis young;anis young ;;Biobased Business Development (Sep2018);Student;Sep 18, 2018 at 10:58pm;02:00;
YuriiMelnyk;YuriiMelnyk ;;Biobased Business Development (Sep2018);Student;;;
Heidi Zeuner;Heidi Zeuner ;;Biobased Business Development (Sep2018);Student;;;
Kateryna Zhukovska;Kateryna Zhukovska ;;Biobased Business Development (Sep2018);Student;Jan 17, 2019 at 4:49am;12:51:39;
Ekaterina Zhukovskaia;Ekaterina Zhukovskaia ;;Biobased Business Development (Sep2018);Student;;;
Chung Ngin Zhun;Chung Ngin Zhun ;;Biobased Business Development (Sep2018);Student;Oct 1, 2018 at 5:03am;06:11:22;
Alex van der Zwart;Alex van der Zwart ;;Biobased Business Development (Sep2018);Student;Nov 27, 2018 at 5:06pm;02:34:19;
;;;Biobased Business Development (Sep2018);Teacher;Nov 27, 2018 at 5:06pm;;
;;;;;;;
Ерболат Кайырбеков;Ерболат Кайырбеков ;;Biobased Business Development (Sep2018);Student;Nov 16, 2018 at 1:05am;02:02;
عبد الجليل زيتوني;عبد الجليل زيتوني ;;Biobased Business Development (Sep2018);Student;;;
