﻿Naam;Aanmeldings-ID;Sectie;Functie;Laatste activiteit;Totale activiteit
Marjanne van Arendonk ;marsukh@gmail.com;Biobased Energy;Cursist;28 nov 2019 op 23:16;35:31:00
;;;;;
Jappe de Best ;jh.debest@avans.nl;Biobased Energy;Cursist;31 mrt op 20:58;19:35
;;Biobased Energy;Docent;31 mrt op 20:58;
;;;;;
Priya Bhinde ;gisgr8.gg@gmail.com;Biobased Energy;Cursist;15 mrt op 6:34;06:28
;;;;;
Angelina den Boer ;boer0103@hz.nl;Biobased Energy;Cursist;25 mrt op 10:52;01:21:26
;;;;;
Carolien Boonen ;carolien.boonen@thomasmore.be;Biobased Energy;Cursist;24 feb op 18:28;46:20:00
;;;;;
Vera Buyle ;vera.buyle@online.nl;Biobased Energy;Cursist;21 okt 2019 op 17:45;
;;;;;
Ana Arias Calvo ;ana.arias.calvo@rai.usc.es;Biobased Energy;Cursist;7 feb op 16:44;01:39:31
;;;;;
Juan Pablo Gaviria Cardona ;jpgaviri@avans.nl;Biobased Energy;Cursist;28 nov 2019 op 12:27;06:40:53
;;;;;
Carolien ;carolienboonen@hotmail.com;Biobased Energy;Cursist;18 feb op 17:13;54:49:00
;;;;;
Mieke Catry ;Mieke.Catry@hogent.be;Biobased Energy;Cursist;25 mrt op 15:13;04:28:49
;;;;;
Gerson Cornejo ;cornejoreyes96@gmail.com;Biobased Energy;Cursist;23 apr op 0:16;03:24:00
;;;;;
Brenda van Dijk ;brenda_snoetje@hotmail.com;Biobased Energy;Cursist;;
;;;;;
Jack Doomernik ;jack.doomernik@stork.com;Biobased Energy;Cursist;20 mrt op 12:00;02:24
;;;;;
Mike van Dorsselaer ;mikevd1998@gmail.com;Biobased Energy;Cursist;;
;;;;;
Aurore Duval ;aurore.duval@sherwin.com;Biobased Energy;Cursist;24 feb op 14:31;
;;;;;
Nova van Elk ;nj.vanelk@student.avans.nl;Biobased Energy;Cursist;13 apr op 17:54;15:39
;;;;;
bertijn van emst ;b.vanemst@student.avans.nl;Biobased Energy;Cursist;10 nov 2019 op 19:59;
;;;;;
Diamo Fens ;deh.fens@student.avans.nl;Biobased Energy;Cursist;7 nov 2019 op 7:25;40:00:00
;;;;;
Nicolas Geleijns ;nlggelei@avans.nl;Biobased Energy;Cursist;20 nov 2019 op 11:08;03:00:38
;;;;;
Antoine Giezen ;antoine.giezen@rws.nl;Biobased Energy;Cursist;;
;;;;;
Eric van Gilst ;gils0016@hz.nl;Biobased Energy;Cursist;25 mrt op 10:56;01:29:46
;;;;;
Giona Giusepponi ;G.giusepponi@student.avans.nl;Biobased Energy;Cursist;11 apr op 12:20;
;;;;;
jasmijn govaarts ;gova0010@hz.nl;Biobased Energy;Cursist;13 nov 2019 op 10:25;04:50
;;;;;
Bram de Groote ;groo0042@hz.nl;Biobased Energy;Cursist;20 feb op 13:43;01:11:27
;;;;;
Bram de Groote ;groo042@hz.nl;Biobased Energy;Cursist;;
;;;;;
Jia-Ying Guan ;jiaying.guan@gmail.com;Biobased Energy;Cursist;;
;;;;;
Ilvia Hederik ;i.hederik@student.avans.nl;Biobased Energy;Cursist;27 mrt op 14:17;08:32:10
;;;;;
Jo Helsen ;helsenjo@gmail.com;Biobased Energy;Cursist;17 dec 2019 op 16:44;04:36:04
;;;;;
Jesse Hueben ;j_hueben@outlook.com;Biobased Energy;Cursist;2 dec 2019 op 15:14;08:47:07
;;;;;
Booike de Jong ;bcj.dejong@student.avans.nl;Biobased Energy;Cursist;10 apr op 17:41;01:59:05
;;;;;
Femke de Jong ;f.dejong7@student.avans.nl;Biobased Energy;Cursist;24 jan op 12:00;05:24:52
;;;;;
Jan-Willem Kanters ;jan-willem@cirkellab.nl;Biobased Energy;Cursist;11 okt 2019 op 15:00;24:44:00
;;;;;
Davey Koenraadt ;acj.koenraadt@student.avans.nl;Biobased Energy;Cursist;4 dec 2019 op 19:54;40:48:00
;;;;;
Cas Koopmans ;cas.koopmans@home.nl;Biobased Energy;Cursist;11 sep 2019 op 16:53;
;;;;;
Cas Koopmans ;cjw.koopmans@student.avans.nl;Biobased Energy;Cursist;15 nov 2019 op 13:11;03:05:45
;;;;;
Sander Kooremans ;s.kooremans@student.avans.nl;Biobased Energy;Cursist;5 jan op 10:00;04:18:48
;;;;;
Ingmar Kreeft ;i.kreeft@student.avans.nl;Biobased Energy;Cursist;5 dec 2019 op 12:52;06:05:52
;;;;;
Kacper Laskowski ;kd.laskowski@student.avans.nl;Biobased Energy;Cursist;3 dec 2019 op 9:05;02:12:24
;;;;;
Kacper Laskowski ;kapiq7@gmail.com;Biobased Energy;Cursist;;
;;;;;
Esmee van Lierop ;esmeevanlierop@gmail.com;Biobased Energy;Cursist;16 dec 2019 op 14:16;
;;;;;
Esmee van Lierop ;e.vanlierop@student.avans.nl;Biobased Energy;Cursist;16 dec 2019 op 15:18;09:29
;;;;;
Elitsa Lipovyanova ;elipovya@avans.nl;Biobased Energy;Cursist;14 nov 2019 op 15:56;08:13:37
;;;;;
Victor Lopes ;vflope@gmail.com;Biobased Energy;Cursist;25 okt 2019 op 14:14;02:04
;;;;;
Anjo Luijben ;ahfluijb@avans.nl;Biobased Energy;Cursist;2 dec 2019 op 16:25;04:04:05
;;;;;
Cas van het Maalpad ;c.vanhetmaalpad@student.avans.nl;Biobased Energy;Cursist;11 mrt op 17:53;
;;;;;
Bjorn Maat ;maat0011@hz.nl;Biobased Energy;Cursist;25 mrt op 13:17;
;;;;;
Stéphan van der Meer ;stephan.meer@zeelandnet.nl;Biobased Energy;Cursist;12 mrt op 20:28;09:00
;;;;;
Carlos Lopez Moreno ;cm.lopez@student.avans.nl;Biobased Energy;Cursist;13 sep 2019 op 12:55;03:00
;;;;;
Cas van Passel ;cmm.vanpassel@student.avans.nl;Biobased Energy;Cursist;5 dec 2019 op 15:23;44:35:00
;;;;;
Bart de Raad ;bj.deraad@student.avans.nl;Biobased Energy;Cursist;6 jan op 10:13;111:42:14
;;;;;
Nica Rijken ;nacrijke@avans.nl;Biobased Energy;Cursist;16 apr op 12:09;10:56
;;;;;
Sien Roof ;s.roof@student.avans.nl;Biobased Energy;Cursist;19 apr op 13:31;03:57:39
;;;;;
Valerie de Rooij ;dew.derooij@student.avans.nl;Biobased Energy;Cursist;20 dec 2019 op 12:04;11:52:09
;;;;;
Martijn Santes ;martijn.santes@dnvgl.com;Biobased Energy;Cursist;25 feb op 16:01;02:28:23
;;;;;
Latifa Saou ;L.saou1@student.avans.nl;Biobased Energy;Cursist;5 apr op 23:05;02:23
;;;;;
Alberto Saucedo ;albertosaucedo@upsa.edu.bo;Biobased Energy;Cursist;13 feb op 13:12;
;;;;;
Lisa Scheele ;l.scheele@student.avans.nl;Biobased Energy;Cursist;28 jan op 18:51;05:36
;;;;;
Lisa Scheele ;lisa.scheele@corbion.com;Biobased Energy;Cursist;10 feb op 9:26;02:50:26
;;;;;
Myrthe Schellekens ;mah.schellekens1@student.avans.nl;Biobased Energy;Cursist;4 mrt op 15:58;02:19:46
;;;;;
Ralph Simons ;ralphsimons@gmail.com;Biobased Energy;Cursist;24 mrt op 15:11;01:52:04
;;;;;
Lilian Slusarek ;l.slusarek@student.avans.nl;Biobased Energy;Cursist;17 dec 2019 op 13:25;08:46:59
;;;;;
Petula de Smit ;pm.desmit@hotmail.com;Biobased Energy;Cursist;1 okt 2019 op 10:49;
;;;;;
Brent de snaijer ;Bb.desnaijer@student.avans.nl;Biobased Energy;Cursist;27 nov 2019 op 16:35;
;;;;;
Anouk Snoeren ;aj.snoeren@student.avans.nl;Biobased Energy;Cursist;20 nov 2019 op 10:25;
;;;;;
Sien Strauven ;s.strauven@student.avans.nl;Biobased Energy;Cursist;27 nov 2019 op 16:34;05:03:29
;;;;;
Pim van de Ven ;pjm.vandeven@student.avans.nl;Biobased Energy;Cursist;8 nov 2019 op 13:21;
;;;;;
Ivo Verhaar ;iverhaar@avans.nl;Biobased Energy;Cursist;19 feb op 12:43;02:14:03
;;;;;
Stefan Vonk ;sp.vonk@student.avans.nl;Biobased Energy;Cursist;6 feb op 17:18;03:28:06
;;;;;
ilias van weelden ;i.vanweelden@student.avans.nl;Biobased Energy;Cursist;30 jan op 15:09;05:46:34
;;;;;
Mia van Wermeskerken ;fmr.vanwermeskerken@student.avans.nl;Biobased Energy;Cursist;23 jan op 16:30;09:45:13
