﻿Naam;Aanmeldings-ID;Sectie;Functie;Laatste activiteit;Totale activiteit
A ;cornejogerson@gmail.com;Biobased Business Development;Cursist;15 sep 2019 op 3:20;30:29:00
;;;;;
Sadaf Achakzai ;s.achakzai@greenchemistrycampus.com;Biobased Business Development;Cursist;17 apr op 16:32;02:30:16
;;;;;
Khalil Mohamned Ahmed AL-Romani ;Khalilalromani@gmail.com;Biobased Business Development;Cursist;27 sep 2019 op 14:18;04:25:29
;;;;;
Precious Aturu ;po.aturu@student.avans.nl;Biobased Business Development;Cursist;4 dec 2019 op 12:13;04:51:12
;;;;;
SUMON BHATTACHARYYA ;sumonindia@gmail.com;Biobased Business Development;Cursist;26 dec 2019 op 18:13;08:35
;;;;;
Priya Bhinde ;gisgr8.gg@gmail.com;Biobased Business Development;Cursist;18 apr op 7:11;02:12
;;;;;
nevin borden ;detroitvirtualcommunity@gmail.com;Biobased Business Development;Cursist;;
;;;;;
Steliyana Borisova ;bori0003@hz.nl;Biobased Business Development;Cursist;21 apr op 19:08;10:14:44
;;;;;
Joeri Brusselle ;joeri.brusselle@hogent.be;Biobased Business Development;Cursist;28 nov 2019 op 21:11;02:21
;;;;;
Vera Buyle ;vera.buyle@online.nl;Biobased Business Development;Cursist;21 okt 2019 op 17:51;02:47
;;;;;
Juan Pablo Gaviria Cardona ;jpgaviri@avans.nl;Biobased Business Development;Cursist;9 jan op 17:00;10:43:50
;;;;;
Carolien ;carolienboonen@hotmail.com;Biobased Business Development;Cursist;17 feb op 15:33;09:11
;;;;;
Ana Guillen Castello ;ap.guillencastello@avans.student.nl;Biobased Business Development;Cursist;9 okt 2019 op 13:37;19:14
;;;;;
Ana Patricia Guillén Castello ;anguca@edem.es;Biobased Business Development;Cursist;3 mrt op 13:51;02:10:59
;;;;;
Alexander Compeer ;ae.compeer@avans.nl;Biobased Business Development;Cursist;;
;;;;;
Gerson Cornejo ;cornejoreyes96@gmail.com;Biobased Business Development;Cursist;23 apr op 2:49;59:37:00
;;;;;
Joyce Hellen Sathya D ;joycehellensathyad@prathyusha.edu.in;Biobased Business Development;Cursist;4 apr op 17:13;
;;;;;
Tiarah de Doelder ;tiarahdd@gmail.com;Biobased Business Development;Cursist;31 okt 2019 op 0:00;
;;;;;
Mike van Dorsselaer ;mikevd1998@gmail.com;Biobased Business Development;Cursist;;
;;;;;
Nadia Felten ;nadiaf@live.nl;Biobased Business Development;Cursist;4 okt 2019 op 11:46;
;;;;;
Carlos Espiritu Garcia ;caesga@edem.es;Biobased Business Development;Cursist;2 dec 2019 op 18:01;13:58:53
;;;;;
Nicolas Geleijns ;nlggelei@avans.nl;Biobased Business Development;Cursist;6 dec 2019 op 18:14;02:52:49
;;;;;
Jia-Ying Guan ;jiaying.guan@gmail.com;Biobased Business Development;Cursist;11 jan op 20:31;
;;;;;
Lars de Haan ;lhaan@avans.nl;Biobased Business Development;Cursist;14 feb op 11:13;50:00:00
;;;;;
Melissa He ;m.he@student.avans.nl;Biobased Business Development;Cursist;9 nov 2019 op 17:00;01:03:03
;;;;;
Carmen Durán Hernández ;caduhe@edem.es;Biobased Business Development;Cursist;4 jan op 12:38;06:01:51
;;;;;
María Juárez Hervella ;mery.jh1@gmail.com;Biobased Business Development;Cursist;25 nov 2019 op 18:00;01:44:48
;;;;;
Victor Fides Hilla ;v.fideshilla@student.avans.nl;Biobased Business Development;Cursist;2 dec 2019 op 9:47;02:43:30
;;;;;
javierpeiro ;japepe@edem.es;Biobased Business Development;Cursist;5 dec 2019 op 15:25;02:33:02
;;;;;
Nick Jeronimus ;nickjeronimus@gmail.com;Biobased Business Development;Cursist;7 jan op 14:24;01:40:38
;;;;;
Cas Koopmans ;cjw.koopmans@student.avans.nl;Biobased Business Development;Cursist;13 dec 2019 op 13:04;02:47:03
;;;;;
Sander Kooremans ;s.kooremans@student.avans.nl;Biobased Business Development;Cursist;26 nov 2019 op 16:54;04:11:41
;;;;;
Jeroen Kraan ;jeroen.kraan@han.nl;Biobased Business Development;Cursist;11 sep 2019 op 15:54;
;;;;;
Ingmar Kreeft ;i.kreeft@student.avans.nl;Biobased Business Development;Cursist;28 nov 2019 op 12:24;06:01:15
;;;;;
Kacper Laskowski ;kd.laskowski@student.avans.nl;Biobased Business Development;Cursist;4 dec 2019 op 9:53;04:08:51
;;;;;
Kacper Laskowski ;kapiq7@gmail.com;Biobased Business Development;Cursist;;
;;;;;
Elitsa Lipovyanova ;elipovya@avans.nl;Biobased Business Development;Cursist;12 dec 2019 op 9:14;09:12:44
;;;;;
Anjo Luijben ;ahfluijb@avans.nl;Biobased Business Development;Cursist;2 dec 2019 op 15:34;05:34:15
;;;;;
Ella Meijer ;eme.meijer@student.avans.nl;Biobased Business Development;Cursist;11 sep 2019 op 16:29;54:03:00
;;;;;
Mariana Mendes e Mello ;mmello.mariana@gmail.com;Biobased Business Development;Cursist;14 okt 2019 op 22:40;07:06
;;;;;
Lars Middel ;lhjr.middel@student.avans.nl;Biobased Business Development;Cursist;31 jan op 14:38;07:03:22
;;;;;
Shabir Moghal ;Sam_mk@hotmail.com;Biobased Business Development;Cursist;25 nov 2019 op 10:23;01:14:55
;;;;;
Carlos Lopez Moreno ;cm.lopez@student.avans.nl;Biobased Business Development;Cursist;6 dec 2019 op 22:22;04:26:32
;;;;;
Deep Narang ;visit.deep.narang@gmail.com;Biobased Business Development;Cursist;17 nov 2019 op 20:22;08:41
;;;;;
Rob Nuijten ;rteanuij@avans.nl;Biobased Business Development;Cursist;4 jan op 15:16;05:33:19
;;;;;
Eghe Oze Obanor ;egheoze@yahoo.com;Biobased Business Development;Cursist;26 jan op 14:05;
;;;;;
Bart de Raad ;bj.deraad@student.avans.nl;Biobased Business Development;Cursist;6 jan op 10:12;02:48:11
;;;;;
Jagos Radovic ;jagos.radovic@ucalgary.ca;Biobased Business Development;Cursist;21 apr op 16:07;05:40:15
;;;;;
Krystyna Rauliuk ;rau.krystyna@yahoo.com;Biobased Business Development;Cursist;21 okt 2019 op 22:04;
;;;;;
Stefan Rietbergen ;sf.rietbergen@student.avans.nl;Biobased Business Development;Cursist;4 dec 2019 op 12:07;03:38:27
;;;;;
Valerie de Rooij ;dew.derooij@student.avans.nl;Biobased Business Development;Cursist;17 dec 2019 op 16:57;14:52:12
;;;;;
Eli van Rooijen ;eam.vanrooijen2@student.avans.nl;Biobased Business Development;Cursist;23 jan op 4:04;
;;;;;
Rashidul Sadi ;rashidul.sadi@gmail.com;Biobased Business Development;Cursist;10 feb op 7:35;
;;;;;
Lilian Slusarek ;l.slusarek@student.avans.nl;Biobased Business Development;Cursist;17 dec 2019 op 11:53;07:51:05
;;;;;
Sien Strauven ;s.strauven@student.avans.nl;Biobased Business Development;Cursist;8 dec 2019 op 15:15;06:05:31
;;;;;
Daria Surnacheva ;ds.surnacheva@student.avans.nl;Biobased Business Development;Cursist;26 nov 2019 op 15:39;08:00:51
;;;;;
Nine Thijssen ;n.thijssen2@student.avans.nl;Biobased Business Development;Cursist;20 jan op 18:40;03:31:46
;;;;;
Ricky Thijssen ;rj.thijssen@gmail.com;Biobased Business Development;Cursist;28 jan op 23:33;01:25:55
;;;;;
ricky julian thijssen ;rj.thijssen@student.avans.nl;Biobased Business Development;Cursist;27 nov 2019 op 23:40;23:43
;;;;;
Ferran Todoli ;f.todoligil@student.avans.nl;Biobased Business Development;Cursist;5 dec 2019 op 14:03;02:28:13
;;;;;
pablo garcia verdu ;pabletegv@gmail.com;Biobased Business Development;Cursist;19 jan op 23:09;06:18:52
;;;;;
PABLO GARCÍA VERDU ;pagave@edem.es;Biobased Business Development;Cursist;25 sep 2019 op 11:58;
;;;;;
Ivo Verhaar ;iverhaar@avans.nl;Biobased Business Development;Cursist;29 feb op 13:37;02:27:07
;;;;;
Stefan Vonk ;sp.vonk@student.avans.nl;Biobased Business Development;Cursist;26 jan op 22:40;16:56
;;;;;
Miquel Duran Ylla-Catala ;m.duranylla-catala@student.avans.nl;Biobased Business Development;Cursist;6 jan op 20:00;04:59:03
