name,id,sis_id,section,section_id,section_sis_id,submitted,attempt,68175648: How many hours did you spend on this course?,1.0,"68175650: 
I think the general information (homepage  introduction) about the course is … Please rate on a scale of 1–5 which answer suits you best.
Number 1 means not clear at all, and 5 means very clear. 
",1.0,"68175652: The information in the MOOC fits my knowledge level. Please rate on a scale 1–5. Number 1 means does not fit at all, and 5 means that it fits you very well.",1.0,"68175654: 
The following questions are about the different modules in the MOOC.
I have learned ....... from the information in the videolectures.  Please rate on a scale from 1–5 what you have learned from the videolectures.
Number 1 is nothing at all and 5 indicates  I have learned a lot.
",1.0,"68175656: If you answered 1 or 2 in the previous question, can you please explain why you did not learn enough in the videolectures?",1.0,"68175658: 
I think the quality of these resources is .... ? Please rate a scale of 1–5 what you think of the resources.
Number 1 means very bad, and 5 means very good.
",1.0,68175661: I think the number of resources is….,1.0,"68175664: 
I think that these discussions were ... useful. Please rate on a scale of 1–5.
Number 1 indicates that it is not useful at all, and 5 indicates that it is very useful.  
",1.0,"68175667: If you answered 1 or 2 in the previous question, please explain to us why you think that the discussion elements were not useful at all or not so useful. ",1.0,"68175670: 
I think that I have learned .... by doing the quizzes. Please rate on a scale of 1–5.
Number 1 means that you have not learned anything and 5 means that you have learned a lot by doing these quizzes. 
",1.0,"68175672: If you answered 1 or 2 in the previous question, please explain to us why you have not learned enough by doing these quizzes. ",1.0,68175675: The assignment in this course helped me to process the learning content of this MOOC. ,1.0,"68175677: 
By following this MOOC, you have experienced online learning.
What do you prefer? 
",1.0,"68175679: Final question: how would you rate this MOOC Biobased Business Development?
Please rate on a scale of 1-10. Number 1 as the lowest score and 10 as the highest score. 
 
Thank you very much for your contribution to this survey! ",1.0,68175681: Do you have suggestions to improve this MOOC?,1.0,"68175683: 
Now some personal questions follow.
In which country do you live?
",0.0,68175685: Please fill in your postal code of your place of residency.,1.0,68175687: How old are you?,1.0,68175689: Are you … ?,1.0,"68175692: IF you answered 'student' in the previous question continue here. Otherwise, skip this question.As a student  I followed this MOOC because of the fact that ... :",1.0,"68175694: IF you answered 'working professional' in the question above, continue here. Otherwise, skip this question.As a working professional I followed this MOOC because of the fact that ... :",1.0,68175696: IF you answered 'working professional' please let us know for which company you work for: ,1.0,n correct,n incorrect,score
Steliyana Borisova ,25028497,,Biobased Business Development,1726685,"",2020-04-05 15:35:19 UTC,1,21-30 hours,0.0,4,0.0,4,0.0,4,0.0,i did not answer 1 or 2,0.0,3,0.0,Enough,0.0,4,0.0,"",0.0,4,0.0,"",0.0,Enough,0.0,Following this MOOC online in combination with classroom activities.,0.0,7,0.0,"",0.0,Bulgaria,0.0,9000,0.0,19-24,0.0,a student,1.0,it enables me to earn elective study points,0.0,other,0.0,"",0.0,7,15,1.0
Jagos Radovic,24589690,,Biobased Business Development,1726685,"",2020-03-21 22:49:40 UTC,1,11-20 hours,0.0,5,0.0,5,0.0,4,0.0,na,0.0,5,0.0,Good,0.0,3,0.0,na,0.0,4,0.0,na,0.0,Enough,0.0,Following this MOOC independently.,1.0,9,0.0,na,0.0,Canada,0.0,T2N2J9,0.0,35-44,0.0,a working professional,0.0,"",0.0,it .... my own interest / voluntary ....,0.0,"",1.0,8,14,2.0
Lars de Haan ,25374560,,Biobased Business Development,1726685,"",2020-02-14 10:11:30 UTC,1,21-30 hours,0.0,3,0.0,3,0.0,3,0.0,"",0.0,3,0.0,Good,0.0,3,0.0,"",0.0,3,0.0,"",0.0,Enough,0.0,Following this MOOC online in combination with classroom activities.,0.0,8,0.0,"",0.0,"",0.0,"",0.0,19-24,0.0,a student,1.0,it enables me to earn elective study points,0.0,"",0.0,"",0.0,7,15,1.0
Ana Patricia Guillén Castello,25219035,,Biobased Business Development,1726685,"",2020-01-21 17:17:40 UTC,1,11-20 hours,0.0,4,0.0,3,0.0,3,0.0,"",0.0,4,0.0,Good,0.0,4,0.0,"",0.0,4,0.0,"",0.0,Enough,0.0,Following this MOOC independently.,1.0,8,0.0,"",0.0,I live in Spain ,0.0,46015,0.0,19-24,0.0,a student,1.0,it is a part of my study programme,1.0,"",0.0,"",0.0,9,13,3.0
Ivo Verhaar,24658033,,Biobased Business Development,1726685,"",2020-01-20 18:32:21 UTC,1,5-10 hours,1.0,4,0.0,4,0.0,3,0.0,"",0.0,4,0.0,Good,0.0,3,0.0,"",0.0,3,0.0,"",0.0,Enough,0.0,No preference,0.0,7,0.0,no,0.0,Netherlands,0.0,I dont want to.,0.0,19-24,0.0,a student,1.0,it is a part of my study programme,1.0,"",0.0,"",0.0,9,13,3.0
Stefan Rietbergen,24710397,,Biobased Business Development,1726685,"",2019-11-09 09:20:49 UTC,1,21-30 hours,0.0,4,0.0,3,0.0,4,0.0,"",0.0,4,0.0,Too much,0.0,3,0.0,"",0.0,3,0.0,"",0.0,Enough,0.0,Following this MOOC independently.,1.0,7,0.0,"",0.0,Netherlands,0.0,4811VK,0.0,25-34,0.0,a student,1.0,it is a part of my study programme,1.0,"",0.0,"",0.0,9,13,3.0
Precious Aturu,24690844,,Biobased Business Development,1726685,"",2019-10-27 20:58:31 UTC,1,11-20 hours,0.0,4,0.0,5,0.0,5,0.0,"",0.0,5,0.0,Good,0.0,3,0.0,"",0.0,5,0.0,"",0.0,Enough,0.0,Following this MOOC independently.,1.0,9,0.0,"",0.0,The Netherlands,0.0,1315LG,0.0,19-24,0.0,a student,1.0,it is a part of my study programme,1.0,"",0.0,"",0.0,9,13,3.0
Bart de Raad,24925689,,Biobased Business Development,1726685,"",2019-10-27 19:55:15 UTC,1,5-10 hours,1.0,4,0.0,4,0.0,4,0.0,.,0.0,4,0.0,Enough,0.0,4,0.0,.,0.0,4,0.0,.,0.0,Enough,0.0,Following this MOOC independently.,1.0,7,0.0,"Improve the enquete. The previous question stated: the final question: .......

While this is question 15 out of 22 :)",0.0,netherlands,0.0,4817AB,0.0,19-24,0.0,a student,1.0,it is a part of my study programme,1.0,"",0.0,"",0.0,10,12,4.0
Rob Nuijten,24939090,,Biobased Business Development,1726685,"",2019-10-27 15:15:52 UTC,1,11-20 hours,0.0,4,0.0,4,0.0,5,0.0,"",0.0,4,0.0,Enough,0.0,3,0.0,"",0.0,4,0.0,"",0.0,Enough,0.0,Following this MOOC online in combination with classroom activities.,0.0,8,0.0,"There are some mistakes in the questions, and also the question sometimes are a bit misleading or weirdly put.",0.0,Netherlands,0.0,"",0.0,25-34,0.0,a student,1.0,it is a part of my study programme,1.0,"",0.0,"",0.0,8,14,2.0
Miquel Duran Ylla-Catala,24504037,,Biobased Business Development,1726685,"",2019-10-26 16:24:26 UTC,1,21-30 hours,0.0,4,0.0,4,0.0,5,0.0,"",0.0,4,0.0,Too much,0.0,4,0.0,"",0.0,4,0.0,"",0.0,Very good,0.0,Following this MOOC online in combination with classroom activities.,0.0,9,0.0,No. Maybe some videos too longers. ,0.0,"Barcelona, Spain.",0.0,08500 Vic,0.0,19-24,0.0,a student,1.0,it is a part of my study programme,1.0,"",0.0,"",0.0,8,14,2.0
Victor Fides Hilla,24504044,,Biobased Business Development,1726685,"",2019-10-26 16:11:56 UTC,1,21-30 hours,0.0,4,0.0,4,0.0,3,0.0,"",0.0,4,0.0,Good,0.0,4,0.0,"",0.0,3,0.0,"",0.0,Enough,0.0,Following this MOOC independently.,1.0,7,0.0,"",0.0,Spain,0.0,"",0.0,19-24,0.0,a student,1.0,it is a part of my study programme,1.0,"",0.0,"",0.0,9,13,3.0
Cas Koopmans,24683219,,Biobased Business Development,1726685,"",2019-10-25 12:16:56 UTC,1,31-40 hours,0.0,4,0.0,2,0.0,3,0.0,"",0.0,4,0.0,Enough,0.0,3,0.0,"",0.0,3,0.0,"",0.0,Not enough,1.0,Following this MOOC independently.,1.0,6,0.0,It was a bit too hard for me.,0.0,Netherlands,0.0,Tilburg,0.0,19-24,0.0,a student,1.0,it is a part of my study programme,1.0,"",0.0,"",0.0,10,12,4.0
Carmen Durán Hernández,24711233,,Biobased Business Development,1726685,"",2019-10-24 15:47:31 UTC,1,21-30 hours,0.0,5,0.0,2,0.0,5,0.0,"",0.0,3,0.0,Too much,0.0,4,0.0,"",0.0,4,0.0,"",0.0,Enough,0.0,No preference,0.0,7,0.0,"",0.0,"I am from Valencia, Spain but I am currently studying in Breda, Netherlands.",0.0,"Spain: 46018 Valencia

Netherlands: 4728 AE Breda",0.0,19-24,0.0,a student,1.0,it is a part of my study programme,1.0,"",0.0,"",0.0,8,14,2.0
Anjo Luijben,24657600,,Biobased Business Development,1726685,"",2019-10-23 22:19:48 UTC,1,21-30 hours,0.0,4,0.0,3,0.0,3,0.0,"",0.0,3,0.0,Enough,0.0,4,0.0,"",0.0,4,0.0,"",0.0,Enough,0.0,Following this MOOC independently.,1.0,6,0.0,"in the assignment of the MOOC, some questions were really bad. I couldn't distinguish what needed to be answered exactly. this didn't help a lot whilst answering the questions in the best of my abilities. some questions had question marks but i didnt feel i was reading a question.  ",0.0,the Netherlands ,0.0,4814 HE,0.0,19-24,0.0,a student,1.0,it is a part of my study programme,1.0,"",0.0,"",0.0,9,13,3.0
Nine Thijssen,24504013,,Biobased Business Development,1726685,"",2019-10-23 16:10:30 UTC,1,11-20 hours,0.0,3,0.0,3,0.0,3,0.0,"",0.0,4,0.0,Enough,0.0,4,0.0,"",0.0,3,0.0,"",0.0,Enough,0.0,Following this MOOC independently.,1.0,7,0.0,"",0.0,The Netherlands,0.0,5388PB,0.0,19-24,0.0,a student,1.0,it is a part of my study programme,1.0,"",0.0,"",0.0,9,13,3.0
Ferran Todoli,24865910,,Biobased Business Development,1726685,"",2019-10-23 12:10:07 UTC,1,31-40 hours,0.0,4,0.0,5,0.0,4,0.0,"",0.0,4,0.0,Good,0.0,5,0.0,"",0.0,4,0.0,"",0.0,Very good,0.0,No preference,0.0,9,0.0,"",0.0,Spain,0.0,46010,0.0,19-24,0.0,a student,1.0,it is a part of my study programme,1.0,"",0.0,"",0.0,8,14,2.0
María Juárez Hervella,24902342,,Biobased Business Development,1726685,"",2019-10-23 12:06:12 UTC,1,11-20 hours,0.0,4,0.0,4,0.0,4,0.0,"",0.0,5,0.0,Good,0.0,4,0.0,"",0.0,4,0.0,"",0.0,Very good,0.0,No preference,0.0,8,0.0,"",0.0,Netherlands,0.0,4817 KZ,0.0,19-24,0.0,a student,1.0,it is a part of my study programme,1.0,"",0.0,"",0.0,8,14,2.0
Juan Pablo Gaviria Cardona,24504025,,Biobased Business Development,1726685,"",2019-10-22 21:46:25 UTC,1,11-20 hours,0.0,4,0.0,4,0.0,3,0.0,"",0.0,4,0.0,Good,0.0,3,0.0,"",0.0,3,0.0,"",0.0,Very good,0.0,Following this MOOC online in combination with classroom activities.,0.0,7,0.0,"",0.0,"",0.0,"",0.0,19-24,0.0,a student,1.0,it is a part of my study programme,1.0,"",0.0,"",0.0,8,14,2.0
Daria Surnacheva,24504020,,Biobased Business Development,1726685,"",2019-10-20 08:42:49 UTC,1,more than 40 hours,0.0,5,0.0,4,0.0,4,0.0,"",0.0,4,0.0,Too much,0.0,3,0.0,"",0.0,2,0.0,"Some of the quizzes were done wrongly. Some had responses that didn't appear like ""text inserted"" or other questions had the wrong question in it. In one module the question was incomplete and incomprehensible and in another, the question was the explanation to the next question. ",0.0,Enough,0.0,Following this MOOC independently.,1.0,7,0.0,"It's a little bit to extensive, there are too many resources in some modules that discourage to read the whole thing. ",0.0,"Breda, Holland",0.0,4811EP,0.0,19-24,0.0,a student,1.0,it is a part of my study programme,1.0,"",0.0,"",0.0,9,13,3.0
Sander Kooremans,24668956,,Biobased Business Development,1726685,"",2019-10-18 08:09:36 UTC,1,21-30 hours,0.0,4,0.0,4,0.0,3,0.0,"",0.0,4,0.0,Good,0.0,3,0.0,"",0.0,4,0.0,"",0.0,Very good,0.0,Following this MOOC independently.,1.0,7,0.0,SHorten the intro tune for each lecture because right now I found them very long and unnecessary.,0.0,The Netherlands,0.0,4714RT,0.0,19-24,0.0,a student,1.0,it is a part of my study programme,1.0,"",0.0,"",0.0,9,13,3.0
Carlos Lopez Moreno,24504035,,Biobased Business Development,1726685,"",2019-10-12 09:01:11 UTC,1,11-20 hours,0.0,4,0.0,5,0.0,4,0.0,"",0.0,4,0.0,Good,0.0,4,0.0,"",0.0,3,0.0,"",0.0,Enough,0.0,"",0.0,8,0.0,"",0.0,"",0.0,"",0.0,19-24,0.0,a student,1.0,it is a part of my study programme,1.0,it is part of a training programme of my employer,1.0,"",0.0,9,13,3.0
pablo garcia verdu,24712210,,Biobased Business Development,1726685,"",2019-10-09 09:18:28 UTC,1,21-30 hours,0.0,4,0.0,4,0.0,4,0.0,"I think this videos are a bit long for me, but if you pay attention to all the concepts and the explenations you can understand it. It has been usefull for me, a new way to complete a course",0.0,5,0.0,Good,0.0,5,0.0,I consider that discussion about anything is allways useful. Is a really good way to understand deeply the concepts and also the different ways of view.,0.0,5,0.0,"",0.0,Very good,0.0,Following this MOOC online in combination with classroom activities.,0.0,7,0.0,Try to follow more the explainations in class about the concepts teached in the moocs from the videos.,0.0,SPAIN,0.0,4811KD,0.0,19-24,0.0,a student,1.0,it is a part of my study programme,1.0,"",0.0,"",0.0,8,14,2.0
Carlos Espiritu Garcia,24707372,,Biobased Business Development,1726685,"",2019-10-08 10:26:12 UTC,1,5-10 hours,1.0,4,0.0,5,0.0,4,0.0,-,0.0,3,0.0,Good,0.0,4,0.0,-,0.0,4,0.0,-,0.0,Enough,0.0,Following this MOOC online in combination with classroom activities.,0.0,8,0.0,-,0.0,Netherland,0.0,4827 AE,0.0,19-24,0.0,a student,1.0,it is a part of my study programme,1.0,"",0.0,"",0.0,9,13,3.0
Elitsa Lipovyanova,24650107,,Biobased Business Development,1726685,"",2019-10-04 18:27:06 UTC,1,more than 40 hours,0.0,5,0.0,5,0.0,5,0.0,"",0.0,4,0.0,Enough,0.0,4,0.0,"",0.0,4,0.0,"",0.0,Very good,0.0,No preference,0.0,9,0.0,"",0.0,Netherlands,0.0,"4814GD, Breda, the Netherlands",0.0,19-24,0.0,a student,1.0,it is a part of my study programme,1.0,"",0.0,"",0.0,8,14,2.0
Sien Strauven,24504015,,Biobased Business Development,1726685,"",2019-10-04 14:45:28 UTC,1,11-20 hours,0.0,4,0.0,4,0.0,5,0.0,"",0.0,4,0.0,Good,0.0,5,0.0,"",0.0,4,0.0,"",0.0,Enough,0.0,No preference,0.0,8,0.0,"Update the resource liks, some of them did not excist anymore.",0.0,Belgium,0.0,"2640, Mortsel",0.0,19-24,0.0,a student,1.0,it is a part of my study programme,1.0,"",0.0,"",0.0,8,14,2.0
Khalil Mohamned Ahmed AL-Romani ,24780366,,Biobased Business Development,1726685,"",2019-09-27 12:18:01 UTC,1,11-20 hours,0.0,4,0.0,4,0.0,5,0.0,"",0.0,4,0.0,Enough,0.0,4,0.0,"",0.0,5,0.0,"",0.0,Enough,0.0,Following this MOOC independently.,1.0,8,0.0,Fair enough ,0.0,Far the main time i do live in Yemen ,0.0,967,0.0,19-24,0.0,a student,1.0,it enables me to earn elective study points,0.0,"",0.0,"",0.0,9,13,2.0
"","","","","","",2019-10-22 16:36:51 UTC,1,21-30 hours,0.0,5,0.0,4,0.0,4,0.0,"",0.0,4,0.0,Good,0.0,4,0.0,"",0.0,5,0.0,"",0.0,Very good,0.0,Following this MOOC online in combination with classroom activities.,0.0,7,0.0,"",0.0,SPAIN,0.0,4811KD,0.0,19-24,0.0,a student,1.0,it is a part of my study programme,1.0,"",0.0,"",0.0,8,14,2.0
