name,id,sis_id,root_account,section,section_id,section_sis_id,submitted,attempt,68175635: How many hours did you spend on this course?,1.0,"68175636: 
I think the general information (homepage  introduction) about the course is … Please rate on a scale of 1–5 which answer suits you best.
Number 1 means not clear at all, and 5 means very clear. 
",1.0,"68175637: The information in the MOOC fits my knowledge level. Please rate on a scale 1–5. Number 1 means does not fit at all, and 5 means that it fits you very well.",1.0,"68175638: 
The following questions are about the different modules in the MOOC.
I have learned ....... from the information in the videolectures.  Please rate on a scale from 1–5 what you have learned from the videolectures.
Number 1 is nothing at all and 5 indicates  I have learned a lot.
",1.0,"68175639: If you answered 1 or 2 in the previous question, can you please explain why you did not learn enough in the videolectures?",1.0,"68175640: 
I think the quality of these resources is .... ? Please rate a scale of 1–5 what you think of the resources.
Number 1 means very bad, and 5 means very good.
",1.0,68175641: I think the number of resources is….,1.0,"68175642: 
I think that these discussions were ... useful. Please rate on a scale of 1–5.
Number 1 indicates that it is not useful at all, and 5 indicates that it is very useful.  
",1.0,"68175643: If you answered 1 or 2 in the previous question, please explain to us why you think that the discussion elements were not useful at all or not so useful. ",1.0,"68175644: 
I think that I have learned .... by doing the quizzes. Please rate on a scale of 1–5.
Number 1 means that you have not learned anything and 5 means that you have learned a lot by doing these quizzes. 
",1.0,"68175645: If you answered 1 or 2 in the previous question, please explain to us why you have not learned enough by doing these quizzes. ",1.0,68175646: The assignment in this course helped me to process the learning content of this MOOC. ,1.0,"68175647: 
By following this MOOC, you have experienced online learning.
What do you prefer? 
",1.0,"68175649: Final question: how would you rate this MOOC  Think Biobased?
Please rate on a scale of 1-10. Number 1 as the lowest score and 10 as the highest score. 
 
Thank you very much for your contribution to this survey! ",1.0,68175651: Do you have suggestions to improve this MOOC?,1.0,"68175653: 
Now some personal questions follow.
In which country do you live?
",0.0,68175655: Please fill in your postal code of your place of residency.,1.0,68175657: How old are you?,1.0,68175659: Are you … ?,1.0,"68175662: IF you answered 'student' in the previous question continue here. Otherwise, skip this question.As a student  I followed this MOOC because of the fact that ... :",1.0,"68175665: IF you answered 'working professional' in the question above, continue here. Otherwise, skip this question.As a working professional I followed this MOOC because of the fact that ... :",1.0,68175668: IF you answered 'working professional' please let us know for which company you work for: ,1.0,n correct,n incorrect,score
Kevin van Andel,26461563,,,Your Guided Course Template,1721887,"",2020-05-03 16:46:58 UTC,1,11-20 hours,0.0,4,0.0,5,0.0,4,0.0,x,0.0,5,0.0,Good,0.0,3,0.0,x,0.0,5,0.0,x,0.0,Enough,0.0,No preference,0.0,8,0.0,no,0.0,Netherlands,0.0,4284VP,0.0,19-24,0.0,a student,1.0,it enables me to earn elective study points,0.0,other,0.0,x,0.0,8,14,1.0
Romano van Bers,24502607,,,Your Guided Course Template,1721887,"",2020-04-08 09:15:41 UTC,1,11-20 hours,0.0,4,0.0,4,0.0,5,0.0,/,0.0,4,0.0,Good,0.0,4,0.0,/,0.0,5,0.0,/,0.0,Very good,0.0,Following this MOOC independently.,1.0,8,0.0,"Maybe it is an idea to give more resources in the form of videos, instead of a lot of documents. I personally think that people are more concentrated when the watch some videos, instead of reading some large documents. ",0.0,The Netherlands,0.0,4651 RJ Steenbergen,0.0,13-18,1.0,a student,1.0,it enables me to earn elective study points,0.0,other,0.0,/,0.0,10,12,3.0
Sidra Badar,24743171,,,Your Guided Course Template,1721887,"",2020-04-01 21:21:37 UTC,1,5-10 hours,1.0,4,0.0,4,0.0,4,0.0,"Internet issues, but I learnt a lot because transcript was available.",0.0,4,0.0,Good,0.0,2,0.0,"",0.0,4,0.0,"",0.0,Enough,0.0,Following this MOOC online in combination with classroom activities.,0.0,9,0.0,Don't put a restriction of video assignment; there can be number of reasons why one might not be able to upload a video.,0.0,Pakistan,0.0,54000,0.0,25-34,0.0,a working professional,0.0,it enables me to earn elective study points,0.0,it .... my own interest / voluntary ....,0.0,I'm an English Lecturer but I volunteer with local government,0.0,8,14,1.0
Lisa Renee van Haften,24632901,,,Your Guided Course Template,1721887,"",2020-02-07 13:52:22 UTC,1,11-20 hours,0.0,4,0.0,4,0.0,5,0.0,"",0.0,3,0.0,Enough,0.0,3,0.0,"",0.0,3,0.0,"",0.0,Enough,0.0,Following this MOOC independently.,1.0,7,0.0,some resourses took a long time to read and in some modules the number of resoursed was quite high. this could be reduced which makes it easier to read. ,0.0,netherlands ,0.0,"5363 TP, Velp (nb). ",0.0,13-18,1.0,a student,1.0,it enables me to earn elective study points,0.0,"",0.0,"",0.0,10,12,3.0
Ivo Verhaar,24658033,,,Your Guided Course Template,1721887,"",2020-01-22 19:00:00 UTC,1,11-20 hours,0.0,4,0.0,4,0.0,4,0.0,"",0.0,4,0.0,Good,0.0,4,0.0,"",0.0,4,0.0,"",0.0,Enough,0.0,No preference,0.0,8,0.0,NA,0.0,Netherlands,0.0,Prefer not too,0.0,19-24,0.0,a student,1.0,it is a part of my study programme,1.0,other,0.0,"",0.0,9,13,2.0
Stefan Rietbergen,24710397,,,Your Guided Course Template,1721887,"",2019-11-05 09:14:47 UTC,1,21-30 hours,0.0,5,0.0,3,0.0,4,0.0,"",0.0,3,0.0,Enough,0.0,3,0.0,"",0.0,3,0.0,"",0.0,Enough,0.0,Following this MOOC independently.,1.0,7,0.0,"",0.0,Netherlands,0.0,4811VK,0.0,25-34,0.0,a student,1.0,it is a part of my study programme,1.0,other,0.0,"",0.0,10,12,3.0
Mitja Bukovec,24937499,,,Your Guided Course Template,1721887,"",2019-10-25 22:19:29 UTC,1,5-10 hours,1.0,5,0.0,5,0.0,5,0.0,na,0.0,5,0.0,Good,0.0,4,0.0,na,0.0,4,0.0,na,0.0,Very good,0.0,No preference,0.0,10,0.0,na,0.0,Slovenia,0.0,Novo mesto,0.0,35-44,0.0,a working professional,0.0,"",0.0,it .... my own interest / voluntary ....,0.0,ngo,0.0,8,14,1.0
Nick den Bol,24710976,,,Your Guided Course Template,1721887,"",2019-10-20 09:03:34 UTC,1,11-20 hours,0.0,4,0.0,4,0.0,4,0.0,-,0.0,3,0.0,Good,0.0,3,0.0,-,0.0,4,0.0,-,0.0,Very good,0.0,Following this MOOC independently.,1.0,7,0.0,In my opinion some of the modules are focusing a little to much on the science/chemistry part. I think it is better to keep those modules more shallow.,0.0,The Netherlands,0.0,5305CK,0.0,19-24,0.0,a student,1.0,it enables me to earn elective study points,0.0,"",0.0,-,0.0,9,13,2.0
Kacper Laskowski,24504023,,,Your Guided Course Template,1721887,"",2019-10-18 11:53:17 UTC,1,11-20 hours,0.0,4,0.0,5,0.0,4,0.0,"",0.0,4,0.0,Too much,0.0,4,0.0,"",0.0,3,0.0,"",0.0,Not enough,1.0,Following this MOOC independently.,1.0,6,0.0,Not really,0.0,Poland,0.0,4811KC,0.0,19-24,0.0,a student,1.0,it is a part of my study programme,1.0,"",0.0,"",0.0,11,11,4.0
Ferran Todoli,24865910,,,Your Guided Course Template,1721887,"",2019-10-18 10:45:33 UTC,1,31-40 hours,0.0,4,0.0,4,0.0,4,0.0,"",0.0,5,0.0,Good,0.0,4,0.0,"",0.0,5,0.0,"",0.0,Very good,0.0,No preference,0.0,8,0.0,"",0.0,Spain,0.0,46010,0.0,19-24,0.0,a student,1.0,it is a part of my study programme,1.0,"",0.0,"",0.0,9,13,2.0
Carmen Durán Hernández,24711233,,,Your Guided Course Template,1721887,"",2019-10-17 23:51:07 UTC,1,11-20 hours,0.0,5,0.0,5,0.0,5,0.0,"",0.0,5,0.0,Enough,0.0,5,0.0,"",0.0,5,0.0,"",0.0,Very good,0.0,Following this MOOC independently.,1.0,8,0.0,"",0.0,"I am from Spain, but I am studying in Breda, Netherlands.",0.0,"",0.0,19-24,0.0,a student,1.0,it is a part of my study programme,1.0,"",0.0,"",0.0,10,12,3.0
Anjo Luijben,24657600,,,Your Guided Course Template,1721887,"",2019-10-17 18:16:35 UTC,1,21-30 hours,0.0,3,0.0,3,0.0,4,0.0,"",0.0,5,0.0,Too much,0.0,3,0.0,sometimes there were a lot of sources and other times there were was barely a source to be found. ,0.0,5,0.0,"",0.0,Enough,0.0,Following this MOOC independently.,1.0,8,0.0,"No, the MOOC is good the way it is for me. ",0.0,the Netherlands ,0.0,4814 HE,0.0,19-24,0.0,a student,1.0,it is a part of my study programme,1.0,"",0.0,"",0.0,10,12,3.0
Cas Koopmans,24683219,,,Your Guided Course Template,1721887,"",2019-10-17 12:06:18 UTC,1,21-30 hours,0.0,4,0.0,4,0.0,5,0.0,"",0.0,4,0.0,Good,0.0,1,1.0,I think the discussion is a waste of time because it doesn't really add something to learning something. It is better to have a few more questions in the quiz.,0.0,4,0.0,"",0.0,Enough,0.0,Following this MOOC independently.,1.0,7,0.0,"",0.0,The Netherlands,0.0,5036TG,0.0,19-24,0.0,a student,1.0,it is a part of my study programme,1.0,"",0.0,"",0.0,11,11,4.0
Ingmar Kreeft,24657579,,,Your Guided Course Template,1721887,"",2019-10-16 19:53:20 UTC,1,5-10 hours,1.0,5,0.0,2,0.0,2,0.0,My previous schooling (Biobased Technology and Chemistry) already covered most of this course. ,0.0,4,0.0,Good,0.0,5,0.0,"",0.0,2,0.0,My previous schooling (Biobased Technology and Chemistry) already covered most of this course. ,0.0,Enough,0.0,Following this MOOC independently.,1.0,8,0.0,None,0.0,The Netherlands,0.0,4816JN,0.0,19-24,0.0,a student,1.0,it is a part of my study programme,1.0,"",0.0,"",0.0,11,11,4.0
Sien Strauven,24504015,,,Your Guided Course Template,1721887,"",2019-10-16 17:44:26 UTC,1,21-30 hours,0.0,5,0.0,5,0.0,5,0.0,"",0.0,5,0.0,Good,0.0,5,0.0,"",0.0,4,0.0,"",0.0,Very good,0.0,No preference,0.0,10,0.0,"",0.0,Belgium,0.0,2640 ,0.0,19-24,0.0,a student,1.0,it is a part of my study programme,1.0,"",0.0,"",0.0,9,13,2.0
pablo garcia verdu,24712210,,,Your Guided Course Template,1721887,"",2019-10-12 16:59:15 UTC,1,11-20 hours,0.0,5,0.0,5,0.0,5,0.0,"",0.0,4,0.0,Good,0.0,5,0.0,"",0.0,4,0.0,"",0.0,Very good,0.0,Following this MOOC online in combination with classroom activities.,0.0,9,0.0,TRY TO FOCUS THE CLASSES IN THIS TYPE OF MOOCS,0.0,SPAIN,0.0,4811 DK,0.0,19-24,0.0,a student,1.0,it is a part of my study programme,1.0,"",0.0,"",0.0,9,13,2.0
Carlos Espiritu Garcia,24707372,,,Your Guided Course Template,1721887,"",2019-10-11 18:32:44 UTC,1,11-20 hours,0.0,4,0.0,4,0.0,4,0.0,-,0.0,5,0.0,Good,0.0,5,0.0,-,0.0,5,0.0,-,0.0,Enough,0.0,Following this MOOC online in combination with classroom activities.,0.0,8,0.0,-,0.0,Netherlands,0.0,4827 AE,0.0,19-24,0.0,a student,1.0,it is a part of my study programme,1.0,"",0.0,"",0.0,9,13,2.0
Precious Aturu,24690844,,,Your Guided Course Template,1721887,"",2019-10-11 16:04:03 UTC,1,21-30 hours,0.0,5,0.0,5,0.0,5,0.0,"",0.0,5,0.0,Good,0.0,4,0.0,"",0.0,5,0.0,"",0.0,Very good,0.0,Following this MOOC independently.,1.0,9,0.0,"",0.0,The Netherlands ,0.0,1315LG,0.0,19-24,0.0,a student,1.0,it is a part of my study programme,1.0,"",0.0,"",0.0,10,12,3.0
Carlos Lopez Moreno,24504035,,,Your Guided Course Template,1721887,"",2019-10-08 20:58:07 UTC,1,11-20 hours,0.0,5,0.0,4,0.0,5,0.0,"",0.0,4,0.0,Good,0.0,4,0.0,"",0.0,5,0.0,"",0.0,Very good,0.0,No preference,0.0,8,0.0,"",0.0,"",0.0,"",0.0,19-24,0.0,a student,1.0,it is a part of my study programme,1.0,it .... my own interest / voluntary ....,0.0,"",0.0,9,13,2.0
Juan Pablo Gaviria Cardona,24504025,,,Your Guided Course Template,1721887,"",2019-10-06 11:56:31 UTC,1,11-20 hours,0.0,3,0.0,3,0.0,4,0.0,-,0.0,5,0.0,Enough,0.0,3,0.0,-,0.0,3,0.0,-,0.0,Enough,0.0,Following this MOOC online in combination with classroom activities.,0.0,7,0.0,-,0.0,The netherlands,0.0,4811,0.0,19-24,0.0,a student,1.0,it is a part of my study programme,1.0,"",0.0,"",0.0,9,13,2.0
Daria Surnacheva,24504020,,,Your Guided Course Template,1721887,"",2019-10-05 18:23:02 UTC,1,21-30 hours,0.0,5,0.0,5,0.0,5,0.0,"",0.0,4,0.0,Good,0.0,3,0.0,"",0.0,4,0.0,"",0.0,Very good,0.0,Following this MOOC independently.,1.0,9,0.0,"",0.0,Spain,0.0,08904,0.0,19-24,0.0,a student,1.0,it is a part of my study programme,1.0,"",0.0,"",0.0,10,12,3.0
Victor Fides Hilla,24504044,,,Your Guided Course Template,1721887,"",2019-10-05 10:55:01 UTC,1,11-20 hours,0.0,4,0.0,3,0.0,3,0.0,"",0.0,3,0.0,Good,0.0,4,0.0,"",0.0,3,0.0,"",0.0,Enough,0.0,No preference,0.0,7,0.0,"",0.0,"",0.0,"",0.0,19-24,0.0,a student,1.0,it is a part of my study programme,1.0,"",0.0,"",0.0,9,13,2.0
Elitsa Lipovyanova,24650107,,,Your Guided Course Template,1721887,"",2019-10-01 14:28:50 UTC,1,more than 40 hours,0.0,5,0.0,5,0.0,5,0.0,"",0.0,5,0.0,Good,0.0,5,0.0,"",0.0,4,0.0,"",0.0,Enough,0.0,No preference,0.0,9,0.0,"",0.0,"I am Bulgarian but currently, live and study in the Netherlands. ",0.0,"Haagweg 18A, 4814GD, Breda, the Netherlands",0.0,19-24,0.0,a student,1.0,it is a part of my study programme,1.0,"",0.0,"",0.0,9,13,2.0
jcpuente1,24632189,,,Your Guided Course Template,1721887,"",2019-10-01 08:28:21 UTC,1,11-20 hours,0.0,5,0.0,5,0.0,5,0.0,I got a better image after watching every video lecture.,0.0,4,0.0,Good,0.0,5,0.0,"If someone has a small knowledge of the topics, this would be very useful.",0.0,3,0.0,"I learned allot, and will keep going back to the video lectures to get inspiration for future projects.",0.0,Very good,0.0,No preference,0.0,9,0.0,"Maybe show in 1 video lecture, why is this important?",0.0,Netherlands,0.0,"4815NZ, Breda",0.0,19-24,0.0,a student,1.0,other,0.0,it is part of a training programme of my employer,1.0,Biopolymeer Applicatie Centrum,0.0,9,13,2.0
Martijn de Vries,24586947,,,Your Guided Course Template,1721887,"",2019-09-26 15:17:24 UTC,1,5-10 hours,1.0,4,0.0,5,0.0,4,0.0,"",0.0,4,0.0,Too much,0.0,3,0.0,"",0.0,4,0.0,"",0.0,Enough,0.0,Following this MOOC independently.,1.0,7,0.0,"",0.0,Nederland,0.0,6226,0.0,19-24,0.0,a student,1.0,it enables me to earn elective study points,0.0,"",0.0,"",0.0,10,12,3.0
Gerson Cornejo,24726078,,,Your Guided Course Template,1721887,"",2019-09-25 23:03:01 UTC,1,11-20 hours,0.0,4,0.0,4,0.0,4,0.0,"",0.0,4,0.0,Not enough,1.0,4,0.0,"",0.0,4,0.0,"",0.0,Enough,0.0,Following this MOOC independently.,1.0,8,0.0,"",0.0,"",0.0,"",0.0,19-24,0.0,a working professional,0.0,it enables me to earn elective study points,0.0,other,0.0,"",0.0,9,13,2.0
Gijs,24699450,,,Your Guided Course Template,1721887,"",2019-09-13 08:35:40 UTC,1,5-10 hours,1.0,4,0.0,3,0.0,4,0.0,/,0.0,4,0.0,Good,0.0,4,0.0,/,0.0,4,0.0,/,0.0,Enough,0.0,No preference,0.0,8,0.0,No.,0.0,Netherlands.,0.0,5021KB/ Tilburg,0.0,19-24,0.0,a student,1.0,other,0.0,No answer text provided.,0.0,Biopolymeer applicatie centrum.,0.0,9,13,2.0
ward vermeer ,24632174,,,Your Guided Course Template,1721887,"",2019-09-13 08:34:28 UTC,1,5-10 hours,1.0,4,0.0,4,0.0,4,0.0,"",0.0,4,0.0,Good,0.0,3,0.0,"",0.0,4,0.0,"",0.0,Very good,0.0,Following this MOOC online in combination with classroom activities.,0.0,7,0.0,"",0.0,nederland ,0.0,5133 cn ,0.0,13-18,1.0,a student,1.0,it is a part of my study programme,1.0,it is part of a training programme of my employer,1.0,study ,0.0,12,10,5.0
Dagmar de Wolf,24632172,,,Your Guided Course Template,1721887,"",2019-09-13 08:31:18 UTC,1,11-20 hours,0.0,4,0.0,3,0.0,4,0.0,"",0.0,3,0.0,Enough,0.0,4,0.0,"",0.0,4,0.0,"",0.0,Enough,0.0,Following this MOOC independently.,1.0,8,0.0,There are people who aren't that good in English. Maybe it's a idea to make a Dutch version. ,0.0,The Netherlands,0.0,4744 AX,0.0,19-24,0.0,a student,1.0,other,0.0,it is part of a training programme of my employer,1.0,It's part of my internship ,0.0,10,12,3.0
